[{
    "channelTitle": "Bulgarian Veg Society",
    "channelid": "Bulgarian Veg Society",
    "contentDetails": {
        "caption": "false",
        "definition": "hd",
        "dimension": "2d",
        "duration": "PT52M39S",
        "licensedContent": false,
        "projection": "rectangular"
    },
    "country": "RS",
    "description": "\u0424\u0435\u0441\u0442\u0438\u0432\u0430\u043b \"\u0415\u0442\u0438\u0447\u0435\u043d \u0441\u0432\u044f\u0442 - \u043f\u043e-\u0434\u043e\u0431\u0440\u043e\u0442\u043e \u0431\u044a\u0434\u0435\u0449\u0435\" 2019 \u041b\u0435\u043a\u0446\u0438\u044f\u0442\u0430 \u0435 \u0438\u0437\u043d\u0435\u0441\u0435\u043d\u0430 \u043d\u0430 01.09.2019 \u0433. \u043e\u0442 \u0418\u0432\u0430\u0439\u043b\u043e \u041f\u043e\u043f\u043e\u0432, \u0441\u0434\u0440\u0443\u0436\u0435\u043d\u0438\u0435 \"\u0417\u0430...",
    "id": "yidMz6Ovg18",
    "publishedAt": "2019-09-02T23:33:57.000Z",
    "statistics": {
        "commentCount": "0",
        "dislikeCount": "0",
        "favoriteCount": "0",
        "likeCount": "9",
        "viewCount": "199"
    },
    "title": "\u0418\u0432\u0430\u0439\u043b\u043e \u041f\u043e\u043f\u043e\u0432, \u041d\u043e\u0432\u043e\u0442\u043e \u043f\u043e\u043a\u043e\u043b\u0435\u043d\u0438\u0435 \u0413\u041c\u041e - \u0440\u0438\u0441\u043a\u043e\u0432\u0435 \u0438 \u043b\u0438\u043f\u0441\u0430 \u043d\u0430 \u043a\u043e\u043d\u0442\u0440\u043e\u043b"
},{
    "channelTitle": "\u041d\u043e\u0432\u0438\u043d\u0438\u0442\u0435 \u0414\u043d\u0435\u0441",
    "channelid": "\u041d\u043e\u0432\u0438\u043d\u0438\u0442\u0435 \u0414\u043d\u0435\u0441",
    "contentDetails": {
        "caption": "false",
        "definition": "hd",
        "dimension": "2d",
        "duration": "PT9M",
        "licensedContent": false,
        "projection": "rectangular"
    },
    "country": "RS",
    "description": "\u0418\u043d\u0436. \u0410\u043b\u0435\u043a\u0441\u0430\u043d\u0434\u044a\u0440 \u0410\u0442\u0430\u043d\u0430\u0441\u043e\u0432 \u0435 \u0435\u0434\u0438\u043d \u043e\u0442 \u0432\u0438\u0434\u043d\u0438\u0442\u0435 \u0431\u044a\u043b\u0433\u0430\u0440\u0441\u043a\u0438 \u0435\u043a\u0441\u043f\u0435\u0440\u0442\u0438 \u0432 \u043e\u0431\u043b\u0430\u0441\u0442\u0442\u0430 \u043d\u0430 \u0430\u0433\u0440\u043e\u0435\u043a\u043e\u043b\u043e\u0433\u0438\u044f\u0442\u0430 \u0438 \u0431\u0438\u043e \u0437\u0435\u043c\u0435\u0434\u0435\u043b\u0438\u0435...",
    "id": "jditAk2GCGc",
    "publishedAt": "2016-06-10T11:44:05.000Z",
    "statistics": {
        "commentCount": "0",
        "dislikeCount": "0",
        "favoriteCount": "0",
        "likeCount": "2",
        "viewCount": "1107"
    },
    "title": "\u0418\u043d\u0436. \u0410\u043b\u0435\u043a\u0441\u0430\u043d\u0434\u044a\u0440 \u0410\u0442\u0430\u043d\u0430\u0441\u043e\u0432: \u0422\u044f\u0445\u043d\u0430\u0442\u0430 \u0434\u044a\u0440\u0436\u0430\u0432\u0430 \u2013 \u041b\u0443\u0434\u043d\u0438\u0446\u0430 \u0420\u0435\u043f\u0443\u0431\u043b\u0438\u043a\u0430 \u0411\u044a\u043b\u0433\u0430\u0440\u0438\u044f \u0443\u0431\u0438\u0432\u0430 \u043d\u0430\u0448\u0435\u0442\u043e \u0437\u0435\u043c\u0435\u0434\u0435\u043b\u0438\u0435"
}]