channelTitle,channelid,contentDetails/caption,contentDetails/definition,contentDetails/dimension,contentDetails/duration,contentDetails/licensedContent,contentDetails/projection,country,description,id,publishedAt,statistics/dislikeCount,statistics/favoriteCount,statistics/likeCount,statistics/viewCount,title,statistics/commentCount,contentDetails/regionRestriction/blocked/0
IN GULBARGA CHANNEL,IN GULBARGA CHANNEL,false,sd,2d,PT7M9S,true,rectangular,IN,"THIS VIDEO IS ONLY FOR PROMOTION PURPOSE.SONGS PLAYED DURING THIS EVENT ARE THE PROPERTY OF RESPECTED COMPANIES.""Copyright ...",Z8USjenx45w,2019-09-12T08:59:31.000Z,2,0,1,43,ರಾಷ್ಟ್ರೀಯ ಜಾನುವಾರು ರೋಗ ನಿಯಂತ್ರಣ :   ಕಲಬುರ್ಗಿಯ ಜಿಲ್ಲಾ ಕೃಷಿ ವಿಜ್ಞಾನ ಕೇಂದ್ರದಲ್ಲಿ ನಡೆದ ನೇರ ಪ್ರಸಾರ.,,
TV5 Kannada,TV5 Kannada,false,hd,2d,PT6M31S,true,rectangular,IN,ಅತಂತ್ರ ಸ್ಥಿತಿಯಲ್ಲಿ ಖಾಸಗಿ ಕೃಷಿ ವಿಜ್ಞಾನ ಕಾಲೇಜು ವಿದ್ಯಾರ್ಥಿಗಳು TV5 Kannada - News You can...,A729NC81ZkI,2018-06-21T08:51:02.000Z,32,0,210,4538,ಅತಂತ್ರ ಸ್ಥಿತಿಯಲ್ಲಿ ಖಾಸಗಿ ಕೃಷಿ ವಿಜ್ಞಾನ ಕಾಲೇಜು ವಿದ್ಯಾರ್ಥಿಗಳು | TV5 Kannada,42,
SSV TV,SSV TV,false,hd,2d,PT1M42S,true,rectangular,IN,ಬೀದರನ ಕೃಷಿ ವಿಜ್ಞಾನ ಕೇಂದ್ರದಲ್ಲಿ ಮಾನ್ಯ ಪ್ರಧಾನಮಂತ್ರಿಯವರ ನೇರ ಪ್ರಸಾರ ಕಾರ್ಯಕ್...,JGst3NhQZIU,2019-09-13T05:46:26.000Z,0,0,0,2,ಬೀದರನ ಕೃಷಿ ವಿಜ್ಞಾನ ಕೇಂದ್ರದಲ್ಲಿ ಮಾನ್ಯ ಪ್ರಧಾನಮಂತ್ರಿಯವರ ನೇರ ಪ್ರಸಾರ ಕಾರ್ಯಕ್ರಮ ವೀಕ್ಷಿಸಿದ ಪಶು ಸಂಗೋಪನೆ,0,
PRAGATHI TV OFFICIAL,PRAGATHI TV OFFICIAL,false,sd,2d,PT42M49S,true,rectangular,IN,ಮರ ಬೆಳೆದಂತೆ ಎಷ್ಟು ನೀರನ್ನು ಕೊಡಬೇಕು..? ತೋಟಗಾರಿಕೆ ಕೃಷಿಯಲ್ಲಿ ಉಳಿಮೆಗೆ ಅವಕಾಶವಿಲ...,Ofz8KRbwi34,2019-08-07T14:30:20.000Z,21,0,460,20297,ನೈಸರ್ಗಿಕ ಕೃಷಿಯಲ್ಲಿ ಇಲ್ಲ ಉಳಿಮೆಗೆ ಅವಕಾಶ..!! | RAITHAPARAGATHI,16,
D Media,D Media,false,hd,2d,PT13M7S,true,rectangular,IN,"TARALABALU KVK, DAVANAGERE - DMEDIA CENTER DAVANGERE.",zKR_hac418g,2019-06-04T11:55:06.000Z,0,0,3,58,ತರಳಬಾಳು ಕೃಷಿ ವಿಜ್ಞಾನ ಕೇಂದ್ರ# ದಾವಣಗೆರೆ ....,0,
parshu Natekar,parshu Natekar,false,hd,2d,PT9M29S,false,rectangular,,,xtPL1YtWIg8,2019-09-12T18:02:37.000Z,0,0,0,6,ಸುರಪುರ ತಾಲೂಕಿನ ಕವಡಿಮಟ್ಟಿಯಲ್ಲಿ ಐ ಸಿ ಎ ಆರ್ ಕೃಷಿ ವಿಜ್ಞಾನ ಕೇಂದ್ರ ಯಾದಗಿ,0,
ICAR-Taralabalu KVK,ICAR-Taralabalu KVK,false,hd,2d,PT2M9S,false,rectangular,IN,ತರಳಬಾಳು ಕೃಷಿ ವಿಜ್ಞಾನ ಕೇಂದ್ರ .ದಾವಣಗೆರೆ # ಒಂದು ಪರಿಚಯ.,J4jY-GEHtd4,2019-06-04T11:05:57.000Z,0,0,0,22,"ರೈತ ಮಿತ್ರ #  ತರಳಬಾಳು ಕೃಷಿ ವಿಜ್ಞಾನ ಕೇಂದ್ರ#Raitha Mitra-ICAR-Taralabalu KVK, Davanagere - Part-4",0,
D Media,D Media,false,hd,2d,PT2M42S,true,rectangular,IN,ICAR - ತರಳಬಾಳು ಕೃಷಿ ವಿಜ್ಞಾನ ಕೇಂದ್ರ .ದಾವಣಗೆರೆ - ಒಂದು ಪರಿಚಯ.,i9Ir_2_MR94,2019-06-04T09:47:16.000Z,0,0,3,42,ರೈತ ಮಿತ್ರ #  ICAR - ತರಳಬಾಳು ಕೃಷಿ ವಿಜ್ಞಾನ ಕೇಂದ್ರ PART 1,0,
ICAR-Taralabalu KVK,ICAR-Taralabalu KVK,false,hd,2d,PT4M29S,false,rectangular,IN,ತರಳಬಾಳು ಕೃಷಿ ವಿಜ್ಞಾನ ಕೇಂದ್ರ .ದಾವಣಗೆರೆ # ಒಂದು ಪರಿಚಯ.,XGkv-IBapuY,2019-06-04T11:00:06.000Z,0,0,0,16,"ರೈತ ಮಿತ್ರ #  ತರಳಬಾಳು ಕೃಷಿ ವಿಜ್ಞಾನ ಕೇಂದ್ರ # Raitha Mitra - ICAR-Taralabalu KVK, Davanagere - Part-3",0,
D Media,D Media,false,hd,2d,PT3M6S,true,rectangular,IN,ತರಳಬಾಳು ಕೃಷಿ ವಿಜ್ಞಾನ ಕೇಂದ್ರ .ದಾವಣಗೆರೆ # ಒಂದು ಪರಿಚಯ.,y7VW_4G_1xg,2019-06-04T11:38:14.000Z,0,0,2,25,ರೈತ ಮಿತ್ರ #  ತರಳಬಾಳು ಕೃಷಿ ವಿಜ್ಞಾನ ಕೇಂದ್ರ PART 5,0,
Namma Kudla News 24x7,Namma Kudla News 24x7,false,hd,2d,PT2M47S,true,rectangular,IN,"ಭಾರತೀಯ ಕೃಷಿ ಸಂಶೋಧನ ಪರಿಷತ್ ಮತ್ತು ಕೃಷಿ ವಿಜ್ಞಾನ ಕೇಂದ್ರ ದಕ್ಷಿಣ ಕನ್ನಡ ಜಿಲ್ಲೆ,...",NqZxgwTnvb0,2019-02-24T12:29:13.000Z,0,0,0,19,ಭಾರತೀಯ ಕೃಷಿ ಸಂಶೋಧನ ಪರಿಷತ್ ಮತ್ತು ಕೃಷಿ ವಿಜ್ಞಾನ ಕೇಂದ್ರ ದಕ್ಷಿಣ ಕನ್ನಡ ಜಿಲ್ಲೆ,0,
ICAR-Taralabalu KVK,ICAR-Taralabalu KVK,false,hd,2d,PT3M2S,false,rectangular,IN,ತರಳಬಾಳು ಕೃಷಿ ವಿಜ್ಞಾನ ಕೇಂದ್ರ .ದಾವಣಗೆರೆ # ಒಂದು ಪರಿಚಯ.,2j4hPlOawIU,2019-06-04T10:47:49.000Z,0,0,0,10,"ರೈತ ಮಿತ್ರ #  ತರಳಬಾಳು ಕೃಷಿ ವಿಜ್ಞಾನ ಕೇಂದ್ರ # Raitha Mitra-ICAR-Taralabalu KVK, Davanagere # Part-2",0,
KANNADA TV,KANNADA TV,false,hd,2d,PT1M7S,true,rectangular,IN,೩ಎಕರೆ ಜಮೀನಿನಲ್ಲಿ ೪ವರ್ಷದಿಂದ ದಾಳಿಂಬೆ ಸಸಿ ನೆಟ್ಟು ಲಾಭ ಕಾಣದ ರೈತ... ಬಾಗಲಕೋಟೆ ಜಿಲ...,qyziv8vyfcs,2018-07-17T10:44:51.000Z,0,0,0,14,KANNADA TV | BILAGI | ಕೃಷಿ ವಿಜ್ಞಾನ ಮಹಾ ವಿಶ್ವವಿದ್ಯಾಲಯದಿಂದ ದಾಳಿಂಬೆ ಸಸಿ ಪಡೆದು ಮೋಸ ಹೋದ ರೈತ...,0,
Kalaburagi Kampu,Kalaburagi Kampu,false,sd,2d,PT53S,false,rectangular,,ಟಿ ಎಸ್ 3 R ತೊಗರಿ ಬೀಜ ಕಲಬುರಗಿಯ ಕೃಷಿ ವಿಜ್ಞಾನ ಕೇಂದ್ರದಲ್ಲಿ ದೊರೆಯುತ್ತದೆ..,4w3cGk0D2E8,2018-06-02T09:43:15.000Z,0,0,10,1696,TS3 R Red Gram Seeds ( Use headphone ) ತೊಗರಿ ಬೀಜ ಕೃಷಿ ವಿಜ್ಞಾನ ಕೇಂದ್ರ ಗುಲ್ಬರ್ಗ,0,
EV News Kannada,EV News Kannada,false,hd,2d,PT5M52S,false,rectangular,,EVnews ಕನ್ನಡ.,TjixXXGVsh4,2018-11-23T06:20:46.000Z,0,0,3,27,ರಾಯಚೂರು ಕೃಷಿ ವಿಜ್ಞಾನ ವಿಶ್ವವಿದ್ಯಾಲಯದ 10ನೇ ಸಂಸ್ಥಾಪನಾ ದಿನಾಚರಣೆ,0,
PRAGATHI TV OFFICIAL,PRAGATHI TV OFFICIAL,false,sd,2d,PT42M38S,true,rectangular,IN,ಪೂರ್ವ ಪಶ್ಚಿಮಕ್ಕೆ ಸಾಲುಗಳನ್ನು ಹಾಕಬೇಕು ಏಕೆ..? ಬೀಜಾಮೃತದಿಂದ ಸಂಸ್ಕರಿಸುವುದು ಏಕೆ....,s5Km0BYyV9A,2019-08-23T14:54:51.000Z,1,0,65,2667,ಕಬ್ಬು ರೈತರ ಪಾಲಿಕೆ ಕಹಿಯಲ್ಲ ಸಿಹಿ..! RAITHA PRAGATHI | PRAGATHI T V,6,
PRAGATHI TV OFFICIAL,PRAGATHI TV OFFICIAL,false,sd,2d,PT39M58S,true,rectangular,IN,ಶೂನ್ಯ ಬಂಡವಾಳ ನೈಸರ್ಗಿಕ ಕೃಷಿಯಲ್ಲಿ ಸೂರ್ಯನ ಬೆಳಕಿನ ಪಾತ್ರ..? ಅಂತರ ಬೆಳೆಗಳನ್ನು...,qhv2k2N0gjE,2019-08-16T14:12:40.000Z,3,0,84,3506,ಕಬ್ಬು ಬೆಳೆಗೆ ಬೇಕಿಲ್ಲ ಹೆಚ್ಚಿನ ಬಂಡವಾಳ..! | RAITHA PRAGATHI | PRAGATHI TV,4,
P News Vijayapur,P News Vijayapur,false,hd,2d,PT3M28S,true,rectangular,IN,ಇಂಡಿ ನ್ಯೂಸ್ ಜಲಶಕ್ತಿ ಅಭಿಯಾನ ಕೃಷಿ ಇಲಾಖೆಯ ವಿಜ್ಞಾನ ಕೇಂದ್ರ ವತಿಯಿಂದ ಹಮ್...,jpaXdiyGNy0,2019-09-04T06:06:22.000Z,1,0,1,30,ಇಂಡಿ ನ್ಯೂಸ್ ಜಲಶಕ್ತಿ ಅಭಿಯಾನ                   ಕೃಷಿ ಇಲಾಖೆಯ ವಿಜ್ಞಾನ ಕೇಂದ್ರ ವತಿಯಿಂದ ಹಮ್ಮಿಕೊಳ್ಳಲಾಗಿತ್ತು,0,
ETV Bharat Kannada,ETV Bharat Kannada,false,sd,2d,PT2M1S,false,rectangular,,ರಾಯಚೂರು: ಇಲ್ಲಿ ಬಿಸಿಲಿನ ತಾಪ ಹೆಚ್ಚಿರುವ ಕಾರಣ ಮಲೆನಾಡಿನಲ್ಲಿ ಮಾಡುವ ಜೇನು ಕೃಷಿಯನ...,7aPjSpisRmM,2017-09-20T11:15:58.000Z,2,0,22,3913,ಬಿಸಿಲ ನಾಡಲ್ಲೂ ಸಿಗಲಿದೆ ಸ್ವಾದಿಷ್ಟ ಜೇನು: ಈ ಕೃಷಿ ಬಗ್ಗೆ ರೈತರಿಗೆ ತರಬೇತಿ,1,
SSV TV,SSV TV,false,hd,2d,PT1M35S,true,rectangular,IN,ವಿಜಯಪುರ ಜಿಲ್ಲೆಯ ಇಂಡಿಯಲ್ಲಿ ಜಲಶಕ್ತಿ ಅಭಿಯಾನ ಕೃಷಿ ಇಲಾಖೆ ವಿಜ್ಞಾನ ಕೇಂದ್ರ ವತಿಯ...,Ugh9TEFmN2Q,2019-09-06T07:19:21.000Z,0,0,1,3,ವಿಜಯಪುರ ಜಿಲ್ಲೆಯ  ಇಂಡಿಯಲ್ಲಿ ಜಲಶಕ್ತಿ ಅಭಿಯಾನ ಕೃಷಿ ಇಲಾಖೆ ವಿಜ್ಞಾನ ಕೇಂದ್ರ ವತಿಯಿಂದ ಹಮ್ಮಿಕೊಳ್ಳಲಾಗುವ,0,
DD Chandana,DD Chandana,false,sd,2d,PT11M43S,true,rectangular,IN,"PTS: ರಾಘವೇಂದ್ರ ಎಲಿಗಾರ್ ಕೀಟತಜ್ಞರು, ಕೆ.ವಿ.ಕೆ., ಗಂಗಾವತಿ.",owoUqTRSQsg,2019-07-22T07:21:57.000Z,5,0,79,4645,Production techniques of vermi compost_ಎರೆಹುಳು ಗೊಬ್ಬರದ ಉತ್ಪಾದನಾ ತಾಂತ್ರಿಕತೆಗಳು,8,
PRAGATHI TV OFFICIAL,PRAGATHI TV OFFICIAL,false,sd,2d,PT42M19S,true,rectangular,IN,ಬಾಳೆ ಬೆಳೆಯನ್ನು ಹೇಗೆ ಬೆಳೆಯ ಬೇಕು..? ಎಂತಹ ಬೀಜವನ್ನು ಆಯ್ಕೆ ಮಾಡಿಕೊಳ್ಳಬೇಕು..? ಗಿಡಗ...,D9gDdr8QZGM,2019-09-04T13:57:38.000Z,6,0,120,4706,ಬಾಳೆಯಿಂದ ಬಡವನ ಬದುಕು ಬಂಗಾರ | RAITHA PRAGATHI | PRAGATHI TV,9,
COMPETITIVE ADDA,COMPETITIVE ADDA,false,hd,2d,PT4M48S,true,rectangular,IN,ಕರ್ನಾಟಕ ಲೋಕಸೇವಾ ಆಯೋಗ ವಿವಿಧ ಹುದ್ದೆಗಳಿಗೆ ಅರ್ಜಿ ಆಹ್ವಾನಿಸಿದೆ. ಇಂದೇ ಅರ್ಜಿ ಸಲ್...,YNIVL37Tfr4,2018-12-07T00:48:30.000Z,0,0,6,451,"ತೋಟಗಾರಿಕೆ, ಕೃಷಿ ಮತ್ತು ಗ್ರಂಥಾಲಯಾಧಿಕಾರಿ ಹುದ್ದೆಗಳು | ಉದ್ಯೋಗಸೌಧ",5,
DD Chandana,DD Chandana,false,sd,2d,PT16M32S,true,rectangular,IN,Krishidarshana Programme_13-06-2019@6.30 ರಾಯಚೂರು ಕೃಷಿ.ವಿ.ವಿ.ಯಲ್ಲಿ ನಡೆದ ಮುಂಗಾರು ಬೀಜ ದಿನೋತ್ಸವ ಕಾರ್ಯಕ್...,f0G748lCCvI,2019-08-23T07:49:00.000Z,0,0,18,601,Report – “Kharif seed day” held at UAS Raichur,0,
B news nation Kannada,B news nation Kannada,false,hd,2d,PT3M24S,true,rectangular,,"ಚಾಮರಾಜ ನಗರದ ಕೃಷಿ ವಿಜ್ಞಾನ ಕೇಂದ್ರದಲ್ಲಿ,ನೂತನ ಕಾಲೇಜನ್ನು ಕೃಷಿ ಸಚಿವ ಶಿವಶಂಕರ್...",DTWcUwlwE9g,2018-08-27T14:38:59.000Z,0,0,2,257,ನೂತನ ಕೃಷಿ ಮಹಾವಿದ್ಯಾಲಯ ಉದ್ಘಾಟನೆ...! 27-08-2018,0,
B news nation Kannada,B news nation Kannada,false,hd,2d,PT3M21S,true,rectangular,,"ಇದೇ ತಿಂಗಳ 27 ರಂದು, ಚಾಮರಾಜನಗರದಲ್ಲಿ ನೂತನ ಕೃಷಿ ಮಹಾವಿದ್ಯಾಲಯ ಪ್ರಾರಂಭ ಮಾಡಲಾಗುತ್...",3ScIl33yfFU,2018-08-24T13:53:55.000Z,0,0,1,120,ನೂತನ ಕೃಷಿ ಮಹಾವಿದ್ಯಾಲಯ ಪ್ರಾರಂಭ.....! 24-08-2018,0,
ನಮ್ಮರೈತ. TV,ನಮ್ಮರೈತ. TV,false,hd,2d,PT21M51S,true,rectangular,IN,"ಕೃಷಿ ಮೇಳ - 2018 ಕೃಷಿ ವಿಶ್ವವಿದ್ಯಾನಿಲಯ ಗಾಂಧಿ ಕೃಷಿ ವಿಜ್ಞಾನ ಕೇಂದ್ರ , ಬೆಂಗಳೂರು 560065...",Yq7fkLijbNc,2018-11-15T05:28:27.000Z,17,0,153,26638,Krishi Mela 2018 at GKVK campus Hebbal Bangalore,6,
EI-Kannada,EI-Kannada,false,sd,2d,PT1M28S,false,rectangular,,ಚಾಮರಾಜನಗರ: ಇತ್ತೀಚೆಗಷ್ಟೆ ಕೃಷಿ ವಿಜ್ಞಾನ ಕೇಂದ್ರದಲ್ಲಿ ಪ್ರಾರಂಭಗೊಂಡ ಕೃಷಿ ವಿದ್ಯ...,pDIhZj-58S0,2018-09-13T13:32:00.000Z,0,0,2,103,ಪರಿಸರ ಸ್ನೇಹಿ ಗಣಪತಿ ಪ್ರತಿಷ್ಠಾಪಿಸಿದ ಕೃಷಿ ವಿದ್ಯಾರ್ಥಿಗಳು!,0,
Havyas Kudupaje,Havyas Kudupaje,false,sd,2d,PT2M40S,false,rectangular,,At another Krushimela past.... Waiting for next year.,iEyGfs1SDPg,2017-11-19T14:31:28.000Z,1,0,49,1454,Krushimela -2017 GKVK (ಜಿ.ಕೆ.ವಿ.ಕೆ. ಕೃಷಿ ಮೇಳ 2017) Day 4,0,
Ramesh Competitive Classes,Ramesh Competitive Classes,false,sd,2d,PT8M15S,true,rectangular,IN,"ನಮಸ್ಕಾರ ಗೆಳೆಯರೇ, ಈ ವಿಡಿಯೋದಲ್ಲಿ ನೀವು ಭಾರತದ ವ್ಯವಸಾಯದ ಬಗ್ಗೆ ಮಾಹಿತಿಯನ್ನು ಪಡೆ...",idAQd4Xigbc,2018-07-15T19:13:27.000Z,1,0,85,2701,RRB/ KPSC C Group: Indian Agriculture (ಭಾರತದ ವ್ಯವಸಾಯ ಪದ್ಧತಿ),12,
EenaduIndia Kannada,EenaduIndia Kannada,false,sd,2d,PT2M31S,false,rectangular,,ಹಾಸನ: ರೈತರಿಗೆ ಮಾಹಿತಿ ನೀಡುವ ನಿಟ್ಟಿನಲ್ಲಿ ನ. 15 ರಿಂದ 18 ರವರೆಗೆ ಜಿಕೆವಿಕೆ ಆವರಣದಲ್ಲ...,hZlBBmF3Pew,2018-11-13T08:05:30.000Z,0,0,0,40,ನವೆಂಬರ್ 15 ರಿಂದ 18ರವರೆಗೆ ಜಿಕೆವಿಕೆ ಆವರಣದಲ್ಲಿ ಕೃಷಿ ಮೇಳ,0,
MHR TV,MHR TV,false,hd,2d,PT1M39S,false,rectangular,IN,ರೈತ ಮಿತ್ರರೇ ಲಾಭದಾಯಕ ಕೃಷಿ ಪದ್ಧತಿ ಹಾಗೂ ಒಂದು ಎಕರೆಯಲ್ಲಿ ಒಂದು ಲಕ್ಷ ಸಂಪಾದನೆ...,Ikmy9H-kbRk,2019-03-19T10:27:25.000Z,0,0,9,220,Profitable Farming in Karnataka,1,
Kannada Desk,Kannada Desk,false,sd,2d,PT1M6S,false,rectangular,,ರಾಯಚೂರು: ಕೃಷಿ ವಿಶ್ವವಿದ್ಯಾಲಯದ 8ನೇ ಘಟಿಕೋತ್ಸವ ಫೆ. 27ರಂದು ನಡೆಯಲಿದೆ ಎಂದು ಕೃಷಿ...,mCVyLR0Xddk,2019-02-25T13:12:34.000Z,0,0,0,17,ಫೆ. 27 ರಂದು ರಾಯಚೂರು ಕೃಷಿ ವಿವಿಯ 8ನೇ ಘಟಿಕೋತ್ಸವ,0,
Karnataka GK studio,Karnataka GK studio,false,hd,2d,PT1M48S,false,rectangular,IN,ಅರ್ಜಿ ನಮೂನೆ; https://drive.google.com/file/d/10Rg0euH3zRd6-2mXhiabrjU19TQIrXDJ/view?usp=sharing ನೋಟಿಫಿಕೇಷನ್ ...,9mtk376BuIk,2018-10-25T08:22:31.000Z,0,0,0,7,ಉದ್ಯೋಗಾವಕಾಶ ; ಧಾರವಾಡದ ಕೃಷಿ ವಿಶ್ವವಿದ್ಯಾಲಯದಲ್ಲಿ ಖಾಲಿ ಹುದ್ದೆಗಳಿಗೆ‌ ಅರ್ಜಿ ಆಹ್ವಾನಿಸಲಾಗಿದೆ.,0,
EI-Kannada,EI-Kannada,false,sd,2d,PT1M46S,false,rectangular,,ಚಾಮರಾಜನಗರ: ಸಂಸದ ಆರ್.ಧ್ರುವನಾರಾಯಣರ ಸತತ ಪ್ರಯತ್ನದ ಮೂಲಕ ಇಂದು ಬೆಂಗಳೂರು ವಿವಿಯ...,t5wqWuP6Jdc,2018-08-27T13:56:50.000Z,0,0,1,16,ಕೃಷಿ ಕಾಲೇಜು ಉದ್ಘಾಟನೆ... ಗಡಿ ಜಿಲ್ಲೆಗೆ ಮತ್ತೊಂದು ಶೈಕ್ಷಣಿಕ ಗರಿ,0,
EI-Kannada,EI-Kannada,false,sd,2d,PT1M16S,false,rectangular,,ದೊಡ್ಡಬಳ್ಳಾಪುರ: ತಾಲೂಕಿನ ಹಾಡೋನಹಳ್ಳಿಯಲ್ಲಿರುವ ಕೃಷಿ ವಿಜ್ಞಾನ ಕೇಂದ್ರದಲ್ಲಿ ಗ್ರ...,e7DHNo3x-I4,2019-01-03T00:25:33.000Z,0,0,0,9,ಕೃಷಿ ವಿಜ್ಞಾನಿಗಳಿಂದ ಯುವ ರೈತರಿಗೆ ಉಚಿತ ಕೌಶಲ್ಯಾಭಿವೃದ್ಧಿ ತರಬೇತಿ ಶಿಬಿರ,0,
VIJAY KUMAR A.SARODE,VIJAY KUMAR A.SARODE,false,sd,2d,PT13M21S,false,rectangular,,ಬೀಜ ಬಿತ್ತಿದ ನಂತರ ಬೆಳೆಗೆ ಋತುಮಾನ ಹಾಗೂ ಹವಾಮಾನಗಳ ಬದಲಾವಣೆಯಿಂದಾಗಿ ವಿವಿಧ ಹಂತಗಳ...,3CLKLcWmQKU,2018-10-31T14:00:50.000Z,0,0,7,236,"ಇ-ಸ್ಯಾಪ್ ತಂತ್ರಜ್ಞಾನ, ರಾಯಚೂರು ಕೃಷಿ ಮಹಾವಿಶ್ವವಿದ್ಯಾಲಯ/E-SAP Technology By UAS Raichur",1,
PRAGATHI TV OFFICIAL,PRAGATHI TV OFFICIAL,false,sd,2d,PT45M55S,true,rectangular,IN,"ನೈಸರ್ಗಿಕ ಕೃಷಿಯಲ್ಲಿ ಅತ್ಯಂತ ಕಡಿಮೆ ನೀರನ್ನು ಬಳಸಿ ವ್ಯವಸಾಯವನ್ನು ಮಾಡಬಹುದು, ಬಳಕ...",sR0L5IAXyNE,2019-06-14T13:23:50.000Z,6,0,137,8117,ಅತ್ಯಂತ ಕಡಿಮೆ ನೀರನ್ನು ಬಳಸಿ ಕೃಷಿ ಮಾಡೋದು ಹೇಗೆ |How to cultivate using very little water 2019,7,
STS pool,STS pool,false,hd,2d,PT5M27S,false,rectangular,IN,"ಕೃಷಿಕರ ಕೋಟಾದಡಿ ರೈತ ಕುಟುಂಬಗಳ ವಿದ್ಯಾರ್ಥಿಗಳು, ಕೃಷಿ ವಿಜ್ಞಾನ ಪದವಿಗಳಿಗೆ ಪ್ರವೇ...",TP2fBtwoUiY,2019-04-13T22:30:51.000Z,0,0,23,254,Agriculturist Quota Practical test,1,
Kannada Desk,Kannada Desk,false,sd,2d,PT3M23S,false,rectangular,,ಚಾಮರಾಜನಗರ: ಹರದನಹಳ್ಳಿಯ ಕೃಷಿ ವಿಜ್ಞಾನ ಕೇಂದ್ರವು ಕೊಕೊನಟ್ ಫ್ರೆಂಡ್ಸ್ ಎಂಬ ಹೆಸರಿ...,iEubHtTRU6I,2019-02-12T14:37:16.000Z,0,0,0,272,ನಿರುದ್ಯೋಗಿ ಯುವ ರೈತರಿಗೆ ‘ಕೊಕೊನಟ್​ ಫ್ರೆಂಡ್ಸ್’ ಆಸರೆ,0,
Public TV | ಪಬ್ಲಿಕ್ ಟಿವಿ,Public TV | ಪಬ್ಲಿಕ್ ಟಿವಿ,false,sd,2d,PT45S,false,rectangular,IN,Read detail news at www.publictv.in Subscribe on YouTube: https://www.youtube.com/user/publictvnewskannada?sub_confirmation=1 Follow us on Google+ ...,PDoNtMjkhFg,2016-02-02T12:32:44.000Z,0,0,4,1192,ಕೃಷಿ ಕೆಲಸ ಮಾಡುತ್ತೆ ಜಪಾನ್‍ನ ಈ ರೊಬೋಟ್,0,
Malnad Career ಮಲ್ನಾಡ್ ಕರಿಯರ್,Malnad Career ಮಲ್ನಾಡ್ ಕರಿಯರ್,false,hd,2d,PT1M38S,true,rectangular,IN,raichur agricultural university recruitment 2019 Link http://uasraichur.edu.in/index.php/en/recruitment/appointments/new-appointments/notifications-circulars.,zBoBZkdeoYA,2019-03-27T05:06:51.000Z,1,0,21,1348,ರಾಯಚೂರು ವಿಶ್ವವಿದ್ಯಾಲಯದಲ್ಲಿ ವಿವಿಧ ಹುದ್ದೆಗಳ ನೇಮಕಾತಿ ಅಧಿಸೂಚನೆ raichur agriculture university recruitmen,0,
Rohit RSR,Rohit RSR,false,hd,2d,PT1M54S,false,rectangular,,ಲಿಂಬೆ ಗಿಡದಲ್ಲಿಬರುವಂತ ಕಜಿ ರೋಗ ಲಕ್ಷಣಗಳು ಅಥವಾ ಅದರ ಮೇಲಿನ ಎಲೆಗಳು ಉದುರಿ ಮತ್ತೆ...,pJKSLSFF_TY,2019-07-31T13:09:53.000Z,0,0,4,79,ಲಿಂಬೆ ಹಣ್ಣಿನ ಗಿಡಗಳಿಗೆ ರೋಗ ನಿರೋಧಕ ಶಸ್ತ್ರಚಿಕಿತ್ಸೆ,0,
K99news Kannada,K99news Kannada,false,hd,2d,PT2M36S,false,rectangular,,ಜಿಲ್ಲಾಧಿಕಾರಿಗಳ ಅಧ್ಯಕ್ಷತೆಯಲ್ಲಿ ಹೊಯ್ಸಳ ಜಿಲ್ಲಾ ಪಂಚಾಯತ್ ಸಭಾಂಗಣದಲ್ಲಿ ಕಾರ್ಯ...,AV4A-ziC_OY,2019-07-31T09:18:02.000Z,0,0,3,68,ಅರಸೀಕೆರೆ ತಾಲೂಕಿನ ಕಲ್ಗುಂಡಿ ಗ್ರಾಮದ ಪಂಚಾಯತಿಯಲ್ಲಿ ಜಲಶಕ್ತಿ ಕಲ್ಯಾಣ ಬಾವಿಯ ಸ್ವಚ್ಛತೆ ಕಾರ್ಯಕ್ರಮ,0,
tv99 kannada,tv99 kannada,false,hd,2d,PT2M6S,true,rectangular,,ರಾಯಚೂರು ಜಿಲ್ಲೆಯ ಸಿಂಧನೂರು ತಾಲೂಕಿನ ೨ನೇ ಕಲ್ಬುರ್ಗಿ ಎಂದೇ ಪ್ರಸಿದ್ಧಿ ಪಡೆದ ಕಲಮಂ...,AASLYgxaKiM,2019-09-03T05:24:47.000Z,0,0,8,57,ಕಲಮಂಗಿ ಗ್ರಾಮದಲ್ಲಿ ಮಹಾಮಹಿಮ ಹಾಗೂ ತ್ರಿವಿಧ ದಾಸೋಹಮೂರ್ತಿ ಶರಣಬಸವೇಶ್ವರರ ೩೦ನೇ ವರ್ಷದ ಪುರಾಣ ಮಹಾಮಂಗಲೋತ್ಸವ ಹಾಗೂ ಕ,0,
SSV TV,SSV TV,false,hd,2d,PT1M9S,true,rectangular,IN,ಪ್ರಧಾನಮಂತ್ರಿ ನರೇಂದ್ರ ಮೋದಿ ಅವರು ಉತ್ತರ ಪ್ರದೇಶದ ಮಥುರಾದಲ್ಲಿ “ಗೋಕುಲ ಮಿಷನ್”...,RSgvgS1_qPI,2019-09-13T04:05:49.000Z,0,0,0,3,ಪ್ರಧಾನಮಂತ್ರಿ ನರೇಂದ್ರ ಮೋದಿ ಅವರು ಉತ್ತರ ಪ್ರದೇಶದ ಮಥುರಾದಲ್ಲಿ “ಗೋಕುಲ ಮಿಷನ್” ಯೋಜನೆಯಡಿ ರಾಷ್ಟ್ರೀಯ,0,
Suvarna News | ಸುವರ್ಣ ನ್ಯೂಸ್,Suvarna News | ಸುವರ್ಣ ನ್ಯೂಸ್,false,sd,2d,PT2M18S,true,rectangular,IN,Karnataka Elections: ಸಚಿವ ಎಚ್ ಕೆ ಪಾಟೀಲ್ ಪರ ನಿಂತರಾ ಗದಗ ಎಸಿ ಮಂಜುನಾಥ್?.ಕೇಂದ್ರ ಚುನಾವಣಾ ಆಯೋಗ...,YfTLoh5_Vrw,2018-04-01T07:34:30.000Z,3,0,2,1282,Poll Code Violation: Gadag AC Manjunath Transferred | ಕಾಂಗ್ರೆಸ್ ಪರ ಕೆಲಸ ಆರೋಪ: ಗದಗ ಎಸಿ ಎತ್ತಂಗಡಿ,0,
Manjunatha G,Manjunatha G,false,sd,2d,PT7M11S,false,rectangular,,ಡಾ|| ಖಾದರ್ ಮೂಲತಃ ಆಂದ್ರ ಪ್ರದೇಶದ ಕಡಪ ಜಿಲ್ಲೆಯವರು. ಆದರೆ ಸ್ನಾತಕೋತ್ತರ ಮತ್ತು ಡಾಕ್...,rOYCTCnQDnE,2014-06-17T17:03:47.000Z,0,0,13,768,ಆರೋಗ್ಯಕ್ಕಾಗಿ ಆಹಾರ - ಆಹಾರಕ್ಕಾಗಿ ಕೃಷಿ 2 (Food for Health - Farming for Food),2,
Tv9 Kannada,Tv9 Kannada,false,sd,2d,PT6M2S,true,rectangular,IN,"TV9 Breaking News: Framers Upset On Negligence of Cotton Breeding by Raichur Agricultural University , Even After Central Govt Approval ▻ Download TV9 ...",WCgPweugQKg,2017-11-12T06:15:58.000Z,0,0,5,1283,Framers Upset On Negligence of Cotton Breeding by Raichur Agricultural University,0,
PRAGATHI TV OFFICIAL,PRAGATHI TV OFFICIAL,false,sd,2d,PT2M14S,true,rectangular,IN,"ಕೃಷಿ ಇಲಾಖೆ, ತೋಟಗಾರಿಕೆ ಇಲಾಖೆಯಿಂದ ರೈತರಿಗೆ ಮಾಹಿತಿ #agriculture#gubbi#pragathitv.",Yr5KWUjO74s,2019-07-08T13:05:36.000Z,0,0,2,67,"ಕೃಷಿ ಇಲಾಖೆ, ತೋಟಗಾರಿಕೆ ಇಲಾಖೆಯಿಂದ ರೈತರಿಗೆ ಮಾಹಿತಿ",0,
DD Chandana,DD Chandana,false,sd,2d,PT9M45S,true,rectangular,IN,Krishidarshan_03-01-2019@6.30pm ಸುಸ್ಥಿರ ಉತ್ಪಾದಕತೆಗೆ ಮಣ್ಣಿನಲ್ಲಿ ಸಮತೋಲನ ಪೋಷಕಾಂಶಗಳ ನಿರ್ವಹಣೆ...,EjBJK3R1NUg,2019-03-13T09:51:27.000Z,0,0,6,290,Balanced Nutrient management for sustainable agricultural productivity,0,
Chief Minister of Karnataka,Chief Minister of Karnataka,false,sd,2d,PT10M10S,false,rectangular,IN,ದಿನಾಂಕ 13-11-2016 ರಂದು ಬೆಂಗಳೂರಿನ ಗಾಂಧಿ ಕೃಷಿ ವಿಜ್ಞಾನ ಕೇಂದ್ರದ ಡಾ. ಬಾಬು ರಾಜೇಂದ್ರ...,dqoxpZ4Rz1I,2016-11-14T07:31:57.000Z,0,0,0,66,CM presents Film Awards 2014-15,0,
Kannadamma News Network,Kannadamma News Network,false,hd,2d,PT42S,false,rectangular,IN,ಸ್ವಾತಂತ್ರ್ಯ ಗಳಿಸಿದ ನಂತರ ಲಕ್ಷ ಕೋಟಿ ಹಾಗೂ ಅಣೆಕಟ್ಟು ಕಟ್ಟಿದ್ದೇವೆ ಕಾಲುವೆ ಕಟ್...,UGZTyEpDWV4,2018-11-17T12:10:37.000Z,0,0,0,22,ಹೂಸೂರಿನಲ್ಲಿ 65ನೇ ಅಖಿಲ ಭಾರತ ಸಹಕಾರ ಸಪ್ತಾಹ ಆಚರಣೆ || 17-11-2018,0,
EI-Kannada,EI-Kannada,false,sd,2d,PT46S,false,rectangular,,ಮಂಡ್ಯ: ಯಾವುದೇ ಯೋಜನೆ ಜಾರಿಯಾಗಬೇಕಾದರೆ ಮೊದಲು ಪ್ರಯೋಗ ಮತ್ತು ಪ್ರಾತ್ಯಕ್ಷಿಕೆ ಮಾಡ...,eXYJv7LnE6Q,2018-12-04T04:39:48.000Z,0,0,2,254,ಇಸ್ರೇಲ್​ ಮಾದರಿ ಕೃಷಿ: ಮಂಡ್ಯದಲ್ಲಿ ಪ್ರಯೋಗ ಯಶಸ್ವಿ,0,
B news nation Kannada,B news nation Kannada,false,hd,2d,PT10M16S,true,rectangular,,ಚಡಚಣ ಸಮೀಪದ ದಸೂರ ಗ್ರಾಮದ ಸರ್ಕಾರಿ ಹಿರಿಯ ಪ್ರಾಥಮಿಕ ಶಾಲೆಯ ವಿದ್ಯಾರ್ಥಿನಿಯರು ವಿಜ...,g7J6ToQ6ku8,2018-12-27T05:14:24.000Z,0,0,21,1373,ವಿಜ್ಞಾನ ವಸ್ತು ಪ್ರದರ್ಶನದಲ್ಲಿ ರಾಜ್ಯ ಮಟ್ಟಕ್ಕೆ ಆಯ್ಕೆಯಾಗಿದ ಚಡಚಣ ತಾಲೂಕಿನ ವಿದ್ಯಾರ್ಥಿನಿಯರು...! 26-12-2018,3,
HUDA AGRI COACHING CLASSES DHARWAD class,HUDA AGRI COACHING CLASSES DHARWAD class,false,hd,2d,PT30S,false,rectangular,,ಹುದಾ ಕೃಷಿ ತರಬೇತಿ ಕೇಂದ್ರ ಧಾರವಾಡ ☘* ರೈತರ ಮಕ್ಕಳಿಗೆ ಸುವಣಾ೯ವಕಾಶ ಪಿ ಯು ವಿಜ...,WtK9NdS2Vyo,2019-04-09T07:18:17.000Z,0,0,12,442,BSc Agriculture practical exam 2019 Agriculture practical Test 2019,0,
RAGHU EDUCARE,RAGHU EDUCARE,false,hd,2d,PT2M43S,true,rectangular,IN,ಕ್ಟರ್ ಔಷಧಿ ಸಿಂಪಡಿಸುವ ಯಂತ್ರ ಹಾಗೂ ಉಳುಮೆ ಯಂತ್ರ ಹೀಗೆ ಅನೇಕ ಉಪಕರಣಗಳನ್ನು ಖರೀದಿಸ...,hg_M8PERV0M,2019-03-14T01:15:00.000Z,0,0,12,423,Increase In Subsidy to purchase agricultural machineries|ಕೃಷಿ ಉಪಕರಣಗಳನ್ನು ಖರೀದಿಸಲು ಹೆಚ್ಚಿನ ಸಬ್ಸಿಡಿ,3,
Ravindra Dastikop,Ravindra Dastikop: The Practice of Digital India,false,hd,2d,PT1M7S,true,rectangular,IN,"ಸಂವೇದನಾ ವಿಜ್ಞಾನವು ದೃಷ್ಟಿ ವಾಸನೆ, ರುಚಿ, ಸ್ಪರ್ಶ ಮತ್ತು ಶ್ರವಣಗಳ ಇಂದ್ರಿಯಗಳಿಂದ...",NEUW_PO6NUY,2018-01-16T09:45:12.000Z,0,0,0,35,ಸಂವೇದನಾ ವಿಜ್ಞಾನ Sensory Science,0,
Dighvijay 24X7 News,Dighvijay 24X7 News,false,hd,2d,PT7M44S,true,rectangular,IN,Dighvijay News - Karnataka CET results declared ▻http://www.dighvijaytv.in ▻https://www.facebook.com/DighvijayNews/ ▻click the link to dighvijay news live ...,XHsYNg3Tt44,2018-06-01T11:33:36.000Z,0,0,0,111,Karnataka CET results declared | ಪ್ರಸಕ್ತ ಸಾಲಿನ ಸಿಇಟಿ ಫಲಿತಾಂಶ ಪ್ರಕಟ,0,
Jagadeesh Balehadda 'ರೈತ ಮಿತ್ರ',Jagadeesh Balehadda 'ರೈತ ಮಿತ್ರ',false,hd,2d,PT2M2S,false,rectangular,,ಸ್ಕಿಲ್ ಬ್ಲೋವರ್ ಖರೀದಿಸಲು https://www.flipkart.com/skil-8600-air-blower/p/itme22fskygbqntr.,FxvDzZvHFiQ,2019-05-01T03:54:38.000Z,0,0,2,48,ಕೃಷಿ ಉತ್ಪನ್ನಗಳನ್ನು ಸ್ವಚ್ಛಗೊಳಿಸಲು ಸುಲಭ ವಿಧಾನ.,0,
Raitha Janya [SDM],Raitha Janya [SDM],false,hd,2d,PT4M23S,true,rectangular,,ಸ್ವದೇಶಿ ನಿರ್ಮಿತ ಉತ್ಪನ್ನ ||by raitha janya 9482958122.,SnKvURnC45Y,2019-05-19T10:38:21.000Z,0,0,6,289,ಸಾವಯವ ಕೃಷಿ ಹರಿತ ಸಂಜೀವಿನಿ ಉಪಯೋಗಿಸಿ ಬೆಳೆದ ಕಬ್ಬು,0,
EenaduIndia Kannada,EenaduIndia Kannada,false,sd,2d,PT1M59S,false,rectangular,,ಮೂಡುಬಿದಿರೆ: ಆಳ್ವಾಸ್ ನುಡಿಸಿರಿಯು ಬರಿ ಸಾಹಿತ್ಯ ಸಮ್ಮೇಳನವಾಗದೆ ಇಂದು ವಿಜ್ಞಾನ...,6dICdw-B5RE,2018-11-17T15:23:03.000Z,0,0,0,80,ಆಳ್ವಾಸ್​​ ನುಡಿಸಿರಿಯಲ್ಲಿ ಗಮನ ಸೆಳೆದ ಕೃಷಿ ಸಿರಿ,0,
Btv News Ɩ ಬಿಟಿವಿ ನ್ಯೂಸ್,Btv News Ɩ ಬಿಟಿವಿ ನ್ಯೂಸ್,false,sd,2d,PT2M53S,true,rectangular,IN,"Btv News: ಚಿಕ್ಕಬಳ್ಳಾಪುರದಲ್ಲಿ ಕೃಷಿ ಮೇಳ, ಕೃಷಿ ವಸ್ತು ಪ್ರದರ್ಶನ Subscribe / Follows on our official Channels:...",yAtYyY4KSJY,2019-02-03T03:34:22.000Z,1,0,2,324,"ಚಿಕ್ಕಬಳ್ಳಾಪುರದಲ್ಲಿ ಕೃಷಿ ಮೇಳ, ಕೃಷಿ ವಸ್ತು ಪ್ರದರ್ಶನ",0,
B news nation Kannada,B news nation Kannada,false,hd,2d,PT2M10S,true,rectangular,,ಮುಳಬಾಗಿಲಿನ ಕಾಡೇನಹಳ್ಳಿ ಗ್ರಾಮದ ಕೆಸಿ ವೀರಭದ್ರಯ್ಯ ಎಂಬವರಿಗೆ ಸೇರಿದ ೩.೩೬ ಗುಂಟೆ...,Brmj9Re_zYQ,2019-07-14T06:35:51.000Z,0,0,3,143,ಕೃಷಿ ಸಾಮಾನು ಧ್ವಂಸ...! 13-07-2019,0,
DD Chandana,DD Chandana,false,sd,2d,PT8M6S,true,rectangular,IN,"Krishidarshan Bengaluru Krishivarthe ""ಕೃಷಿ ವಾರ್ತೆ "". 30-3-2018 ಹಿಪ್ಪುನೇರಳೆ ಕೃಷಿ ಹಿಪ್ಪುನೇರಳೆ ಕೃಷಿಸಮಗ್ರ...",R8Iqb9LRKBE,2018-10-22T12:00:08.000Z,1,0,8,478,Krishivarthe &quot;ಕೃಷಿ ವಾರ್ತೆ &quot;. 30-3-2018,0,
DD Chandana,DD Chandana,false,sd,2d,PT8M51S,true,rectangular,IN,Krishidarshan Programme on 11 Feb 2019 Gadagadalli Nadeda krishi tantrajnana mattu yantropakaranagala vastu pradarshanada varadi. ಗದಗದಲ್ಲಿ ನಡೆದ ...,MDbqdCPBwtI,2019-03-07T07:11:39.000Z,5,0,18,1069,Report_ಗದಗದಲ್ಲಿ ನಡೆದ ಕೃಷಿ ತಂತ್ರಜ್ಞಾನ ಮತ್ತು ಕೃಷಿ ಯಂತ್ರೋಪಕರಣಗಳ ವಸ್ತು ಪ್ರದರ್ಶನ,0,
Nammuru TV,Nammuru TV,false,sd,2d,PT1M28S,true,rectangular,IN,"ಬಳ್ಳಾರಿ, /ಬಳ್ಳಾರಿ:ಕೃಷಿ ಸಂಶೋಧನಾ ಕೇಂದ್ರ ಹಗರಿ ಮತ್ತು ಕೃಷಿ ಡಿಪ್ಲೋಮಾ ಕಾಲೇಜು ಮತ್...",SBx5C5-Y9f4,2017-08-29T09:51:41.000Z,1,0,0,675,ಜೈವಿಕ ಇಂಧನ ದಿನ ಆಚರಣೆ,0,
Manjunatha G,Manjunatha G,false,sd,2d,PT48M47S,false,rectangular,,ಡಾ|| ಖಾದರ್ ಮೂಲತಃ ಆಂದ್ರ ಪ್ರದೇಶದ ಕಡಪ ಜಿಲ್ಲೆಯವರು. ಆದರೆ ಸ್ನಾತಕೋತ್ತರ ಮತ್ತು ಡಾಕ್...,QkauLgKvAVY,2014-06-17T03:28:18.000Z,5,0,67,5536,ಆರೋಗ್ಯಕ್ಕಾಗಿ ಆಹಾರ - ಆಹಾರಕ್ಕಾಗಿ ಕೃಷಿ (Food for Health - Farming for Food),5,
ನಮ್ಮರೈತ. TV,ನಮ್ಮರೈತ. TV,false,hd,2d,PT4M33S,true,rectangular,IN,ಅವರೆ ಮತ್ತು ತೊಗರಿ ಬೇಳೆಯ ತಳಿಗಳು ©️©️©️©️©️©️©️©️©️©️©️©️©️©️©️©️©️©️©️©️©️©️©️...,oNheBLmAUDA,2018-12-14T19:33:10.000Z,1,0,27,1704,ಅಧಿಕ ಇಳುವರಿಯ ಅವರೆ ಮತ್ತು ತೊಗರಿ ಬೇಳೆಯ ವಿವಿಧ ಬಗೆಯ ತಳಿಗಳು,0,
Raman Tutorial For G.K,Raman Tutorial For G.K,false,hd,2d,PT18M4S,true,rectangular,IN,,zTCgXq13dao,2019-04-05T16:54:43.000Z,0,0,75,1576,"6-8 CET  ಭಾರತದ ಭೂಗೋಳ : ಹಸಿರು ಕ್ರಾಂತಿ , ಜೈವಿಕ ಕೃಷಿ .",2,
HUDA AGRI COACHING CLASSES DHARWAD class,HUDA AGRI COACHING CLASSES DHARWAD class,false,hd,2d,PT30S,false,rectangular,,ಹುದಾ ಕೃಷಿ ತರಬೇತಿ ಕೇಂದ್ರ ಧಾರವಾಡ ☘* ರೈತರ ಮಕ್ಕಳಿಗೆ ಸುವಣಾ೯ವಕಾಶ ಪಿ ಯು ವಿಜ...,uZ7LAhT7M4A,2019-03-18T21:46:03.000Z,0,0,3,273,KCET 2019 Agriculture practical  Test 2019,0,
HUDA AGRI COACHING CLASSES DHARWAD class,HUDA AGRI COACHING CLASSES DHARWAD class,false,hd,2d,PT54S,false,rectangular,,ಹುದಾ ಕೃಷಿ ತರಬೇತಿ ಕೇಂದ್ರ ಧಾರವಾಡ ☘* ರೈತರ ಮಕ್ಕಳಿಗೆ ಸುವಣಾ೯ವಕಾಶ ಪಿ ಯು ವಿಜ...,V3bznkN8Plg,2019-03-18T21:38:29.000Z,5,0,18,3403,BSc Agriculture practical exam 2019,0,
ಕನ್ನಡದಲ್ಲಿ ಮಾಹಿತಿ Kannadadalli Mahiti,ಕನ್ನಡದಲ್ಲಿ ಮಾಹಿತಿ Kannadadalli Mahiti,false,hd,2d,PT3M58S,false,rectangular,IN,__ ಸ್ನೇಹಿತರೇ ಈ ವಿಡಿಯೋ ನಿಮಗೆ ಇಷ್ಟವಾದಲ್ಲಿ ಲೈಕ್ ಮಾಡಿ ಕಾಮೆಂಟ್ ಮಾಡಿ ಹಾಗೂ ನಿಮ್ಮ...,Zu1frPPdBo8,2018-09-25T17:01:36.000Z,0,0,8,251,ದಾರವಾಡದ ಕೃಷಿ ವಿ ವಿ ಯಲ್ಲಿ ನಡೆದ ಕೃಷಿ ಮೇಳದಲ್ಲಿ ಇದನ್ನು ನೋಡಿದವರೆ ಅದೃಷ್ಠವಂತರು,2,
HUDA AGRI COACHING CLASSES DHARWAD class,HUDA AGRI COACHING CLASSES DHARWAD class,false,hd,2d,PT31S,false,rectangular,,ಹುದಾ ಕೃಷಿ ತರಬೇತಿ ಕೇಂದ್ರ ಧಾರವಾಡ ☘* ರೈತರ ಮಕ್ಕಳಿಗೆ ಸುವಣಾ೯ವಕಾಶ ಪಿ ಯು ವಿಜ...,R5fFnjoF8Gw,2019-04-17T17:43:32.000Z,0,0,1,129,Bsc Agriculture Practical Test 2019 AGRI CET 2019,0,
JANGAMA JYOTHI TV NEWS,JANGAMA JYOTHI TV NEWS,false,sd,2d,PT2M40S,true,rectangular,IN,ರಾಯಚೂರು ನಾಗರಿಕರಿಂದ ಆರ್ಮಿಯವರಿಗೆ ಅನ್ನದಾಸೋಹ. ರಾಯಚೂರಿನ ಕೃಷಿ ವಿವಿಯಲ್ಲಿ ನಡೆಯ...,PayqIxECtkU,2018-12-13T03:10:41.000Z,2,0,40,3856,2018 ರಾಯಚೂರಿನ ಕೃಷಿ ವಿವಿಯಲ್ಲಿ ನಡೆಯುತ್ತಿರುವ ಭಾರತೀಯ ಸೇನೆಯ ವಿವಿಧ ಸೈನಿಕ ಹುದ್ದೆಗಳ ನೇಮಕಾತಿ ದೈಹಿಕ ಪರೀಕ್ಷೆ,0,
Nammuru TV,Nammuru TV,false,sd,2d,PT2M58S,true,rectangular,IN,ಬಳ್ಳಾರಿ/ಬಳ್ಳಾರಿ:ಕೃಷಿ ಇಲಾಖೆ ಅಧಿಕಾರಿಗಳಿಂದಲೇ ಅವಧಿ ಮೀರಿದ ಬೆಳೆ ಔಷಧಿ ಮಾರಾಟ !...,ckfTUTHJ3zo,2017-09-26T12:39:06.000Z,0,0,1,254,ಕೃಷಿ ಸಚಿವರೇ ಇಲ್ಲೋಡಿ ರೈತರಿಗೆ ಆಗುತ್ತಿದೆ ಭಾರಿ ಅನ್ಯಾಯ...!,0,
HUDA AGRI COACHING CLASSES DHARWAD class,HUDA AGRI COACHING CLASSES DHARWAD class,false,hd,2d,PT1M21S,false,rectangular,,Agri practical exam 2019 *  ಹುದಾ ಕೃಷಿ ತರಬೇತಿ ಕೇಂದ್ರ ಧಾರವಾಡ ☘* ರೈತರ ಮಕ್ಕಳಿಗೆ ಸುವಣಾ೯ವಕಾಶ...,kj2D5fIyzBM,2019-04-26T17:38:44.000Z,0,0,6,409,Bsc Agriculture practical Test 2019 KCET Agriculture practical Test 2019,2,
Chandrashekara Navada,Chandrashekara Navada,false,hd,2d,PT5M42S,true,rectangular,IN,ಬ್ರಹ್ಮಾವರದಲ್ಲಿ ಕೃಷಿ ಮೇಳ-2018 ಅಕ್ಟೊಬರ್ 27 ಮತ್ತು 28 ರಂದು. (ಶನಿವಾರ ಮತ್ತು ಆದಿತ್ಯವಾರ...,vDGUzP25ko0,2018-10-26T15:31:04.000Z,0,0,3,116,ಕೃಷಿ ಮೇಳ KRISHI MELA by Agriculture and Horticulture Research Centre (ಕೃಷಿ ಕೇಂದ್ರ) Brahmavara,0,
Kannada Desk,Kannada Desk,false,sd,2d,PT1M50S,false,rectangular,,ರಾಯಚೂರು: ನಗರದ ಕೃಷಿ ವಿಶ್ವವಿದ್ಯಾಲಯದಲ್ಲಿ ಇಂದು ಇಸ್ರೋ ಹಿರಿಯ ವಿಜ್ಞಾನಿ ಡಾ. ಕಿರಣ್...,OVfD3jqhTVs,2019-01-21T18:21:49.000Z,0,0,0,30,ರಾಯಚೂರಿನ ವಿಜ್ಞಾನ ಸಂವಾದದಲ್ಲಿ ಪುಟಾಣಿಗಳಿಂದ ಪ್ರಶ್ನೆಗಳ ಸುರಿಮಳೆ,0,
DD Chandana,DD Chandana,false,sd,2d,PT5M14S,true,rectangular,IN,"krishidarshan Programme 15-12-2017 at 1.30pm ""Success Story Of Farmer In Tur Cultivation"" (ತೊಗರಿ ಬೆಳೆಯಲ್ಲಿ ರೈತನ ಅನುಭವ) Pts- Ashok Bhoopal.",KIMu3Pb_8kY,2018-10-25T11:42:14.000Z,5,0,192,19949,&quot;Success Story Of Farmer In Tur Cultivation&quot; &quot;ತೊಗರಿ ಬೆಳೆಯಲ್ಲಿ ರೈತನ ಅನುಭವ&quot;,6,
Padma News Kannada,Padma News Kannada,false,hd,2d,PT3M46S,false,rectangular,,ಚಡಚಣ ಸಮೀಪದ ಧೂಳಖೇಡ ಗ್ರಾಮದ ಶೀ ಕಮಲ ಪಬ್ಲಿಕ್ ಶಾಲೆಯಲ್ಲಿ ವಿದ್ಯಾರ್ಥಿಗಳಿಗಾಗಿ 'ವಿಜ...,VmRD2Edftqg,2019-02-01T06:58:14.000Z,0,0,1,18,ವಿಜ್ಞಾನ ವಸ್ತು ಪ್ರದರ್ಶನ ಹಾಗೂ ಖಾದ್ಯ ಪದಾರ್ಥಗಳ ಮಾರಾಟ ಮೇಳ&quot;,0,
Jagadeesha B Jaiho ಜಗದೀಶ್ ಬಿ ಜೈಹೋ,Jagadeesha B Jaiho ಜಗದೀಶ್ ಬಿ ಜೈಹೋ,false,hd,2d,PT4M30S,false,rectangular,,ರಾಗಿ ಕೃಷಿ . ಜಗದೀಶ್.,WM_lmLOXXaY,2018-03-29T20:09:19.000Z,0,0,1,70,ರಾಗಿ ಕೃಷಿ,0,
HUDA AGRI COACHING CLASSES DHARWAD class,HUDA AGRI COACHING CLASSES DHARWAD class,false,sd,2d,PT48S,false,rectangular,,ಹುದಾ ಕೃಷಿ ತರಬೇತಿ ಕೇಂದ್ರ ಧಾರವಾಡ ☘* ರೈತರ ಮಕ್ಕಳಿಗೆ ಸುವಣಾ೯ವಕಾಶ ಪಿ ಯು ವಿಜ...,0aHgwEfhUHA,2019-03-18T21:29:59.000Z,0,0,2,148,Agri CET coaching classes dharwad 2019,3,
Vartha Bharati,Vartha Bharati,false,sd,2d,PT2M53S,true,rectangular,IN,ಕರಾವಳಿಯ 40 ಕೆಂಪಕ್ಕಿ ಸಹಿತ 200 ದೇಶಿ ಭತ್ತದ ತಳಿಗಳು !,-9y3CTzS6E4,2018-10-27T11:35:32.000Z,0,0,3,76,ಬ್ರಹ್ಮಾವರ ಕೃಷಿಮೇಳದ 150ಕ್ಕೂ ಅಧಿಕ ಮಳಿಗೆಗಳಲ್ಲಿ ಕೃಷಿ ವಸ್ತು ಪ್ರದರ್ಶನ,0,
Pushpa H.C,Pushpa H.C,false,sd,2d,PT1M34S,false,rectangular,,ಕಡ್ಡಿ ಕಟ್ ಮಾಡೋ ಮಷಿನ್.,y7idzFXNC2c,2018-12-06T15:12:00.000Z,1,0,2,33,ಕೃಷಿ,0,
Dev update kannada,Dev update kannada,false,hd,2d,PT10M3S,true,rectangular,IN,rajtvkannada __ Website link:https://www.kannadacine.com/actor/. ☑ ಸ್ನೇಹಿತರೆ ಈಗ ನೋಡಿದ ವಿಡಿಯೋ ನಿಮಗೆ ಮಾಹಿ...,Y_MDPH96Nfs,2018-05-26T10:12:11.000Z,34,0,453,23005,How to download  Kannada new movies|how to download HD movies,49,
DD Chandana,DD Chandana,false,sd,2d,PT6M9S,true,rectangular,IN,"Krishidarshan_Feb 27th 2019 ಡಾ. ಕಸ್ತೂರಿಬಾ. ಬಿ., ಪ್ರಾಧ್ಯಾಪಕರು ಮತ್ತು ಮುಖ್ಯಸ್ಥರು, ಆಹಾರ ವಿಜ್ಞಾನ...",eE8CcdXP9Og,2019-03-13T07:55:10.000Z,0,0,2,102,Importance and uses of Millets_ಸಿರಿಧಾನ್ಯಗಳ ಉಪಯೋಗ ಮತ್ತು ಮಹತ್ವ,1,
ಪರಿಚಯ,ಪರಿಚಯ,false,hd,2d,PT6M57S,true,rectangular,IN,"Dharwad,#Dharawada,#ಪರಿಚಯ,#parichaya,uttara karnataka,North Karnataka,dharawad city,dharawada town,dharavada city,Dharwad,dharavada,dwaravata ...",rrfePvpevJ0,2018-10-25T14:25:16.000Z,16,0,406,21647,"ಉತ್ತರ ಕರ್ನಾಟಕದ ಸಾಂಸ್ಕೃತಿಕ ರಾಜಧಾನಿ ಧಾರವಾಡ |All about Dharwad district ,North Karnataka",36,
Girish Shanku,Girish Shanku,false,hd,2d,PT10M24S,true,rectangular,IN,"Krishimela 2018 Bangalore, GKVK Campus Hebbal Bangalore, Krishi mela 2018, Music By : Lights By Sappheiros https://Soundcloud.com/sappheirosmusic ...",Y79e1l6C3l4,2018-11-23T16:45:27.000Z,4,0,13,824,"Krishimela 2018 Bangalore, GKVK Campus Hebbal Bangalore, Krishi mela 2018, GirishShanku",0,
Kannada Desk,Kannada Desk,false,sd,2d,PT3M22S,true,rectangular,,ರಾಯಚೂರು: ಬಿಸಿಲೂರು ರಾಯಚೂರು ಕೃಷಿ ವಿಶ್ವವಿದ್ಯಾಲಯದಲ್ಲಿ ನಾಲ್ಕು ದಿನಗಳ ಕೃಷಿ ಮೇಳ...,Exyrw2cJkLs,2017-12-10T10:57:12.000Z,0,0,0,74,ರಾಯಚೂರು ಕೃಷಿ ವಿಶ್ವವಿದ್ಯಾಲಯದಲ್ಲಿ ನಾಲ್ಕು ದಿನಗಳ ಕೃಷಿ ಮೇಳ,0,
BEST INDIA KANNADA,BEST INDIA KANNADA,false,hd,2d,PT3M36S,false,rectangular,,Hai Friends Welcome to Best India Kannada as we are a part of some job to give some interesting videos for education and Entertainment purpose by which ...,wR6onYx0q68,2019-04-04T11:40:37.000Z,14,0,255,24488,ವಿಜ್ಞಾನದ ಈ ಹೊಸ ಆವಿಷ್ಕಾರಗಳು ಇಡೀ ಪ್ರಪಂಚವೇ ಹುಬ್ಬೇರಿಸುವಂತೆ ಮಾಡಿದೆ | ನೋಡಲೆ ಬೇಕಾದ 6 ಯಂತ್ರ,4,
ctv news,ctv news,false,hd,2d,PT5M14S,true,rectangular,IN,ಸಿ-ಟಿವಿ.,R412i4Bndao,2018-09-25T08:11:40.000Z,2,0,9,385,ರೇಷ್ಮೆ ಕೃಷಿ ವಿದ್ಯಾರ್ಥಿಗಳಿಂದ ಜಂಗಮಶಿಗೇಹಳ್ಳಿಯಲ್ಲಿ ಕೃಷಿ ವಸ್ತು ಪ್ರದರ್ಶನ,0,
EI-Kannada,EI-Kannada,false,sd,2d,PT4M1S,false,rectangular,,ರಾಯಚೂರು: ಹೂವು ಎಂದರೆ ಹೆಂಗಳೆಯರಿಗೆ ಪಂಚಪ್ರಾಣ. ದೇವರು ಪೂಜೆಗೂ ಹೂವು ಬೇಕೇಬೇಕು. ಆದರ...,N-pEwFu28sI,2019-01-04T04:56:38.000Z,1,0,3,616,ರಾಯಚೂರು ಕೃಷಿ ವಿವಿ ವಿದ್ಯಾರ್ಥಿಯಿಂದ ಹೂ ಮಾಲೆ ತಯಾರಿಸುವ ಯಂತ್ರ ಶೋಧ,0,
Raitha Janya [SDM],Raitha Janya [SDM],false,hd,2d,PT6M10S,true,rectangular,,ಹೊಸ ಕೃಷಿಗೆ raitha janya ಪ್ರೇರಣೆ|||ಇಲ್ಲಿದೆ ನೋಡಿ ||by raitha janya ಸಂಪೂರ್ಣ ಮಾಹಿತಿ.,zIyoOXr4At0,2019-06-13T18:08:12.000Z,1,0,35,1916,ಯುವ ರೈತ ಧನುಷ್||ರೈತ  ಜನ್ಯ ಮಾಹಿತಿ ಸಾರ್ಥಕವಾಯಿತ್ತು,0,
DD Chandana,DD Chandana,false,sd,2d,PT19M21S,true,rectangular,IN,"Live Phone in @ 6.30 pm on 13-11-2018 Dr. Jemlanayak Professor, KVK, Bengaluru Anchor: P S Shrikantamurthy.",ts_64k2GSL4,2018-12-03T06:22:02.000Z,0,0,8,352,Pest management in Tur and Chickpea-ಕಡಲೆ ಹಾಗೂ ತೊಗರಿಗಳಲ್ಲಿ ಕೀಟಗಳ ನಿರ್ವಹಣೆ,0,
IN GULBARGA CHANNEL,IN GULBARGA CHANNEL,false,hd,2d,PT10M40S,true,rectangular,IN,ಎಸ್.ಆರ್.ಎನ್ ಮೆಹತಾ ಶಾಲೆಯಲ್ಲಿ ಎರಡು ದಿನಗಳಕಾಲ ಕಲಾ ಮತ್ತು ವಿಜ್ಞಾನ ವಸ್ತು ಪ್ರದರ್ಶನ.,68B3ne1gYE0,2018-10-29T07:56:03.000Z,1,0,30,1706,ಎಸ್.ಆರ್.ಎನ್ ಮೆಹತಾ ಶಾಲೆಯಲ್ಲಿ ಎರಡು ದಿನಗಳಕಾಲ ಕಲಾ ಮತ್ತು ವಿಜ್ಞಾನ ವಸ್ತು ಪ್ರದರ್ಶನ,3,
nammuru tv,nammuru tv,false,sd,2d,PT59S,false,rectangular,,ತುಮಕೂರು: ಇಂದಿನ ಆಧುನಿಕ ದಿನ ಮಾನಗಳಲ್ಲಿಯೂ ನೇಗಿಲ ಯೋಗಿ ರೈತ ಸಮುದಾಯ ಇನ್ನು ಜೋಡೆತ್ತ...,wDstM9RXj7Y,2017-06-24T08:17:45.000Z,0,0,0,157,ಕೃಷಿ ವಸ್ತು ಪ್ರದರ್ಶನ..,0,
HUDA AGRI COACHING CLASSES DHARWAD class,HUDA AGRI COACHING CLASSES DHARWAD class,false,hd,2d,PT31S,false,rectangular,,ಹುದಾ ಕೃಷಿ ತರಬೇತಿ ಕೇಂದ್ರ ಧಾರವಾಡ ☘* ರೈತರ ಮಕ್ಕಳಿಗೆ ಸುವಣಾ೯ವಕಾಶ ಪಿ ಯು ವಿಜ...,1eDqB-5jr-8,2019-03-18T21:46:00.000Z,0,0,0,75,Agricultural Quota practical test,0,
Dev update kannada,Dev update kannada,false,sd,2d,PT6M51S,true,rectangular,IN,rajtvkannadaರಾಜ್_ಟಿವಿ_ಕನ್ನಡ __ ☑ ಸ್ನೇಹಿತರೆ ಈಗ ನೋಡಿದ ವಿಡಿಯೋ ನಿಮಗೆ ಮಾಹಿತಿಯನ್ನು ಒದಗಿ...,RABm9XiJC-Q,2018-05-31T09:30:48.000Z,1,0,21,523,WhatsApp best tricks and new updates in Kannada 2018,0,
UTV NEWS BIJAPUR,UTV NEWS BIJAPUR,false,hd,2d,PT4M39S,true,rectangular,IN,,YUsX5eg0Bz8,2019-02-28T13:46:49.000Z,0,0,2,188,ಚಡಚಣ ನ್ಯೂಸ್ ರಾಷ್ಟ್ರೀಯ ವಿಜ್ಞಾನ ದಿನಾಚರಣೆ:ವಿಜ್ಞಾನ ವಸ್ತು ಪ್ರದರ್ಶನ&quot;,0,
Dev update kannada,Dev update kannada,false,sd,2d,PT4M39S,true,rectangular,IN,rajtvkannadaರಾಜ್_ಟಿವಿ_ಕನ್ನಡ __ ☑ ಸ್ನೇಹಿತರೆ ಈಗ ನೋಡಿದ ವಿಡಿಯೋ ನಿಮಗೆ ಮಾಹಿತಿಯನ್ನು ಒದಗಿ...,VgVteRGOxd0,2018-06-01T12:28:38.000Z,5,0,28,529,Google chrome ನಲ್ಲಿ ರಹಸ್ಯವಾಗಿ ಅಡಗಿರುವ  ಈ ಗೇಮ್ ನಿಮಗೆ ಗೊತ್ತೆ,3,
Namma Kudla News 24x7,Namma Kudla News 24x7,false,hd,2d,PT4M49S,true,rectangular,IN,ಜಾಗತಿಕ ಮಟ್ಟದಲ್ಲಿ ಹೆಸರುವಾಸಿಯಾಗಿರುವ ``ಟೆಡ್‍ಎಕ್ಸ್'' ಜಾಗತಿಕ ಸಮುದಾಯದ ಮುಖಾಂತರ...,Y4Ddg7_1d6Q,2019-07-28T16:11:16.000Z,1,0,27,1186,ಸಹ್ಯಾದ್ರಿ ಕಾಲೇಜಿನಲ್ಲೊಂದು ವಿನೂತನ ಕಾರ್ಯಾಗಾರ: ಟೆಡೆಕ್ಸ್ ಗೆ ಉತ್ತಮ ರೆಸ್ಪಾನ್ಸ್,0,
VAASTAV HINDI & KANNADA NEWS,VAASTAV HINDI & KANNADA NEWS,false,hd,2d,PT5M24S,true,rectangular,,,fPmJoGgZUHc,2018-03-30T16:06:38.000Z,0,0,3,234,ಇಂಡಿದಲ್ಲಿ ಮಾಡಲ್ ಪಬ್ಲಿಕ್  ಉದು೯ ಶಾಲೆಯಲ್ಲಿ ವಿಜ್ಞಾನ ಮತ್ತು ಪುಡ್ ಫೆಸ್ಟಿವಲ್ ಉದ್ಘಾಟನೆ.,0,
DD Chandana,DD Chandana,false,sd,2d,PT4M48S,true,rectangular,IN,"Krishivarthe on 04-04-2019 @ 6.30pm ರವೀಶ್, ಪ್ರಗತಿಪರ ಕೃಷಿಕರು, ಗೂಳೂರು ಹೋಬಳಿ, ತುಮಕೂರು-ತಾ.",g05B6tAgEyI,2019-04-24T07:01:08.000Z,0,0,28,1331,Farmer&#39;s experience in Natural framing_ಸಹಜ ಕೃಷಿಯಲ್ಲಿ ರೈತನ ಅನುಭವ,0,
Dev update kannada,Dev update kannada,false,hd,2d,PT7M55S,true,rectangular,IN,WhatsAppmostimportantsettings#Devarajgowdabannur ☑ ಸ್ನೇಹಿತರೆ ಈಗ ನೋಡಿದ ವಿಡಿಯೋ ನಿಮಗೆ ಮಾಹಿತಿಯನ್ನು ಒದಗಿಸಿದ...,sAA9sDPqTWc,2018-05-22T05:33:22.000Z,3,0,55,1632,ವಾಟ್ಸಪ್ ಬಳಸುವವರು ನಿಮ್ಮ ಮೊಬೈಲ್ ಇಂಟರ್ನಲ್ ಮೆಮೊರಿ ಯಲ್ಲಿ ಈ ಫೈಲ್ ಡಿಲೀಟ್ ಮಾಡಿ,8,
Nammuru TV,Nammuru TV,false,sd,2d,PT1M40S,true,rectangular,IN,ಚಾಮರಾಜನಗರ/ಕೊಳ್ಳೇಗಾಲ:ಕೃಷಿ ಇಲಾಖೆ ಹಾಗೂ ಕೃಷಿಗೆ ಸಂಬಂಧಿತ ಇಲಾಖೆಗಳ ಸಹಯೋಗದೊಂದಿಗೆ...,cClZst0zzGQ,2018-07-10T02:24:12.000Z,0,0,0,64,ಕೃಷಿ ಮೇಳ ಹಾಗೂ ವಸ್ತು ಪ್ರದರ್ಶನ...,0,
Hubli suddi ಹುಬ್ಬಳ್ಳಿ ಸುದ್ದಿ,Hubli suddi ಹುಬ್ಬಳ್ಳಿ ಸುದ್ದಿ,false,hd,2d,PT2M42S,false,rectangular,,ನೀರು ಮಾನವನ ಜೀವ ಜಲ. ಇದರ ಮಹತ್ವ ಗೊತ್ತಿದ್ದು ನಾವು ನೀರು ಪೋಲು ಮಾಡುತ್ತೇವೆ. ಆದ್ರೆ...,D0skiUCj4jI,2018-10-14T07:16:26.000Z,0,0,33,768,Hubli news ಹುಬ್ಬಳ್ಳಿ ಸುದ್ದಿ (ರಸ್ತೆಯಲ್ಲಿ ಹರಿಯುವ ನೀರಿನಿಂದ ವಿದ್ಯುತ್ ಉತ್ಪಾದನೆ),4,
Vikram Sajjan,Vikram Sajjan,false,sd,2d,PT2M51S,false,rectangular,,,zo_juM8KpJE,2018-08-19T05:58:11.000Z,0,0,31,2655,ತೊಗರಿ ಬೆಳೆ ತಂತ್ರಜ್ಞಾನ.,1,
Dev update kannada,Dev update kannada,false,sd,2d,PT5M3S,true,rectangular,IN,rajtvkannadaರಾಜ್_ಟಿವಿ_ಕನ್ನಡ __ ☑ ಸ್ನೇಹಿತರೆ ಈಗ ನೋಡಿದ ವಿಡಿಯೋ ನಿಮಗೆ ಮಾಹಿತಿಯನ್ನು ಒದಗಿ...,w4H9UFNcHFk,2018-06-11T07:34:51.000Z,1,0,22,351,How to add your home or shop with Google Map Kannada| Raj TV Kannada,7,
MICROBI AGROTECH PVT LTD,MICROBI AGROTECH PVT LTD,false,hd,2d,PT3M4S,true,rectangular,IN,"ರಾಸಾಯನಿಕ ಔಷಧಿ ಗಳಿಂದ ಖರ್ಚು ವೆಚ್ಚ ಹೆಚ್ಚಾಗಿ, ಭೂಮಿ ಫಲವತ್ತತೆಯನ್ನು ಕಳೆದುಕೊಂಡು,...",puu7JYPrxwU,2019-06-06T10:59:23.000Z,3,0,75,5218,ಡಾ.ಸಾಯಿಲ್ ಬಳಸಿ ಯಶಸ್ಸು ಕಂಡ ರೈತರ ನೇರ ನುಡಿ,5,
EI-Kannada,EI-Kannada,false,sd,2d,PT2M,false,rectangular,,ಕಲಬುರಗಿ: ತೊಗರಿ ಕಣಜ ಎಂದೇ ಪ್ರಖ್ಯಾತಿ ಹೊಂದಿರುವ ಕಲಬುರಗಿ ಜಿಲ್ಲೆಯಲ್ಲಿ ಬಹುತೇಕ...,djAUMDrakuA,2018-08-22T21:10:55.000Z,0,0,6,1155,ಮಳೆಯ ಅಭಾವದಿಂದ ಕಂಗಾಲಾಗಿದ್ದ ರೈತನ ಕೈ ಹಿಡಿದ ಸುಗಂಧರಾಜ!,0,
Dev update kannada,Dev update kannada,false,hd,2d,PT29S,true,rectangular,IN,rajtvkannadaರಾಜ್_ಟಿವಿ_ಕನ್ನಡ __ ☑ ಸ್ನೇಹಿತರೆ ಈಗ ನೋಡಿದ ವಿಡಿಯೋ ನಿಮಗೆ ಮಾಹಿತಿಯನ್ನು ಒದಗಿ...,z42mwEufSBE,2018-08-23T11:51:42.000Z,1,0,8,201,ಪ್ರಪಂಚದಲ್ಲಿ ಅತ್ಯಂತ ರೋಚಕ ರೀತಿಯಲ್ಲಿ ಕೀ ಕೀ ಡ್ಯಾನ್ಸ್ ಮಾಡಿದ ಯುವಕ|shocking video,1,
D Media,D Media,false,hd,2d,PT2M1S,false,rectangular,IN,ಭಾರತೀಯ ಕೃಷಿ ಅನುಸಂಧಾನ ಪರಿಷತ್ ನೀಡುವ ಪ್ರಶಸ್ತಿ.,Ynnjnhqt4Bc,2019-07-04T15:04:17.000Z,0,0,2,27,ತರಳಬಾಳು ಕೆವಿಕೆಗೆ ರಾಷ್ಟ್ರೀಯ ಪ್ರಶಸ್ತಿ#dmedia#taralabalu kvk,0,
Suddi Sullia,Suddi Sullia,false,sd,2d,PT13S,false,rectangular,,,5lu50kxzmwU,2018-01-09T06:36:28.000Z,0,0,0,27,ಸುಳ್ಯ ಜಾತ್ರೆಯಲ್ಲಿ ಕೃಷಿ ವಸ್ತು ಪ್ರದರ್ಶನ ಉದ್ಘಾಟನೆ,0,
Raman Tutorial For G.K,Raman Tutorial For G.K,false,hd,2d,PT12M45S,true,rectangular,IN,ಸಾಮಾನ್ಯ ಜ್ಞಾನ.,QQACrjkhCWs,2019-04-05T15:58:31.000Z,7,0,188,4414,6 - 8 CET 2019 ಸಾಮಾನ್ಯ ವಿಜ್ಞಾನ : ವೈಜ್ಞಾನಿಕ ಸಲಕರಣೆಗಳು &amp; ಉಪಯೋಗಗಳು.,18,
Janashakthi Media,Janashakthi Media,false,hd,2d,PT10M26S,false,rectangular,IN,ಬೆಂಗಳೂರಿನಲ್ಲಿ 09.07.2018 ರಂದು ನಡೆದ ಫೌಂಡೇಷನ್ ಫಾರ್ ಅಗ್ರೇರಿಯನ್ ಸ್ಟಡೀಸ್ ಸಂಘಟಿಸಿದ್...,wQKX_KI2KxU,2018-07-09T17:58:03.000Z,0,0,2,47,S Ramachandran pillai Foundation for Agrarian Studies,0,
Laxmikant Joshi,Laxmikant Joshi,false,hd,2d,PT22M28S,false,rectangular,,"With The Presence of Hon'ble RDPR Minister Sri.HK Patil ,Farmer Chief Secretary S.V.Ranganath Committee Submitted Rural Development University Report to ...",ygrORWXk3sM,2015-03-13T02:38:58.000Z,0,0,14,1339,Sri.HK Patil Hon&#39;ble  -Submitting Rural Development University Report to CM,0,
JOB MAKERS,JOB MAKERS,false,hd,2d,PT3M25S,true,rectangular,IN,ಈ ಹುದ್ದೆಯ ಹೆಚ್ಚಿನ ಮಾಹಿತಿಗಾಗಿ . Notification link:- https://drive.google.com/file/d/10-3-b8b7s2AHN4jhhtMUYl5Zc6PM5G7i/view?usp=drivesdk.,Tmg97_-LBZE,2019-08-07T06:57:52.000Z,167,0,2001,157424,ರಾಜ್ಯ ಸರ್ಕಾರದಿಂದ ಜಿಲ್ಲಾ ಪಂಚಾಯತ್ ಯಲ್ಲಿ ವಿವಿಧ ಹುದ್ದೆಗಳ ನೇರ ನೇಮಕಾತಿ/ಯಾವುದೇ ಪರೀಕ್ಷೆ ಇಲ್ಲದೆ/10th pass job,42,
V4 News,V4 News,false,hd,2d,PT2M46S,true,rectangular,IN,For More News & Updates Keep Watching V4news 24x7 Or You May Log into v4news.com & facebook.com/V4news.,WcvWMRRaKg8,2018-11-16T06:28:14.000Z,0,0,8,157,ಆಳ್ವಾಸ್ ವಿಜ್ಞಾನ ಸಿರಿ 2018 ಉದ್ಘಾಟನೆ,0,
Prajaa TV Kannada News,Prajaa TV Kannada News,false,sd,2d,PT3M28S,true,rectangular,IN,ಕೃಷಿ ಪತ್ತಿನ ಸಹಕಾರ ಸಂಘದ ಅವ್ಯವಹಾರ ಬಯಲು..!! ತೊಗರಿ ಖರೀದಿ ಕೇಂದ್ರದಲ್ಲಿ ಹಗಲು ದರೋಡೆ..!,Fy2FqeXknaE,2018-02-03T06:38:06.000Z,0,0,1,372,ತೊಗರಿ ಖರೀದಿ ಕೇಂದ್ರದಲ್ಲಿ ಹಗಲು ದರೋಡೆ..! ವಿಜಯಪುರ ಸಹಕಾರ ಸಂಘದ ಅವ್ಯವಹಾರ ಬಯಲು..!!,0,
DD Chandana,DD Chandana,false,sd,2d,PT23M41S,true,rectangular,IN,"Live Phone in at 6.30pm on 04-12-2018 Dr Chamegowda Professor & Head Soil Science Division, KVK Bengaluru Anchor: Dr P S Shrikantamurthy.",uIbpJdRBFvA,2018-12-21T07:51:38.000Z,2,0,27,1567,Soil conservation-ಮಣ್ಣಿನ ಸಂರಕ್ಷಣೆ,0,
RAGHU EDUCARE,RAGHU EDUCARE,false,hd,2d,PT7M23S,true,rectangular,IN,KUSHTAGI AND YALABURGA TALUKU TEACHERS ARE ATTENDED THIS 6TH STANDERD NEW SYLLABUS ORIENTED SCIENCE TRAINING IN KUSHTAGI ...,fiTYU8TevU0,2019-01-11T18:12:27.000Z,0,0,27,549,NCERTಯ 6ನೇ ತರಗತಿಯ ಹೊಸ ಪಠ್ಯಾಧಾರಿತ ವಿಜ್ಞಾನ ತರಬೇತಿ ||RAGHUEDUCARE,3,
Kisan Varthe,Kisan Varthe,false,hd,2d,PT1M3S,true,rectangular,IN,Our new WhatsApp Group:https://chat.whatsapp.com/L2n6TjafYOk2w7fz04Eh7o Keshava Kenjage Mudugere Tq Chickkmagaluru Your well wishers ...,Ipw5exCoSNg,2017-05-04T05:05:28.000Z,0,0,7,946,Pepper Proccesing unit,0,
Dtv karnataka Dtv,Dtv karnataka Dtv,false,hd,2d,PT2M51S,true,rectangular,,,5WypapJmetU,2019-02-28T19:29:00.000Z,0,0,5,184,ರಾಷ್ಟ್ರೀಯ ವಿಜ್ಞಾನ ದಿನಾಚರಣೆ. Dtv Karnataka 280219. National Science Day. Jagalur Govt Degree college,0,
EenaduIndia Kannada,EenaduIndia Kannada,false,sd,2d,PT1M33S,true,rectangular,,ವಿಜಯಪುರ: ಸಕಾಲಕ್ಕೆ ಎತ್ತುಗಳು ಬಾಡಿಗೆಗೆ ಸಿಗದ ಹಿನ್ನೆಲೆ ರೈತನೋರ್ವ ಟ್ರ್ಯಾಕ್ಟರ್...,U-e-kck6tKY,2018-09-17T18:08:53.000Z,0,0,2,215,ತೊಗರಿ ಬೆಳೆದ ಜಮೀನನ್ನು ಟ್ರ್ಯಾಕ್ಟರ್​ನಿಂದ ಉಳುಮೆ ಮಾಡಿದ ರೈತ,0,
Namma Kannada TV,Namma Kannada TV,false,hd,2d,PT2M43S,true,rectangular,IN,Watch ಬಟಾಣಿ ಇಷ್ಟ ಪಡೋರೆಲ್ಲಾ ಈ ಬಟಾಣಿಯ 14 ಲಾಭ ತಿಳಿದುಕೊಂಡರೆ ನಿಮ್ಮ ಮನೆಯಲ್ಲಿ ಬೆಳೆಸೋ...,YhBPRS01vKw,2017-12-15T13:01:08.000Z,1,0,18,1780,ಬಟಾಣಿ ಇಷ್ಟ ಪಡೋರೆಲ್ಲಾ ಈ ಬಟಾಣಿಯ 14 ಲಾಭ ತಿಳಿದುಕೊಂಡರೆ ನಿಮ್ಮ ಮನೆಯಲ್ಲಿ ಬೆಳೆಸೋದಕ್ಕೆ ಶುರು ಮಾಡ್ತಿರಾ....,1,
KRISHI VIGYAN KENDRA KALABURAGI-2,KRISHI VIGYAN KENDRA KALABURAGI-2,false,sd,2d,PT55S,false,rectangular,,"ಕ್ಷೇತ್ರ ಭೇಟಿ ಸಮಯದಲ್ಲಿ ಚಿತ್ರೀಕರಣ. By Dr. Vikram Simha H V, Scientist, ICAR- KVK Kalaburgi-II (Raddewadgi). ಕ್ಷೇತ್ರ: ಸೇಡ...",NhB9mTed3Vs,2018-07-29T08:20:57.000Z,1,0,3,1138,"Thinning &amp; nipping in redgram, ತೊಗರಿ ಬೆಳೆಯ ಕುಡಿ ಚಿವುಟುವುದು ಮತ್ತು ಹೆಚ್ಚುವರಿ ಗಿಡಗಳನ್ನು ಕಿತ್ತುಹಾಕುವುದು",1,
Dev update kannada,Dev update kannada,false,hd,2d,PT6M37S,true,rectangular,IN,rajtvkannadaರಾಜ್_ಟಿವಿ_ಕನ್ನಡ. ಈ ವೀಡಿಯೋ ತಪ್ಪದೇ ನೋಡಿ ಕನ್ನಡದಲ್ಲಿ ಹೊಸ ಚಲನಚಿತ...,APmRnBvDI7k,2018-05-28T07:12:19.000Z,2,0,22,436,How to hide personal WhatsApp groups and contact Kannada,1,
Dev update kannada,Dev update kannada,false,hd,2d,PT3M59S,true,rectangular,IN,rajtvkannadaರಾಜ್_ಟಿವಿ_ಕನ್ನಡ Coolebiz app link:https://play.google.com/store/apps/details?id=com.coolebiz. ☑ ಸ್ನ...,bICN16eY_JI,2018-05-23T04:29:41.000Z,0,0,18,535,500000 ಜನರಿಗೆ ಮೊಬೈಲ್ App ಮೂಲಕ ಉದ್ಯೋಗ ಕೊಟ್ಟಿರುವ coolebiz ಕಂಪೆನಿಯ ವಿಡಿಯೋ,2,
ಕೃಷಿ Agriculture,ಕೃಷಿ Agriculture,false,hd,2d,PT3M8S,true,rectangular,IN,Dear sir /madam solar energy is fast growing business its very help ful to all farmers thanks Srinivas N.,589fy-2Gqqo,2019-05-26T10:12:53.000Z,1,0,53,2558,ಸೌರ ಶಕ್ತಿ ಘಟಕ:ಸೋಲಾರ ಬಳಸಿ ಬಂಜರು ಭೂಮಿಗಳಲ್ಲಿ ವಿದ್ಯುತ್ ಉತ್ಪಾದನೆಗೆ ರೈತರಿಗೆ ಆದಾಯ ಕೊಡುವ ಒಂದು ಉದ್ಯಮ,11,
INCHARA TV,INCHARA TV,false,hd,2d,PT1M41S,true,rectangular,,ತೊಗರಿ ಬೆಳೆ ಬೆಳೆದ ರೈತರ ಅಳಲು.,PP0bV_rCrnM,2018-12-16T12:34:27.000Z,0,0,0,36,ತೊಗರಿ ಬೆಳೆ ಬೆಳೆದ ರೈತರ ಅಳಲು,0,
LIFE IS ART Inspiring mind,LIFE IS ART Inspiring mind,false,sd,2d,PT14M27S,false,rectangular,IN,LIFE IS ART PROGRAM 7th july 2018 | ವಿಜ್ಞಾನ ತಂತ್ರಜ್ಞಾನದ ಉಪಯೋಗಗಳು A one stop solution for all your problems through powerful AND ...,Mcjoe-J8iYA,2018-07-07T09:56:14.000Z,0,0,1,47,LIFE IS ART PROGRAM 7th july 2018 | ವಿಜ್ಞಾನ ತಂತ್ರಜ್ಞಾನದ ಉಪಯೋಗಗಳು,0,
DD Chandana,DD Chandana,false,hd,2d,PT1M6S,true,rectangular,IN,"The pigeon pea is a perennial legume from the family Fabaceae. Since its domestication in the Indian subcontinent at least 3500 years ago, its seeds have ...",Q_xuMCsdbpE,2018-11-16T12:00:05.000Z,0,0,3,567,Togari Bele (Kannada- ತೊಗರಿ ಬೆಳೆ) ಜಂತು ಹುಳು ನಿಯಂತ್ರಣ . Toor Dal,0,
Nammuru TV,Nammuru TV,false,sd,2d,PT1M54S,true,rectangular,IN,ಬೆಂಗಳೂರು/ಮಹದೇವಪುರ:- ಬೆಂಗಳೂರಿನ ದಕ್ಷಿಣ ವಲಯ 4ರ ಶಿಕ್ಷಣ ಕ್ಷೇತ್ರದ 9 ಸಕರ್ಾರಿ ಶಾಲೆ...,yi6MC5-bbdI,2018-02-11T04:49:10.000Z,0,0,1,424,"ವಿಜ್ಞಾನ, ತಂತ್ರಜ್ಞಾನ ಪ್ರದರ್ಶನ ಮೇಳ",0,
Great india electronics,Great india electronics,false,sd,2d,PT1M8S,true,rectangular,,,-WsM7j3Ae68,2018-02-28T10:00:42.000Z,0,0,6,431,ಜೈನ್ ಶಾಲೆಯ ಮಕ್ಕಳಿಂದ ವಿಜ್ಞಾನ ವಸ್ತು ಪ್ರದರ್ಶನ: Great India tv,0,
TV5 Kannada,TV5 Kannada,false,sd,2d,PT2M49S,true,rectangular,IN,"6 ಲಕ್ಷ ದರೋಡೆ TV5 Kannada - News You can trust. TV5 Kannada now captures Karnataka every inch and every second standing by the land and its pride, ...",G8jMIEGvplM,2018-07-22T15:09:10.000Z,0,0,1,514,6 ಲಕ್ಷ ದರೋಡೆ  | TV5 Kannada,0,
Sanchari News,Sanchari News,false,hd,2d,PT1M48S,false,rectangular,,,QcdloXnKC3g,2018-02-28T11:08:17.000Z,0,0,6,375,ರಾಷ್ಟ್ರೀಯ ವಿಜ್ಞಾನ ದಿನಾಚರಣೆಯ ಪ್ರಯುಕ್ತ ಹೊಸಕೆರೆಹಳ್ಳಿಯ ಸರ್ಕಾರಿ ಶಾಲಾ ಮಕ್ಕಳಿಂದ ವಿಜ್ಞಾನ ವಸ್ತು ಪ್ರದರ್ಶನ,0,
INCHARA TV,INCHARA TV,false,hd,2d,PT1M58S,true,rectangular,,ರೈತರ ಜಿವನಾಡಿ ಸಹಕಾರಿ ಸಕ್ಕರೆ ಕಾರ್ಖಾನೆ ಬಲಿ ಪಡೆದ ಕಾರಣ ಸಾವಿರ ಕಾರ್ಮಿಕರ ಕುಟುಂಬ...,iTyjlCiL59Y,2018-07-26T08:11:32.000Z,0,0,5,211,ರೈತರ ಜಿವನಾಡಿ  ಸಹಕಾರಿ ಸಕ್ಕರೆ ಕಾರ್ಖಾನೆ ಬಲಿ ಪಡೆದ ಕಾರಣ  ಸಾವಿರ ಕಾರ್ಮಿಕರ ಕುಟುಂಬಗಳನ್ನು ಬಿದಿ ಪಾಲು,0,
New Top Classes,New Top Classes,false,hd,2d,PT9M1S,true,rectangular,,"ಆಹಾರ ಬೆಳೆಗಳು , ಗೋಧಿ ಪೋಯೇಸಿ ಎಂಬ ಸಸ್ಯವರ್ಗ ಸೇರಿದೆ. ಚಳಿಗಾಲದ ಗೋಧಿ ಮತ್ತು ವಸಂತ...",OEPT7ql0vFM,2018-07-28T09:48:44.000Z,0,0,7,232,"ಆಹಾರ  ಬೆಳೆಗಳು , ಗೋಧಿ",0,
INC Karnataka,INC Karnataka,false,hd,2d,PT3M1S,true,rectangular,IN,ಪಾರಂಪರಿಕ ಜಿಲ್ಲೆ ಗದಗದಲ್ಲಿ ಕಳೆದ 5 ವರ್ಷಗಳಲ್ಲಿ ಹಲವು ಅಭಿವೃದ್ಧಿ ಯೋಜನೆಗಳನ್ನು...,7hTnYe-anUs,2018-03-25T09:55:24.000Z,0,0,10,262,Nava Gadag Nirmana,0,
Dev update kannada,Dev update kannada,false,hd,2d,PT4M42S,true,rectangular,IN,rajtvkannadaರಾಜ್_ಟಿವಿ_ಕನ್ನಡ __ PUC text books download :http://www.kar.nic.in/pue/home.asp 1 to 10th textbooks download ...,zBJd7btJkvo,2018-06-09T11:40:23.000Z,10,0,193,4170,How to download puc text books in Karnataka| textbook downloads,14,
Hemanth Kumar G,Hemanth Kumar G,false,sd,2d,PT1H41M31S,false,rectangular,,English translation of summary of this Video is given below) ೨೦೧೫ರಲ್ಲಿ ನವರಾತ್ರಿ ಸಂದರ್ಭದಲ್ಲಿ ಶ್ರೀ ಜ್ಞಾನಶಕ್ತಿ...,32SwDUTN5Ms,2019-09-13T02:42:48.000Z,0,0,7,265,"ಆಯುಧಾ ಪೂಜೆ, ಆಹಾರ, ಆಚಾರ, ಆರೋಗ್ಯ, ಆಯುರ್ವೇದ ಮತ್ತಿತರೆ ಪ್ರಶ್ನೋತ್ತರಗಳು",,
ctv news,ctv news,false,hd,2d,PT5M39S,true,rectangular,IN,,j_iG6IAsazw,2019-07-28T03:05:21.000Z,0,0,12,684,ಟಮೋಟ ಬೆಳೆಗೆ ತಗಲುವ ಗಂಟು ರೋಗದ ಬಗ್ಗೆ ಬಾಯರ್ ಕಂಪನಿಯಿಂದ ರೈತರಿಗೆ ಕಾರ್ಯಾಗಾರ,0,
Sadhguru Kannada,Sadhguru Kannada,false,hd,2d,PT1M43S,true,rectangular,IN,ಭೇಟಿ ನೀಡಿ - Kannada.CauveryCalling.org ಕಾವೇರಿಯ ಸುತ್ತಮುತ್ತ ಮರಗಳ ಹೊದಿಕೆ 87% ಕಡಿಮೆಯಾಗಿರುವುದರಿಂ...,h7VzHVCOk-0,2019-08-10T10:33:22.000Z,2,0,134,2331,ಕಾವೇರಿ ಕೂಗು - ಮುಖಜಭೂಮಿಯಲ್ಲಿ ಕಣ್ಮರೆಯಾಗುತ್ತಿರುವ ಮೇಲ್ಮಣ್ಣು,6,
sanganagouda hoovannavar,sanganagouda hoovannavar,false,hd,2d,PT29S,false,rectangular,,,NgiRL_YT91g,2017-10-25T07:43:29.000Z,1,0,20,2323,ಹತ್ತಿ ಬೆಳೆ,0,
RAGHU EDUCARE,RAGHU EDUCARE,false,hd,2d,PT3M19S,true,rectangular,IN,ತರಕಾರಿ ಸೊಪ್ಪು ಬೆಳೆಯುವ ರೈತರಿಗೆ 2 ಸಾವಿರ ರೂಪಾಯಿ ಉಚಿತ ಕೃಷಿ ಮತ್ತು 2000/- ರೂಪಾಯಿ ಉಚಿ...,OrAPsVhMdDI,2019-03-14T15:19:51.000Z,0,0,21,398,"2,000 Rupees Free For Farmers|ರೈತರಿಗೆ 2 ಸಾವಿರ ರೂಪಾಯಿ ಉಚಿತ|Department of Agriculture and Horticulture",4,
MICROBI AGROTECH PVT LTD,MICROBI AGROTECH PVT LTD,false,hd,2d,PT8M48S,true,rectangular,IN,Successful farmers in India Youths into agriculture ನಮ್ಮ ರೈತರು ಅಜ್ಞಾನವನ್ನು ಹೊಡಿಸಿ ವಿಜ್ಞಾನದ ಕಡೆ ಹೆಜ್ಜೆ ಇಟ್...,72EeMbGpTNo,2019-02-08T08:43:07.000Z,10,0,215,13837,Successful farmers in India | Youths into agriculture | How to become organic farmer | Dr.Soil,23,
raitamitra news tv channel,raitamitra news tv channel,false,sd,2d,PT1M37S,false,rectangular,,,lT3VhsjOfj4,2019-01-25T17:13:51.000Z,0,0,11,265,ರೈತ ಮಿತ್ರ ನ್ಯೂಸ್ ಚಾನೆಲ್,0,
Tajuddin S,Tajuddin S,false,hd,2d,PT2M59S,false,rectangular,,,t4vWqDvDGyg,2018-01-07T03:15:15.000Z,0,0,3,903,ಕಡ್ಡಲೆ ಬೀಜ  ಬಿತ್ತನೆ ಕೆಲಸ ಹೇಗಿದೆ ನೋಡಿ ರೈತರ ಪಡು ನಾಯಿ ಪಡಗಿದೆ ಸ್ನಹಿತರೆ  ತಾಜುದ್ದೀನ್ ಚೀಕಲ,0,
Namma Kudla News 24x7,Namma Kudla News 24x7,false,hd,2d,PT1M12S,true,rectangular,IN,ಭ್ರಷ್ಟಾಚಾರ ನಿಗ್ರಹ ದಳ ಇಂದು ಬೆಳಿಗ್ಗೆ ದಕ್ಷಿಣ ಕನ್ನಡ ಜಿಲ್ಲೆ ಗಣಿ ಮತ್ತು ಭೂ ವಿಜ್...,A_hGkJhIHI4,2019-06-12T15:51:04.000Z,0,0,0,262,ಎ.ಸಿ.ಬಿ ದಾಳಿಯಲ್ಲಿ ಬಯಲಾಯಿತು ಮಹದೇವಪ್ಪ ಕರ್ಮಕಾಂಡ,0,
Kannada Desk,Kannada Desk,false,sd,2d,PT1M41S,true,rectangular,,ರಾಮನಗರ: ಇಲ್ಲಿ ರೈತರಿಗೆ ಉಚಿತವಾಗಿ ಸೋಲಾರ್ ಅಳವಡಿಸಿಕೊಡಲಾಗಿದೆ. ರೈತರೇ ವಿದ್ಯುತ್‌...,Q2W4NI5RAAk,2017-12-12T01:21:31.000Z,1,0,7,2181,ಇಲ್ಲಿ ರೈತರೇ ವಿದ್ಯುತ್‌‌ ಉತ್ಪಾದಿಸಿ ಬೆಸ್ಕಾಂಗೆ ಮಾರಾಟ ಮಾಡ್ತಾರೆ... ಬೆಳೆನೂ ಬೆಳ್ಕೋತಾರೆ!,1,
Kannadamma News Network,Kannadamma News Network,false,hd,2d,PT2M31S,false,rectangular,IN,ನೀರಿನ ಸಂರಕ್ಷಣೆಗಾಗಿ ಜಲ ಶಕ್ತಿ ಜನಾಂದೋಲನ ಪ್ರಾರಂಭ: ಜಿ ಸಿ. ಹೊಸೂರು ಬೆಳಗಾವಿ: ದೇಶದ...,30A72p1clM8,2019-07-12T10:33:09.000Z,0,0,0,57,Due to Water shortages in the country Countrywide Hydro Power Campaign to be launched from July 1,0,
SPARDHA DEEPA,SPARDHA DEEPA,false,sd,2d,PT7M14S,true,rectangular,IN,NOTIFICATION LINK: https://ugcnet.nta.nic.in/WebInfo/Handler/FileHandler.ashx?i=File&ii=16&iii=Y Website :- https://ugcnet.nta.nic.in/webinfo/public/home.aspx ...,HxFctbwQasE,2019-09-10T05:01:02.000Z,6,0,165,6736,"Application Invited for UGC-NET and JRF December 2019/ MA, MSc, MCom, MBA, MTech,",19,
Chiguru TV ಚಿಗುರು ಟಿ ವಿ,Chiguru TV ಚಿಗುರು ಟಿ ವಿ,false,sd,2d,PT1M33S,true,rectangular,IN,kannadaquizshow #patantaheli #kannada #chigurutv #sdaexam #fdaexam #sda #fda #kas #ias.,ikSxcYxkkW8,2019-05-10T17:18:08.000Z,0,0,16,184,ಪಟ್ ಅಂತ ಉತ್ತರಿಸಿ ರಸಪ್ರಶ್ನೆ 1,8,
ಜನ ಕಲ್ಯಾಣ // Jana Kalyana,ಜನ ಕಲ್ಯಾಣ // Jana Kalyana,false,hd,2d,PT2M1S,true,rectangular,IN,ಭ ಪರಿವರ್ತನೆ ಅಂದರೆ NA ಮಾಡಿಸುವುದು ಇನ್ನೂ ಮುಂದೆ ಸುಲಭವಾಗಿದೆ 30 ರಿಂದ 60 ದಿನದಲ್ಲಿ...,e_vKbBRq4yg,2019-02-20T02:45:00.000Z,0,0,23,1014,ಭೂ ಪರಿವರ್ತನೆ.// N.A ಮಾಡಿಸುವುದು ಸುಲಭ,2,
coaching for kannadigas,coaching for kannadigas,false,hd,2d,PT8M52S,true,rectangular,IN,"About Karnataka geography in Kannada, deals with the food crop that is rice Cultivation production, distribution explained in Kannada, useful for competitive ...",920GKgetpAo,2019-01-04T17:39:28.000Z,5,0,117,2779,ಭತ್ತ-ಕರ್ನಾಟಕ ಭೂಗೋಳಶಾಸ್ತ್ರ,3,
Ampua Jobs,Ampua Jobs,false,hd,2d,PT2M35S,true,rectangular,IN,Hello viewers Applications are invited from qualified candidates for filling the vacancies in the Dakshina Kannada Cooperative Milk Producers Federation of ...,588hSTEnCws,2019-08-26T04:00:02.000Z,190,0,2732,141587,KARNATAKA MILK FEDERATION RECRUITMENT ಕರ್ನಾಟಕ ಹಾಲು ಒಕ್ಕೂಟ ನಿಗಮ ನಿಯಮಿತ ನೇಮಕಾತಿ 2019.,51,
Akshara Academy,Akshara Academy,false,sd,2d,PT3M32S,true,rectangular,IN,Instagram - https://www.instagram.com/rajeshgowda515akshara.,x_MZ0ImjZ-c,2019-08-27T14:57:59.000Z,10,0,1065,14409,100k subscribers on akshara academy,144,
SSV TV,SSV TV,false,hd,2d,PT3M8S,true,rectangular,IN,"ಗುಲಬರ್ಗಾ ವಿಶ್ವವಿದ್ಯಾಲಯ ಕಲಬುರಗಿ , ರಾಷ್ಟ್ರೀಯ ಸೇವಾ ಯೋಜನೆ ಘಟಕ ಹಾಗೂ ಬಸವ ಪದವಿ...",Cff_gky_3x4,2019-04-01T08:25:42.000Z,0,0,0,9,"ಗುಲಬರ್ಗಾ ವಿಶ್ವವಿದ್ಯಾಲಯ ಕಲಬುರಗಿ , ರಾಷ್ಟ್ರೀಯ ಸೇವಾ ಯೋಜನೆ ಘಟಕ ಹಾಗೂ ಬಸವ ಪದವಿ ವಿಜ್ಞಾನ, ವಾಣಿಜ್ಯ ಮತ್ತು ಕಲಾ",0,
REVAS JOB NEWS,REVAS JOB NEWS,false,hd,2d,PT3M40S,true,rectangular,IN,"8000 PGT, TGT, PRT Army School recruitment 2019 | Karnataka @ Online application : http://aps-csb.in/Candidate/StepOne.aspx @ Candidate login ...",oQ3a9fzrJ2I,2019-09-08T07:45:37.000Z,10,0,187,10740,"🔴 ಸೇನಾ ಶಾಲೆಯಲ್ಲಿ 8000 PGT, TGT, PRT ಹುದ್ದೆಗಳ ಬೃಹತ್ ನೇಮಕಾತಿ Army School recruitment 2019 | karnataka",28,
Tej Kannada TV// ತೇಜ ಕನ್ನಡ ಟಿ ವಿ,Tej Kannada TV// ತೇಜ ಕನ್ನಡ ಟಿ ವಿ,false,hd,2d,PT2M54S,true,rectangular,,ಕರ್ನಾಟಕ ರಾಜ್ಯದ ಎಲ್ಲಾ ರೈತರಿಗೆ ರಾಜ್ಯ ಸರ್ಕಾರದ ಮುಖ್ಯಮಂತ್ರಿಗಳಾದ ಬಿಎಸ್ ಅವರು...,I_NKaUjCVzs,2019-07-31T01:19:02.000Z,39,0,895,49906,ಕರ್ನಾಟಕದ ರೈತರಿಗೆ ಗುಡ್ ಮೆಸೇಜ್/ಬೇರೆನೆ ಇಲ್ಲದವರಿಗೂ ಇದ್ದವರಿಗೆ ಕೂಡ/ಎಲ್ಲ ಜನರಿಗೆ ಮುಖ್ಯಮಂತ್ರಿ ಕೊಡುಗೆ.,10,
Nitya Karnataka TV,Nitya Karnataka TV,false,hd,2d,PT3M9S,true,rectangular,,ದೇಶದಲ್ಲಿ ಎರಡನೇ ಬಾರಿಗೆ ಪ್ರಧಾನಮಂತ್ರಿಯಾದ ನರೇಂದ್ರ ಮೋದಿ ಅವರು ರೈತರಿಗಾಗಿಯೇ ಪ್ರ...,YNK_XkQyeaE,2019-08-10T11:00:05.000Z,14,0,323,5309,ರೈತರಿಗೆ ಪ್ರತಿ ತಿಂಗಳು 3 ಸಾವಿರ ಹಣ // ಪ್ರಧಾನಮಂತ್ರಿ ಕಿಸಾನ್ ಪಿಂಚಣಿ ಯೋಜನೆ // 2019 ಹೊಸ ಅರ್ಜಿಗಳು ಆರಂಭ,5,
Udayavani,Udayavani,false,hd,2d,PT3M14S,true,rectangular,IN,"ಪೈಪ್, ಹಳೆಯ ಬಕೆಟ್, ಹಿಟ್ಟು ಗಾಳಿಸುವ ಜರಡಿಗಳನ್ನಷ್ಟೇ ಬಳಸಿ ಕಡಿಮೆ ಖರ್ಚಿನಲ್ಲಿ ಮಳೆನ...",7tDDJUlYPqQ,2018-07-29T03:34:07.000Z,1,0,43,2847,ಕಡಿಮೆ ಖರ್ಚಿನಲ್ಲಿ ಮಳೆನೀರು ಕೊಯ್ಲು| UDAYAVANI,0,
InNews Kannada,InNews Kannada,false,sd,2d,PT4M4S,true,rectangular,IN,ತೊಗರಿ ಬೆಳೆ ರಸ್ತೆಗೆ ಸುರಿದು ರೈತರ ಪ್ರತಿಭಟನೆ.,4XQgr5T8jHs,2018-03-16T06:42:30.000Z,1,0,17,3751,15/03/2018 ತೊಗರಿ ಬೆಳೆ ರಸ್ತೆಗೆ ಸುರಿದು ರೈತರ ಪ್ರತಿಭಟನೆ,1,
Btv News Ɩ ಬಿಟಿವಿ ನ್ಯೂಸ್,Btv News Ɩ ಬಿಟಿವಿ ನ್ಯೂಸ್,false,sd,2d,PT3M23S,true,rectangular,IN,Btv News:ದಾವಣಗೆರೆ : ಮೋನೋಕ್ರೋಟೊಪಸ್ ಕೀಟನಾಶಕ ಬಳಕೆ ಬಗ್ಗೆ ರೈತರ ಅಭಿಪ್ರಾಯ Subscribe / Follows on...,9ir7sl2CLp4,2018-12-20T12:16:46.000Z,0,0,3,288,ದಾವಣಗೆರೆ : ಮೋನೋಕ್ರೋಟೊಪಸ್ ಕೀಟನಾಶಕ ಬಳಕೆ ಬಗ್ಗೆ ರೈತರ ಅಭಿಪ್ರಾಯ,1,
JOB MAKERS,JOB MAKERS,false,hd,2d,PT3M23S,true,rectangular,IN,ಈ ಉದ್ಯೋಗದ ಬಗ್ಗೆ ಹೆಚ್ಚಿನ ಮಾಹಿತಿಗಾಗಿ:- Notification linnk:- ...,rjlCVypUJLw,2019-07-12T10:51:24.000Z,14,0,343,18901,ರಾಜ್ಯ ಸರ್ಕಾರದಿಂದ ತಲಾಠಿ ಹುದ್ದೆಗಳ ನೇರ ನೇಮಕಾತಿ(NO EXAM)/revenue department job recruitment/thalati job/,31,
Oneindia Kannada | ಒನ್ಇಂಡಿಯಾ ಕನ್ನಡ,Oneindia Kannada | ಒನ್ಇಂಡಿಯಾ ಕನ್ನಡ,false,hd,2d,PT2M,true,rectangular,IN,"ಸ್ವಾಮಿನಾಥನ್ ವರದಿ, ರೈತರ ಸಾಲಮನ್ನಾ, ಬೆಳೆಗಳಿಗೆ ಕನಿಷ್ಠ ಬೆಂಬಲ ಬೆಲೆ ನೀಡುವುದು ಮುಂ...",MNy8qwiEWJo,2018-11-30T13:48:45.000Z,8,0,24,2915,ರೈತರಿಗೆ ಅನುಕೂಲ ಮಾಡಿಕೊಡಲು ಮೋದಿಗೆ ತಾಕೀತು ಮಾಡಿದ ಎಚ್ ಡಿ ದೇವೇಗೌಡ  | Oneindia Kannada,8,
ETV Jaikisan,ETV Jaikisan,false,sd,2d,PT4M45S,true,rectangular,IN,ఉమ్మడి కరీంనగర్ జిల్లాలో కొలంబో కంది రకం మంచి ఫలితాలను ఇస్తోంది. వర్షాభా...,KPeylMZGFBI,2019-01-16T14:16:29.000Z,5,0,56,6170,Jaikisan TS | 16th Jan&#39;19 | సిద్ధిపేట జిల్లాలో అధిక దిగుబడులు ఇస్తున్న  కొలంబో కంది రకం,9,
Kannada Desk,Kannada Desk,false,sd,2d,PT3M2S,false,rectangular,,ಬಾಗಲಕೋಟೆ: ಜಿಲ್ಲೆಯ ತೋಟಗಾರಿಕೆ ವಿಜ್ಞಾನ ವಿಶ್ವವಿದ್ಯಾಲಯದಲ್ಲಿ ನಡೆದ 8ನೇ ಘಟಿಕೋತ್...,OYBqTAdsCTU,2019-02-27T18:06:05.000Z,0,0,8,262,ಬಾಗಲಕೋಟೆ ತೋಟಗಾರಿಕೆ ವಿವಿ 8ನೇ ಘಟಿಕೋತ್ಸವ: ಶಿರಸಿಯ ಸೀಮಾಗೆ 17 ಚಿನ್ನದ ಪದಕ!,0,
Garuda Gamana - Parisara Premi,Garuda Gamana - Parisara Premi,false,hd,2d,PT36M17S,false,rectangular,IN,ಮನೆಯಂಗಳದ ವನಸಿರಿ - ಒಂದು ಕಿರುಚಿತ್ರ / A #Kannada #Shortfilm ಎಲ್ಲರಿಗೂ ನಮಸ್ಕಾರ. 30' x 40' ಅಳತೆಯ...,c3ZC-fx6ntU,2019-09-02T04:56:10.000Z,0,0,20,489,ಮನೆಯಂಗಳದ ವನಸಿರಿ - ಒಂದು ಕಿರುಚಿತ್ರ | ಸುಂದರ ಕೈತೋಟ | 16 ವರ್ಷಗಳ ನಿರಂತರ ಪ್ರಯತ್ನ | Kannada Shortfilm,7,
RAGHU EDUCARE,RAGHU EDUCARE,false,hd,2d,PT3M39S,true,rectangular,IN,2019-20ನೇ ಸಾಲಿನ ಬಜೆಟ್ನಲ್ಲಿ ಕೃಷಿ ಇಲಾಖೆಗೆ 46853 ಕೋಟಿ ರೂ.ಗಳ ಅನುದಾನವನ್ನು ಒದಗಿಸಿರುವ...,FEwdG4mfz2E,2019-02-09T05:52:24.000Z,0,0,11,225,2019 - 20 ರಾಜ್ಯ ಬಜೆಟ್ ಮಂಡನೆ||ಎಚ್ ಡಿ ಕುಮಾರಸ್ವಾಮಿ 2019 ಕರ್ನಾಟಕ ಬಜೆಟ್ ಮಂಡನೆ ||ಸಾಲ ಮನ್ನಾ||ರೈತ ಕಣಜ ಯೋಜನೆ,3,
B news nation Kannada,B news nation Kannada,false,hd,2d,PT3M57S,true,rectangular,,ವಿಜಯಪುರ ಜಿಲ್ಲೆಯ ಮುದ್ದೇಬಿಹಾಳ ತಾಲ್ಲೂಕಿನ ನಾಲತವಾಡ ಪಟ್ಟಣದಲ್ಲಿ ಬಸವರಾಜ ಗಂಗನಗೌ...,irnBBOMp10Q,2018-10-23T15:55:35.000Z,0,0,18,3155,ಮಳೆ ಬಾರದೆ ಕಂಗಾಲಾದ ರೈತ.......! 23-10-2018,0,
Dighvijay 24X7 News,Dighvijay 24X7 News,false,hd,2d,PT3M9S,true,rectangular,IN,DighvijayNews #KannadaNewsChannel #DighvijayNews- ದಿಗ್ವಿಜಯ ನ್ಯೂಸ್ 24x7: ಇದು ಕನ್ನಡಿಗರ ಧ್ವನಿ ಸುದ್ದಿಯಲ್ಲಿ ಸದಾ...,Bn04t58D_JA,2019-06-04T07:33:55.000Z,0,0,1,200,ಜಿಲ್ಲಾ ಉಸ್ತುವಾರಿ ವಿರುದ್ಧ ಅಸಮಾಧಾನ | Davangere Congress Leaders Demands to change Incharge Minister,0,
FM NEWS VIJAYAPUR ಎಫ್ ಎಮ್ ಕನ್ನಡ ನ್ಯೂಸ್,FM NEWS VIJAYAPUR ಎಫ್ ಎಮ್ ಕನ್ನಡ ನ್ಯೂಸ್,false,hd,2d,PT2M52S,true,rectangular,IN,"FM News is a leading daily kannada news channel in vijayapur, karnataka, providing latest and updated information on various topics, including politics, culture ...",1IVSWgFRPQQ,2019-07-18T04:51:11.000Z,1,0,10,199,ಜಲಶಕ್ತಿ ಅಭಿಯಾನದಲ್ಲಿ ಜನರಿಗೆ ಅರಿವು ಮೂಡಿಸಿದ ವಿಜಯಪುರ ಜಿಲ್ಲಾಧಿಕಾರಿ..,0,
Namma Kudla News 24x7,Namma Kudla News 24x7,false,hd,2d,PT19M47S,true,rectangular,IN,ಎಂಜಿನಿಯರಿಂಗ್‌ ಸೇರಿದಂತೆ ನಾನಾ ವೃತ್ತಿಪರ ಕೋರ್ಸ್‌ಗಳ ಪ್ರವೇಶಕ್ಕಾಗಿ ನಡೆದ 2019-20ನೇ...,8ti3iX8YgmI,2019-05-25T09:18:01.000Z,0,0,1,102,ಸಿಇಟಿ ಫಲಿತಾಂಶ ಪ್ರಕಟ ಮಂಗಳೂರಿನ ಎಕ್ಸ್‌ಪರ್ಟಿಗೆ ರಾಂಕಿನ ಗರಿ,1,
B.M. Nagabhushana,B.M. Nagabhushana,false,sd,2d,PT6M47S,false,rectangular,,ಅವರದು ಅಪರೂಪದ ವ್ಯಕ್ತಿತ್ವ !! ಯಾರದು?* ============================ ಸುಮಾರು ವರ್ಷದ ಹಿಂದಿನ ಮಾತು.......,eWLYiX2Epak,2019-09-01T16:04:19.000Z,0,0,7,90,SEAT  ಕಾರ್ಯಕ್ರಮ - ಶ್ರೀ. ತಮ್ಮಯ್ಯ ಇವರ ಅಭಿಪ್ರಾಯ,1,
Axe TV Kannada,Axe TV Kannada,false,hd,2d,PT1M5S,false,rectangular,,ಭಾರತದ ಬಲು ದುಬಾರಿ ತರಕಾರಿ || Guchhi Mushroom Follow on facebook - https://www.facebook.com/axetvkannada -~-~~-~~~-~~-~- Please watch: ...,EX5qMtQb5r0,2017-12-09T07:04:53.000Z,0,0,21,616,ಭಾರತದ ಬಲು ದುಬಾರಿ ತರಕಾರಿ  || Guchhi Mushroom,3,
Agriculture Anak Rimba,Agriculture Anak Rimba,false,hd,2d,PT11M56S,true,rectangular,ID,First Time Test Pakai ZPT #ARMURE300EC UNTUK MENINGKATKAN HASIL PANEN & Gabah Meningkat [ Part 29.2 ] Hai Sobat Tani... Jumpa Lagi Dengan ...,cinBiaMXIQg,2019-03-02T04:52:25.000Z,6,0,48,8232,First Time Test Pakai ZPT #ARMURE300EC Utk MENINGKATKAN Hasil Panen Padi [ Part 29.2 ],45,
Raman Tutorial For G.K,Raman Tutorial For G.K,false,hd,2d,PT25M14S,true,rectangular,IN,DURecorder This is my video recorded with DU Recorder. It's easy to record your screen and livestream. Download link: Android: https://goo.gl/s9D6Mf iOS: ...,6R-99VQl-rw,2019-04-04T06:08:22.000Z,4,0,122,2792,6- 8 CET ಭೂಗೋಳ : ವ್ಯವಸಾಯ,7,
Raman Tutorial For G.K,Raman Tutorial For G.K,false,hd,2d,PT14M,true,rectangular,IN,"ವಿಜ್ಞಾನಕ್ಕೆ ಸಂಬಂಧಿಸಿದ ಪ್ರಶ್ನೋತ್ತರ, general science in Kannada, general knowledge in Kannada.",NFEeoJj2EKI,2018-08-08T03:26:24.000Z,15,0,419,13298,ರಾಸಾಯನಶಾಸ್ತ್ರಕ್ಕೆ ಸಂಬಂಧಿಸಿದ ಪ್ರಮುಖ ಪ್ರಶ್ನೋತ್ತರಗಳ ಮಾಲೆ ಭಾಗ-1,38,
PRAGATHI TV OFFICIAL,PRAGATHI TV OFFICIAL,false,sd,2d,PT40M5S,true,rectangular,IN,ಕಮಲಾ ಬಡ್ಡಿಹಳ್ಳಿಯವರು ಚಿಕ್ಕಂದಿನಿಂದಲೂ ಸಾಹಿತ್ಯದ ಬಗ್ಗೆ ಆಸಕ್ತಿ ಇದ್ದರು ಕೂಡ...,7onQdqoxA54,2019-03-19T08:01:19.000Z,1,0,6,181,ಕಮಲಾ ಬಡ್ಡಿಹಳ್ಳಿ(KAMALA BADDYHALLI),0,
TV5 Kannada,TV5 Kannada,false,hd,2d,PT2M37S,true,rectangular,IN,'ರೈ ಟೆಕ್ನಾಲಜಿ ಯುನಿವರ್ಸಿಟಿ' ಕರ್ಮಕಾಂಡ TV5 Kannada - News You can trust. TV5 Kannada now captures Karnataka every inch and every...,GlVNeOwL3E8,2018-06-21T08:44:24.000Z,5,0,26,1000,‘ರೈ ಟೆಕ್ನಾಲಜಿ ಯುನಿವರ್ಸಿಟಿ’ ಕರ್ಮಕಾಂಡ | TV5 Kannada,2,
Kadamba TV,Kadamba TV,false,hd,2d,PT1M47S,true,rectangular,IN,ಬಿಳಿ ಎಕ್ಕದ ಗಿಡ ನಿಮ್ಮ ಮನೆ ಮುಂದೆ ಇದ್ದರೆ - ತಪ್ಪದೇ ಈ ವಿಡಿಯೋ ನೋಡಿ - Best benefits of Arka plant ...,3yeI18WAMS4,2019-06-24T12:37:33.000Z,6,0,106,5365,ಬಿಳಿ ಎಕ್ಕದ ಗಿಡ ನಿಮ್ಮ ಮನೆ ಮುಂದೆ ಇದ್ದರೆ - ತಪ್ಪದೇ ಈ ವಿಡಿಯೋ ನೋಡಿ - Best benefits of Arka plant leaves,11,
Suvarna News | ಸುವರ್ಣ ನ್ಯೂಸ್,Suvarna News | ಸುವರ್ಣ ನ್ಯೂಸ್,false,sd,2d,PT1M43S,true,rectangular,IN,ಕೃಷಿಯನ್ನೇ ಜೀವನವಾಗಿಸಿಕೊಂಡಿರುವ ಚಿಕ್ಕಮಗಳೂರಿನ ರೈತ ಕಂಗಾಲಾಗಿ ಹೋಗಿದ್ದಾನೆ. ಈ...,75yVnuK9rHA,2018-06-08T04:07:21.000Z,0,0,3,503,Pesticides Manufacturers To Rollback Price Increase Farmer&#39;s Burden.,0,
Namma Kudla News 24x7,Namma Kudla News 24x7,false,hd,2d,PT1M13S,true,rectangular,IN,"ಕಡಲನಗರಿ ಮಂಗಳೂರು ಸಮೀಪದ ಸುರತ್ಕಲ್‍ನ ಮಾಲೇಮಾರ್ ಬೀಚ್‍ನಲ್ಲಿ, ಸತ್ತ ಸ್ಥಿತಿಯಲ್ಲಿ...",esPq5KdW9Ng,2019-06-29T13:51:10.000Z,3,0,38,5362,ಸುರತ್ಕಲ್ ಬೀಚ್‍ನಲ್ಲಿ ಬೃಹತ್ ಗಾತ್ರದ ಮೀನು ಪತ್ತೆ..!!,6,
PROUD TO BE A TEACHER,PROUD TO BE A TEACHER,false,hd,2d,PT6M21S,false,rectangular,,"ಯಾವುದೇ ದೇಶಕ್ಕಾಗಲಿ, ಮೆಕ್ಕಲು ಮಣ್ಣು ಒಂದು ವರವಿದ್ದಂತೆ! ಈ ಮಣ್ಣು ಅತ್ಯಂತ ಫಲವತ್ತಾಗ...",PWJga4tiEJ0,2019-08-09T16:07:38.000Z,0,0,13,195,Soils of India - Alluvial Soil ಭಾರತದ ಮಣ್ಣುಗಳು - ಮೆಕ್ಕಲು ಮಣ್ಣು,3,
Sadhguru Kannada,Sadhguru Kannada,false,hd,2d,PT6M33S,true,rectangular,IN,ಇಂದಿಗೆ ಭಾರತಕ್ಕೆ ಸ್ವಾತಂತ್ರ್ಯ ದೊರಕಿ 72 ವರ್ಷಗಳಾಗುತ್ತದೆ. ಈ 72 ವರ್ಷಗಳಲ್ಲಿ ಅನೇಕ...,23BV6rby0GY,2018-08-15T10:55:28.000Z,7,0,113,3073,ಭವ್ಯ ಭಾರತಕ್ಕಾಗಿ ಮೂರು ಸೂತ್ರಗಳು | ಸದ್ಗುರುಗಳ ಸ್ವಾತಂತ್ರ್ಯ ದಿನದ ಸಂದೇಶ,7,
SUGNANA,SUGNANA,false,hd,2d,PT4M20S,true,rectangular,IN,8th ಪಾಸ್ ಮಾಡಿದ ವಿದ್ಯಾರ್ಥಿಗಳಿಗೆ ಲಭ್ಯವಿರುವ Scholarshipನ ಮಾಹಿತಿ ಈ ವಿಡಿಯೋ ಅಲ್ಲಿ ಇದೆ....,53-oWEBs5EU,2019-06-02T02:56:40.000Z,33,0,289,30149,8ನೇ ತರಗತಿ ಪಾಸ್ ಆಗಿರುವವರಿಗೆ ನರೇಂದ್ರ ಮೋದಿ scholarship !!! ತಿಳಿಯಲು ಈ ವಿಡಿಯೋ ನೋಡಿ,7,
Ayurvedic medicinal plant,Ayurvedic medicinal plant,false,hd,2d,PT2M46S,true,rectangular,IN,ಗಣಗಿಲೆ ಕಣಗಿಲೆ ಅಶ್ವ ಮಾರಕ ರಕ್ತ ಪುಪು ಕರವೀರ ಶ್ವೇತ ಪುಪ್ಪ ಆಯುರ್ವೇದ ಔಷಧೀಯ ಸಸ್ಯ...,_kSSbPGXuxk,2019-07-29T14:19:51.000Z,3,0,31,2051,ಗಣಗಿಲೆ ಕಣಗಿಲೆ ಅಶ್ವ ಮಾರಕ ರಕ್ತ ಪುಪು ಕರವೀರ ಶ್ವೇತ ಪುಪ್ಪ ಆಯುರ್ವೇದ ಔಷಧೀಯ ಸಸ್ಯ,1,
INNERSPACE STUDIOS,INNERSPACE STUDIOS,false,hd,2d,PT1M,false,rectangular,,Innerspace Productions wedding Highlights. POOJA + NANDISH Location : TRISHUL KALA BHAVAN (Davangere). Wedding | Pre Wedding | New Born & Kids ...,NEdaaBiLwqg,2019-05-31T10:29:41.000Z,1,0,11,454,Pooja &amp; Nandeesh | wedding Highlights 2019 | Davangere,0,
ಸಾಮಾನ್ಯ ಮಾಹಿತಿ ನಿಮ್ಮ ಕೈಯಲ್ಲಿ,ಸಾಮಾನ್ಯ ಮಾಹಿತಿ ನಿಮ್ಮ ಕೈಯಲ್ಲಿ,false,hd,2d,PT2M55S,true,rectangular,IN,APMC Red Gram // Dall from Former's ಕರ್ನಾಟಕ ಸರ್ಕಾರದ ಯೋಜನೆ ತೋಗರಿ ಬೆಂಬಲ ಬೆಲೆ ನಿಡುವದಾಗಿ ರೈತರಿಂದ...,yGytPhGCUU0,2018-01-26T12:47:44.000Z,1,0,14,1897,APMC// ರೈತನಿಗೆ ಆಗುತ್ತಿರುವ ಕರ್ನಾಟಕ ಸರ್ಕಾರದ ಯೋಜನೆ//ತೋಗರಿ ಬೆಂಬಲ ಬೆಲೆ Red Gram // Dall from Formers,0,
TV5 Kannada,TV5 Kannada,false,hd,2d,PT5M33S,true,rectangular,IN,"TV5 Kannada - News You can trust. TV5 Kannada now captures Karnataka every inch and every second standing by the land and its pride, people and their ...",PhxH4vGS9W0,2018-06-25T07:54:54.000Z,7,0,102,1579,ವಿದ್ಯಾರ್ಥಿಗಳ ಪ್ರತಿಭಟನೆ - ಖಾಸಗೀಕರಣಕ್ಕೆ ಬರಿ ವಿರೋಧ  | TV5 Kannada,2,
Raman Tutorial For G.K,Raman Tutorial For G.K,false,hd,2d,PT9M48S,true,rectangular,IN,,oi9PcYp7doo,2019-04-06T16:47:58.000Z,6,0,199,4049,6-8 CET : ಅನ್ಯದೇಶಿಯ ಪದಗಳು,21,
Student Academy,Student Academy,false,hd,2d,PT5M32S,false,rectangular,,7ನೇ ತರಗತಿ ವಿಜ್ಞಾನ ಸ0ತಾನೋತ್ಪತ್ತಿ ಘಟಕದಲ್ಲಿ ಬರುವ ದಾಸವಾಳ ಹೂವಿನ ಭಾಗಗಳನ್ನು ಕುರ...,Qf8B17v3Dzk,2018-11-28T14:22:28.000Z,1,0,0,360,ದಾಸವಾಳ ಹೂವಿನ ಕಾಯಿ ಮತ್ತು ಬೀಜಗಳ ಕುರಿತ ಮಾಹಿತಿ.,0,
Samaya News,Samaya News,false,sd,2d,PT14M1S,true,rectangular,IN,ನಾನು ನನ್ನ ಸಿನಿಮಾ ವಿಶೇಷ ಕಾರ್ಯಕ್ರಮ ಶರಣ್ ಸಿನಿಪಯಣದ ಮೇಲೊಂದು ನೋಟ ಕಾಮಿಡಿ ಪಾತ್ರಗ...,ihctVOisGbI,2014-07-11T11:11:00.000Z,4,0,68,9031,SHARAN - NANU NANNA CINEMA -  SEG 3 ಶರಣ್,2,
RAGHU EDUCARE,RAGHU EDUCARE,false,hd,2d,PT16M51S,true,rectangular,IN,ಮಾನ್ಯ ಶ್ರೀ ಬಸವಂತಯ್ಯ ಹಿರೇಮಠ ಹಿರಿಯ ಉಪನ್ಯಾಸಕರು ಡಯಟ್ ಮುನಿರಾಬಾದ 6ನೇ ತರಗತಿ ವಿಜ್...,jyDh8GkN0c8,2019-01-12T18:53:08.000Z,0,0,30,629,ಶ್ರೀ ಬಸವಂತಯ್ಯ ಹಿರೇಮಠ ||ಇವರು ನಡೆಸಿಕೊಟ್ಟ ಹಾಸ್ಯ ಕಾರ್ಯಕ್ರಮ||ನಗೆ ಹಬ್ಬ,7,
Akshara Academy,Akshara Academy,false,sd,2d,PT7M49S,true,rectangular,IN,Currentaffairs #Junecurrentaffairs.,E4FWwlBRuTk,2019-06-06T01:33:41.000Z,6,0,346,4621,June 6 Current Affairs,22,
Madhu G,Madhu G,false,sd,2d,PT21S,false,rectangular,,"Taralabalu Hunnime - 2019, Sirigere, Chitradurga District, Karnataka.",l4OREdXxzw0,2019-02-22T13:37:38.000Z,6,0,17,898,Taralabalu Hunnime 2019,1,
ICAR-Taralabalu KVK,ICAR-Taralabalu KVK,false,hd,2d,PT13M12S,false,rectangular,IN,"Video of NICRA-TDC activities at Siddanuru, Davanagere.",uCUtn7WBx9c,2019-06-04T10:13:20.000Z,0,0,2,44,"Experiences of NICRA-TDC, Siddanuru, Davanagere",0,
ETV Jaikisan,ETV Jaikisan,false,sd,2d,PT6M18S,true,rectangular,IN,కంది పంటకు ప్రధాన శత్రువు ఎండుతెగులు. ఒక్కసారి సోకితే చాలు...పచ్చని పైరున...,X78LYPUtwjA,2018-12-05T13:43:01.000Z,0,0,10,1050,Jaikisan TS | 5th Dec&#39;18 |   మహబూబ్‌నగర్ జిల్లా | TS3R కందిరకంపై జిల్లా రైతుల ఆసక్తి,0,
TV5 Kannada,TV5 Kannada,false,hd,2d,PT2M29S,true,rectangular,IN,"TV5 Kannada - News You can trust. TV5 Kannada now captures Karnataka every inch and every second standing by the land and its pride, people and their ...",SdmxR_d6BbY,2018-06-25T07:46:20.000Z,192,0,30,1957,ಇದು TV5ನ ಬಿಗ್ ಇಂಪ್ಯಾಕ್ಟ್ - ನಕಲಿ ಕಾಲೇಜಿನ ಬಗ್ಗೆ TV5 ವರದಿ  | TV5 Kannada,40,
Namma Kudla News 24x7,Namma Kudla News 24x7,false,hd,2d,PT3M46S,true,rectangular,IN,ಶಿರೂರು ಸ್ವಾಮೀಜಿ ಸಾವಿನ ಪ್ರಕರಣಕ್ಕೆ ಸಂಬಂಧಿಸಿ ಮಣಿಪಾಲ ಕೆಎಂಸಿಯ ತಜ್ಞ ವೈದ್ಯರು...,HJHuGKc-xyc,2019-07-19T16:06:26.000Z,3,0,28,3685,ಮತ್ತೆ ಜೀವ ಪಡೆದ ಶಿರೂರು ಸ್ವಾಮಿ ಸಾವು ಪ್ರಕರಣ..!!!,4,
YOYO TV Kannada,YOYO TV Kannada,false,hd,2d,PT4M16S,true,rectangular,IN,,wwOSFQpCu6E,2018-08-20T12:33:09.000Z,6,0,31,4152,"ಕೇರಳ, ಕರ್ನಾಟಕದ ಭೀಕರ ಪ್ರವಾಹಕ್ಕೆ ಕಾರಣ? ಪ್ರೊ. ಮಾಧವ್ ಗಾಡ್ಗೀಳ್ ! | Reason For Floods In Kodagu and Kerala",1,
PUBLIC FOCUS TV II ಪಬ್ಲಿಕ್-ಪೋಕಸ್ ಕನ್ನಡ ಟಿ.ವಿ,PUBLIC FOCUS TV II ಪಬ್ಲಿಕ್-ಪೋಕಸ್ ಕನ್ನಡ ಟಿ.ವಿ,false,hd,2d,PT2M38S,true,rectangular,IN,Farming At Udaupi By 8 Year Kid||ಪುಟಾಣಿ 'ಕೃಷಿಕ' ಉಡುಪಿ:ಆತ ಇನ್ನೂ ಎಂಟರ ಹರೆಯದ ಪುಟ್ಟ ಪೋರ.. ಅದ್ರಲ್ಲೂ...,wpeoagDpEAE,2018-07-04T09:11:58.000Z,0,0,12,391,Farming At Udaupi By 8 Year Kid||ಪುಟಾಣಿ &#39;ಕೃಷಿಕ&#39;|| PUBLIC FOCUS TV||,4,
Technical KISHOR,Technical KISHOR,false,hd,2d,PT3M56S,true,rectangular,IN,1) ಹಿಂದುಳಿದ ವರ್ಗಗಳ ಕಲ್ಯಾಣ ಇಲಾಖೆಯ ವಿದ್ಯಾರ್ಥಿ ವೇತನ - ೨) ಸಮಾಜ ಕಲ್ಯಾಣ ಇಲಾಖೆಯ...,b2e7hyFPxhk,2018-06-30T07:49:29.000Z,2,0,18,1177,SCHOLARSHIP | GOVERNMENT OF KARNATAKA | 2018 | 17 Scholarship | FOR ALL CASTE CATEGORIES |,0,
Swabhiman Swadeshi Kendra,Swabhiman Swadeshi Kendra,false,sd,2d,PT4M22S,false,rectangular,IN,,q1LLq1-QS64,2019-01-27T02:20:12.000Z,3,0,89,2767,ಈ ಪ್ರಯೋಗ ಮಾಡಿನೋಡಿ - ಶ್ರೀ ಸಿದ್ಧೇಶ್ವರ ಸ್ವಾಮೀಜಿ,4,
Rajini express,Rajini express,false,hd,2d,PT2M19S,true,rectangular,IN,3ನೇ ಮಹಾಯುದ್ಧಕ್ಕೆ ಸಿದ್ಧರಾಗುವಂತೆ ರಷ್ಯಾನ್ನರಿಗೆ ಟಿವಿ ಚಾನೆಲ್ ಗಳು ಕರೆ||3rd world war||Rajini...,RndaE9qj2H0,2018-04-16T04:49:18.000Z,0,0,9,526,3ನೇ ಮಹಾಯುದ್ಧ||3rd world war||Rajini express,0,
KANNADA TV,KANNADA TV,false,hd,2d,PT2M59S,true,rectangular,IN,ಜಲಶಕ್ತಿ ಅಭಿಯಾನ ಕಾರ್ಯಕ್ರಮಕ್ಕೆ ಚಾಲನೆ ಕಾರ್ಯಕ್ರಮಕ್ಕೆ ಚಾಲನೆ ನೀಡಿದ ಜಿಲ್ಲಾಧಿಕ...,BJxrhfqxj7U,2019-07-20T11:36:20.000Z,0,0,0,30,ಜಲಶಕ್ತಿ ಅಭಿಯಾನ ಕಾರ್ಯಕ್ರಮಕ್ಕೆ ಚಾಲನೆ,0,
NIZAM BILAL DAVANAGERE,NIZAM BILAL DAVANAGERE,false,hd,2d,PT2M37S,true,rectangular,,in our Karnataka Davangere silencer was banned today .....because due to Sound pollution ......so demolishing the silence Date 03/6/2019 Nizam bila ...,8X8lNeOGwcc,2019-06-03T16:05:37.000Z,11,0,26,28476,Davangere Police Royal Enfield silencer demolishing 2019,12,
ಕನ್ನಡದಲ್ಲಿ ಮಾಹಿತಿ Kannadadalli Mahiti,ಕನ್ನಡದಲ್ಲಿ ಮಾಹಿತಿ Kannadadalli Mahiti,false,hd,2d,PT3M41S,false,rectangular,IN,__ App : https://play.google.com/store/apps/details?id=com.crop.csreports ಸ್ನೇಹಿತರೇ ಈ ವಿಡಿಯೋ ನಿಮಗೆ ಇಷ್ಟವಾದಲ್ಲಿ ಲೈಕ್...,ssydNbpXSVQ,2018-10-16T13:37:24.000Z,44,0,843,48320,ಬೇಳೆ ವಿಮೆ ಬೇಕಾದ್ರೆ ಈಗಲೇ ಈ ಕೇಲಸ ಮಾಡಿ | Crop Servey app by Karnataka Govt,35,
IN GULBARGA CHANNEL,IN GULBARGA CHANNEL,false,hd,2d,PT6M19S,true,rectangular,IN,ತೊಗರಿಗೆ 7500 ರೂ ಬೆಂಬಲ ಬೆಲೆ ನಿಗದಿಪಸಿ ಕಾನೂನು ರಚಿಸಬೇಕು ಎಂದು ಕಲಬುರಗಿ ವಿಭಾಗಿಯ...,i63hI-9pVik,2018-12-15T08:18:26.000Z,0,0,3,82,ತೊಗರಿಗೆ 7500 ರೂ ಬೆಂಬಲ ಬೆಲೆ ನಿಗದಿಪಸಿ ಕಾನೂನು ರಚಿಸಬೇಕು ಎಂದು ಕಲಬುರಗಿ ವಿಭಾಗಿಯ ರೈತರ ಸಮಾವೇಶ,0,
ETV Jaikisan,ETV Jaikisan,false,sd,2d,PT6M26S,true,rectangular,IN,పదేళ్ల క్రితం అపరాల సాగుతో బేజారైన రైతులు...క్రమంగా వాణిజ్య పంటలవైపు మళ్...,UnSp6m9kv8Q,2016-12-30T14:21:25.000Z,2,0,42,9619,JaiKisan TS | 30th Dec &#39;16 | రికార్డు దిగుబడులనిస్తున్నకొత్త కంది రకం,5,US
Btv News Ɩ ಬಿಟಿವಿ ನ್ಯೂಸ್,Btv News Ɩ ಬಿಟಿವಿ ನ್ಯೂಸ್,false,sd,2d,PT8M22S,true,rectangular,IN,Btv - Supreme Court tribunal opinion on cauvery dispute Subscribe / Follows on our offical Channels: https://www.facebook.com/btvnewslive/ ...,LFbtOs3SESw,2017-09-20T11:13:29.000Z,0,0,3,392,Supreme Court tribunal opinion on cauvery dispute,0,
4tv News Karnataka,4tv News Karnataka,false,hd,2d,PT3M22S,true,rectangular,IN,ಕೋಶ ಓದಿ ನೋಡು ದೇಶ ಸುತ್ತಿ ನೋಡಿ ತಿಳುವಳಿಕೆ ಪಡೆದುಕೊಳ್ಳು ಎಂದು ದೊಡ್ಡವರು ಹೇಳುತ್ತ...,5eSBfQpvOwg,2018-01-02T14:26:17.000Z,1,0,12,591,ಬಸವ ಕಲ್ಯಾಣ ಬಸ್ಸ ನಿಲ್ದಾಣದ ಅದೋಗತಿ...02-01-2018,0,
JANGAMA JYOTHI TV NEWS,JANGAMA JYOTHI TV NEWS,false,sd,2d,PT9M48S,true,rectangular,IN,ಹೆಡ್ಡಲೈನ್ಸ್: ಸುಕ್ಷೇತ್ರ ಅಮ್ಮಣಗಿ ಮಲ್ಲಿಕಾರ್ಜುನ ದೇವಸ್ಥಾನದಲ್ಲಿ ರಾಷ್ಟೀಯ ಸೇವಾ...,JoIivmYBNhs,2018-10-27T02:52:52.000Z,1,0,10,525,ಡಿ ಬಿ ಹೆಬ್ಬಾಳಿ ಪದವಿ ಪೂರ್ವ ಕಾಲೇಜು ವಿಧ್ಯಾರ್ಥಿಗಳು ರಾಷ್ಟೀಯ ಸೇವಾ ಯೋಜನೆ ಶಿಬಿರ (NSS) ಸಮಾರೂಪ ಸಮಾರಂಭ ನಡೆಯಿತು,1,
Kannada ALL Round,Kannada ALL Round,false,hd,2d,PT1M53S,true,rectangular,IN,Welcome To Kannada ALL Round YouTube Channel..! ಕನ್ನಡದಲ್ಲಿ ಎಲ್ಲಾ ಮಾಹಿತಿಗಾಗಿ ಹಾಗು ವಿಡಿಯೋಸಗಳನ್ನ ವೀಕ್ಷಿ...,RrQO7KSKeBI,2019-07-09T11:30:03.000Z,6,0,36,891,ಹೊಸ ನಿಯಮ || ಒಂದು ದೇಶ ಒಂದು ಖಾತೆ || ಒಂದಕ್ಕಿಂತ ಹೆಚ್ಚು ಖಾತೆ ಇರುವವರಿಗೆ ಶಾಕಿಂಗ್,6,
Prajaa TV Kannada News,Prajaa TV Kannada News,false,sd,2d,PT59S,true,rectangular,IN,ನೆರೆಯ ಪ್ರದೇಶದ ಜನರಿಗೆ ಮನೆ ನಿರ್ಮಾಣ ಮಾಡಿಕೊಡಲು ಇನ್ಫೋಸಿಸ್ ಫೌಂಡೇಶನ್ ಸಂಸ್ಥೆಯಿಂ...,2slYHoQ6Nlo,2019-08-14T08:01:48.000Z,0,0,5,461,"ನೆರೆಯ ಪ್ರದೇಶದ ಜನರಿಗೆ ಮನೆ ನಿರ್ಮಾಣ ಮಾಡಿಕೊಡಲು ನಿರ್ಧಾರ, ಹತ್ತು ಕೋಟಿ ಮೀಸಲಿಟ್ಟಿರೋದಾಗಿ ಸುಧಾಮೂರ್ತಿ ಹೇಳಿಕೆ",,
DD Chandana,DD Chandana,false,sd,2d,PT10M54S,true,rectangular,IN,"Krishidarshan Programme on 20-03-2019@6.30pm ಸೋಮಶೇಖರ ಗಡೇದ, ಪ್ರಗತಿಪರ ಕೃಷಿಕರು, ಸಂತೇಕಲ್ಲೂರು ಗ್ರಾಮ, ಲಿಂಗಸ...",NyPfhpEONlQ,2019-03-29T11:22:51.000Z,0,0,8,594,Farmer&#39;s Experience in Integrated farming_ಸಮಗ್ರಕೃಷಿಯಲ್ಲಿ ರೈತನ ಅನುಭವ,0,
Raman Tutorial For G.K,Raman Tutorial For G.K,false,hd,2d,PT24M54S,true,rectangular,IN,R ಭಾರತದ ಇತಿಹಾಸದಲ್ಲಿ ಸಾಮಾಜಿಕ ಧಾರ್ಮಿಕ ಸುಧಾರಕರು ಬಗ್ಗೆ ತಿಳಿಯೋಣ.,v_w_uxKDntk,2019-04-07T15:54:32.000Z,8,0,201,4003,6-8 CET ಮಧ್ಯಕಾಲೀನ ಭಾರತದ ಇತಿಹಾಸ : ಸಾಮಾಜಿಕ ಧಾರ್ಮಿಕ ಸುಧಾರಕರು,9,
jai kodkani,jai kodkani,false,hd,2d,PT2M35S,false,rectangular,,ರಂಗ ವಿಜ್ಞಾನ ತರಬೇತಿ- 2018.,IxiP4FcYORs,2018-11-05T17:52:13.000Z,0,0,3,304,SKDRDP PROGRAM (46): BY JAIWANT PATGAR,0,
raitamitra news tv channel,raitamitra news tv channel,false,hd,2d,PT47S,false,rectangular,,,Oov64tzWZbg,2018-06-04T04:55:37.000Z,0,0,4,146,Raitamitra Sanpada kar Mart,0,
Vartha Bharati,Vartha Bharati,false,sd,2d,PT36S,true,rectangular,IN,varthabharati.in.,aDXCJJ-gZgY,2017-08-31T12:10:35.000Z,1,0,0,105,ಉಡುಪಿ ನಗರ ಸಭೆ: ಬಿಜೆಪಿ ವಿರುದ್ಧ ಜಿಲ್ಲಾಧಿಕಾರಿಗೆ ದೂರು,0,
Kannada Desk,Kannada Desk,false,sd,2d,PT1M19S,true,rectangular,,"ಶಿವಮೊಗ್ಗ: ದ್ರಾಕ್ಷಾರಸ ಮಂಡಳಿ, ತೋಟಗಾರಿಕೆ ಇಲಾಖೆ ಆಶ್ರಯದಲ್ಲಿ ನಗರದಲ್ಲಿ ಆಯೋಜಿಸಿ...",9VDEv9-KNAY,2017-10-14T07:49:49.000Z,0,0,2,559,ತುಂತುರು ಮಳೆಯಲ್ಲಿ ಶಿವಮೊಗ್ಗ ವೈನ್‍ ಫೆಸ್ಟ್‌‌ಗೆ ಸಖತ್ ರೆಸ್ಪಾನ್ಸ್,0,
Tv9 Kannada,Tv9 Kannada,false,hd,2d,PT6M18S,true,rectangular,IN,TV9 News: Portfolio Allocation Has Been Finalised by The AICC ▻ Download TV9 Kannada Android App: https://goo.gl/OM6nPA ▻ Subscribe to Tv9 Kannada: ...,gd3w2DpEtSc,2018-12-28T07:16:08.000Z,1,0,7,1471,Portfolio Allocation Has Been Finalised by The AICC,0,
Mahesh m Sharma,Mahesh m Sharma,false,sd,2d,PT31M8S,false,rectangular,,ಬೆಳಗಾವಿ ಜಿಲ್ಲೆ ಅಥಣಿ ತಾಲೂಕು ಹಳೆ ತಸಿಲ್ದಾರ್ ಆಫೀಸ್ ನಲ್ಲಿ ನೆಮ್ಮದಿ ಕೇಂದ್ರ ಬಂದಿ...,jRkjqYestN0,2019-09-13T15:49:08.000Z,0,0,2,22,ಬೆಳಗಾವಿ ಜಿಲ್ಲೆ ಅಥಣಿ ತಾಲೂಕು ಹಳೆ ತಸಿಲ್ದಾರ್ ಆಫೀಸ್ ನಲ್ಲಿ ನೆಮ್ಮದಿ ಕೇಂದ್ರ ಬಂದಿರುವುದರಿಂದ ನೆಮ್ಮದಿಯೇ ಇಲ್ಲದಂತಾ,0,
residue free dry grapes rising,residue free dry grapes rising,false,sd,2d,PT2M48S,false,rectangular,IN,Video from shankardhage93.,Zh89sY32c5M,2017-10-28T16:03:12.000Z,0,0,5,461,ತೊಗರಿ ಎಣ್ಣೆ ಹೊಡೆಯುವ ಯಂತ್ರ ಒಂದು ದಿನಕ್ಕೆ 50 ಎಕರೆ ಹೊಡಿಯೋ ಅಂತ,2,
Namma Kudla News 24x7,Namma Kudla News 24x7,false,hd,2d,PT1M41S,true,rectangular,IN,ಉಡುಪಿ ಜಿಲ್ಲಾ ನಾಗರಿಕ ಸಮಿತಿ ಟ್ರಸ್ಟ್ ಹಾಗೂ ಪಂಚರತ್ನ ಸೇವಾ ಟ್ರಸ್ಟ್ ಉಡುಪಿ ಜಂಟಿಯಾ...,EhqE4SlzjIE,2019-05-14T15:52:35.000Z,0,0,6,633,"ಉಡುಪಿಯಲ್ಲಿ ಕುಡಿಯುವ ನೀರಿನ ಸಮಸ್ಯೆ ,ಸಂಘ ಸಂಸ್ಥೆಗಳ ಜೊತೆಗೆ ಸಮಾಜ ಸೇವಕರ ನಿಸ್ವಾರ್ಥ ಸೇವೆ",3,
Namma Kudla News 24x7,Namma Kudla News 24x7,false,hd,2d,PT4M39S,true,rectangular,IN,ಮಂಗಳೂರು ನಗರದ ಆರ್ಯ ಸಮಾಜ ರಸ್ತೆಯಲ್ಲಿ ಕಾರ್ಯಚರಿಸುತ್ತಿರುವ ಕೃಷ್ಣ ಪ್ರಜ್ಞಾ ಸಂಘ...,ObEjOb3n80Y,2019-02-24T09:34:01.000Z,0,0,0,43,"ಮಂಗಳೂರು ನಗರದ ಆರ್ಯ ಸಮಾಜ ರಸ್ತೆಯಲ್ಲಿ,16ನೇ ವಾರ್ಷಿಕ ಕೃಷ್ಣ ಬಲರಾಮರ ರಥಯಾತ್ರೆ ನಿನ್ನೆ ನಡೆಯಿತು",0,
Muqtadir khan Gulbarga,Muqtadir khan Gulbarga,false,sd,2d,PT2M51S,false,rectangular,,Our School.,EnvYW3WekTw,2019-08-05T20:50:19.000Z,0,0,15,153,Government School Madina Colony Gulbarga,3,
DD Kisan,DD Kisan,false,sd,2d,PT4M3S,true,rectangular,IN,Mahila Kisan Awards - Grand Finale contestant Iravva S Mathpati from Karnataka.,fuU9qDpwlmU,2019-05-14T08:56:07.000Z,1,0,18,843,Mahila Kisan Awards - Grand Finale contestant Iravva S Mathpati from Karnataka,0,
ಉದ್ಯೋಗ ಮಿತ್ರ,ಉದ್ಯೋಗ ಮಿತ್ರ,false,hd,2d,PT7M21S,true,rectangular,,ಶಿಕ್ಷಕರ ಬೃಹತ್ ನೇಮಕಾತಿ ಅಧಿಸೂಚನೆ 10611 ಹುದ್ದೆಗಳ ಭಾರಿ ನೇಮಕಾತಿಗಾಗಿ ಅರ್ಜಿ ಆಹ್ವಾನ...,OtDA3fUM8Gk,2019-02-18T04:00:55.000Z,45,0,345,27061,ಕರ್ನಾಟಕ ರಾಜ್ಯ ಸಹಕಾರ ಇಲಾಖೆಯಲ್ಲಿ ಸರ್ಕಾರಿ ಹುದ್ದೆಗಳ ನೇಮಕಾತಿ ಅಧಿಸೂಚನೆ ಪ್ರಕಟ ನಿರುದ್ಯೋಗಿಗಳಿಗೆ ಬಂಪರ್ ಅವಕಾಶಗಳ,13,
Namma Kannada TV,Namma Kannada TV,false,hd,2d,PT2M25S,true,rectangular,IN,Watch ಜೇನು ನೊಣಗಳ ಸೆಕ್ಸ್ ರಹಸ್ಯ ಕೇಳಿದರೆ ಶಾಕ್ ಆಗುತ್ತೀರಾ | Honeybees Reproduction Life.,A7Iq04TLFp8,2019-01-25T05:52:41.000Z,1,0,12,746,ಜೇನು ನೊಣಗಳ ಸೆಕ್ಸ್ ರಹಸ್ಯ ಕೇಳಿದರೆ ಶಾಕ್ ಆಗುತ್ತೀರಾ | Honeybees Reproduction Life,1,
SLR Public Info,SLR Public Info,false,hd,2d,PT1M7S,true,rectangular,IN,"Hi Welcome To Our SLR Public Info YouTube Channel. Latest Government INFORMATION UPDATES, New Information, Public Helpful Information, Government ...",I63JJfVi6v4,2019-08-03T04:00:00.000Z,3,0,19,543,ಸ್ವಂತ ಮನೆ ಇಲ್ಲದವರಿಗೆ ರಾಜ್ಯ ಸರ್ಕಾರದಿಂದ ಬಂಪರ್ ಗಿಫ್ಟ್ || ಪ್ರತಿಯೊಬ್ಬರಿಗೂ ಉಚಿತವಾಗಿ ಮನೆ ನಿರ್ಮಾಣ,0,
Spandana TV l ಸ್ಪಂದನ ಟಿವಿ,Spandana TV l ಸ್ಪಂದನ ಟಿವಿ,false,sd,2d,PT44M49S,true,rectangular,IN,ಬರಿದಾಗುತ್ತಿದೆ ಅರಣ್ಯ ಸಂಪತ್ತು ಆಳಕ್ಕಿಳಿಯುತ್ತಿದೆ ಅಂತರ್ಜಲ ಅಪರೂಪದ ಜೀವಚರಗಳಿಗ...,ul-7uAap-sw,2017-06-17T11:38:30.000Z,0,0,5,706,Aranya Mattu Navu│ಅರಣ್ಯ ಮತ್ತು ನಾವು,0,
tv99 kannada,tv99 kannada,false,sd,2d,PT1M50S,false,rectangular,,ಇಂಡಿ ನ್ಯೂಸ್. 'ವಿದ್ಯಾರ್ಥಿಗಳ ಬಿಳ್ಕೋಡುವ ಸಮಾರಂಭ ಹಾಗೂ ಸಾಧಕರಿಗೆ ಸನ್ಮಾನ. ತಾಲೂಕಿ...,RhouVqGOQg4,2019-03-13T07:59:44.000Z,0,0,5,241,ವಿದ್ಯಾರ್ಥಿಗಳ ಬಿಳ್ಕೋಡುವ ಸಮಾರಂಭ ಹಾಗೂ ಸಾಧಕರಿಗೆ ಸನ್ಮಾನ.,0,
Vasanth Sogi,Vasanth Sogi,false,sd,2d,PT2M51S,false,rectangular,,,_LVkk1-snnA,2018-11-17T10:27:23.000Z,0,0,0,37,ಕಾವೇರಿ ಹತ್ತಿ,0,
TV5 Kannada,TV5 Kannada,false,hd,2d,PT7M1S,true,rectangular,IN,ಇಂದೇ ಸ್ಪೀಕರ್ ಅಭ್ಯರ್ಥಿ ಅಂತಿಮ..? | Karnataka Assembly Speaker | TV5 Kannada #politics #news #TV5Kannada ▻ Subscribe Now ...,OHzxGCoLtaM,2019-07-29T09:45:02.000Z,4,0,12,3144,ಯಾರಾಗ್ತಾರೆ ಸ್ಪೀಕರ್..? | Karnataka Assembly Speaker | TV5 Kannada,3,
Public TV | ಪಬ್ಲಿಕ್ ಟಿವಿ,Public TV | ಪಬ್ಲಿಕ್ ಟಿವಿ,false,hd,2d,PT6M58S,true,rectangular,IN,ಬೆಂಗಳೂರು: ಕಾಂಗ್ರೆಸ್ ಹಾಗೂ ಜೆಡಿಎಸ್ ಸಮ್ಮಿಶ್ರ ಸರ್ಕಾರದ ನೂತನ ಸಚಿವ ಸಂಪುಟದಲ್ಲಿ...,-v6aqMPSU_8,2018-12-24T13:59:14.000Z,2,0,19,4296,"ಸಚಿವ ಸ್ಥಾನವೂ ಇಲ್ಲ, ಈಗ ಪರಿಸರ ನಿಯಂತ್ರಣ ಮಂಡಳಿ ಅಧ್ಯಕ್ಷ ಪದವಿಗೂ ಕುತ್ತು",0,
Nammuru TV,Nammuru TV,false,sd,2d,PT3M20S,true,rectangular,IN,"ಚಿಕ್ಕಬಳ್ಳಾಪುರ/ಬಾಗೇಪಲ್ಲಿ:ತಾಲ್ಲೂಕಿನ ಗೂಳೂರು, ಮಾರ್ಗಾನುಕುಂಟೆ ಕಡೆಗಳಲ್ಲಿ ನಡೆಯ...",xIQze4N8y2E,2018-01-06T08:38:57.000Z,0,0,0,94,ತ್ರೈಮಾಸಿಕ ಕೆ ಡಿ ಪಿ ಸಭೆ...,0,
MHR TV,MHR TV,false,hd,2d,PT14M36S,false,rectangular,IN,ಮಳೆಯ ನೀರನ್ನು ನಮ್ಮ ನೆಲದಲ್ಲಿ ಹಿಡಿದಿಟ್ಟುಕೊಳ್ಳಬೇಕಾದರೆ ಏನೇನು ಮಾಡಬೇಕು..?? ಯಾವ್ಯ...,GKFZF3qTlPk,2019-04-01T05:16:06.000Z,0,0,14,456,ಮಳೆ ನೀರನ್ನು ನಮ್ಮ ಭೂಮಿಯಲ್ಲಿ ಹಿಡಿದಿಟ್ಟುಕೊಳ್ಳುವ ವಿಧಾನ,0,
Mourya academy for IAS & KAS,Mourya academy for IAS & KAS,false,hd,2d,PT12M,true,rectangular,IN,Mourya academy.,ErMkotz9wOE,2018-02-25T02:14:55.000Z,5,0,137,3182,1857 ರ ಸ್ವತಂತ್ರ ಸಂಗ್ರಾಮ part 1 by channamallu,13,
ಉದ್ಯೋಗ ರಾಜ್,ಉದ್ಯೋಗ ರಾಜ್,false,hd,2d,PT7M2S,true,rectangular,IN,Part 3/Various jobs in Karnataka/ಕರ್ನಾಟಕದಲ್ಲಿ ವಿವಿಧ ಉದ್ಯೋಗಗಳು/karnataka job news/ಕರ್ನಾಟಕದ ಉದ್ಯೋಗ ಸುದ್ದಿ/u...,iUh_d7suKvM,2018-12-24T13:34:16.000Z,15,0,144,8159,Various job in Karnataka/3/top 10 jobs/karnataka job news/ಉದ್ಯೋಗ ಸುದ್ದಿ/kannada jobs/udyoga raj,4,
RAGHU EDUCARE,RAGHU EDUCARE,false,hd,2d,PT4M37S,true,rectangular,IN,"ಏಪ್ರೀಲ-01 ರಿಂದ ಹೊಸ ನಿಯಮ ಎಲ್ಲೇಲ್ಲಿ, ಏನೇಲ್ಲಾ ಬದಲಾವಣೆಗಳು? * ಜಿಎಸ್‍ಟಿ ದರ ಶೇ 10 ಕ್ಕ...",KgIJptk0Y_Y,2019-04-01T09:42:10.000Z,1,0,30,907,"new rules after april 1|ಏಪ್ರೀಲ-01 ರಿಂದ ಹೊಸ ನಿಯಮ ಎಲ್ಲೇಲ್ಲಿ, ಏನೇಲ್ಲಾ ಬದಲಾವಣೆಗಳು?",11,
tv99 kannada,tv99 kannada,false,sd,2d,PT1M20S,true,rectangular,,"ಬಿ.ಎಸ್.ಸಿ.ಪದವಿ ಓದಿದರು ಸಿಗಲಿಲ್ಲ ನೌಕರಿ , ಇತ ಪ್ರಸಿದ್ದ ಗಾಯಕ..ಹೌದು. ವಿಜಯಪುರ ಜಿಲ್...",_mUihR8_jDc,2019-06-17T09:36:56.000Z,0,0,0,7,"ಬಿ.ಎಸ್.ಸಿ.ಪದವಿ ಓದಿದರು ಸಿಗಲಿಲ್ಲ ನೌಕರಿ , ಇತ ಪ್ರಸಿದ್ದ ಗಾಯಕ",0,
Nairutya NEWS,Nairutya NEWS,false,hd,2d,PT5M15S,true,rectangular,IN,ವಿದ್ಯಾರ್ಥಿಗಳಿಗೆ ವಿನೂತನ ವೈಜ್ಞಾನಿಕ ಬೋಧನಾ ಮಾದರಿಗಳು .. | Nairutya Tv Please Log on to: http://www.fidelitusgall...,WO5b6m20OnI,2019-01-09T10:40:10.000Z,0,0,25,561,ವಿದ್ಯಾರ್ಥಿಗಳಿಗೆ ವಿನೂತನ ವೈಜ್ಞಾನಿಕ  ಬೋಧನಾ ಮಾದರಿಗಳು .. | Nairutya Tv,4,
ಕನ್ನಡದಲ್ಲಿ ಮಾಹಿತಿ Kannadadalli Mahiti,ಕನ್ನಡದಲ್ಲಿ ಮಾಹಿತಿ Kannadadalli Mahiti,false,hd,2d,PT5M8S,false,rectangular,IN,__ ಸ್ನೇಹಿತರೇ ಈ ವಿಡಿಯೋ ನಿಮಗೆ ಇಷ್ಟವಾದಲ್ಲಿ ಲೈಕ್ ಮಾಡಿ ಕಾಮೆಂಟ್ ಮಾಡಿ ಹಾಗೂ ನಿಮ್ಮ...,XR-YUHtXo_E,2018-10-04T12:53:24.000Z,3,0,12,1914,Big Shock ಇನ್ಮುಂದೆ ಈ LIC ಪಾಲಸಿ ರದ್ದು | ನಿಮ್ಮ ಪಾಲಸಿ ಈ list ಲಿ ಇದೇನಾ ಈಗಲೇ ಚೇಕ್ ಮಾಡ್ಕೋಳ್ಳಿ,2,
ಜನ ಕಲ್ಯಾಣ // Jana Kalyana,ಜನ ಕಲ್ಯಾಣ // Jana Kalyana,false,hd,2d,PT2M37S,true,rectangular,IN,Epfo#assistant2019. ಪದವೀಧರರಿಗೆ ಶುಭ ಸುದ್ದಿ.// EPFO ಸಹಾಯಕರ ಹುದ್ದೆಗಳಿಗೆ ಅರ್ಜಿ.// EPFO ನೇಮಕಾತಿ 2019.//...,8oec8A6bMJI,2019-05-31T18:35:26.000Z,2,0,14,1626,ಪದವೀಧರರಿಗೆ ಶುಭ ಸುದ್ದಿ.// EPFO ಸಹಾಯಕರ ಹುದ್ದೆಗಳಿಗೆ ಅರ್ಜಿ.// EPFO ನೇಮಕಾತಿ 2019.// jana Kalyana,3,
B news nation Kannada,B news nation Kannada,false,hd,2d,PT3M7S,true,rectangular,,ತಾಂಬಾ ಗ್ರಾಮದಲ್ಲಿ ಶ್ರೀ ಭಗತಸಿಂಗ್ ಸೇವಾ ಸಮಿತಿಯವರಿಂದ ಸ್ವತಂತ್ರ ದಿನೊತ್ಸೊವದ ಪ್ರ...,5bRb4WvOQ2I,2018-08-13T13:24:06.000Z,0,0,3,168,ಸ್ವಾತಂತ್ರೋತ್ಸವದ ಅಂಗವಾಗಿ ರಸಪ್ರಶ್ನೆ ಕಾರ್ಯಕ್ರಮ..ಬಹುಮಾನ ವಿತರಣೆ....! 13-08-2018,0,
Rohit R,Rohit R,false,sd,2d,PT21M35S,false,rectangular,,"ಅಕ್ಟೋಬರ್ ೧೫, ೨೦೦೬ ರಂದು ಮುಂಬಯಿಯ ಕರ್ನಾಟಕ ಸಂಘದಲ್ಲಿ ನಡೆದ ಮಾಹಿತಿ ತಂತ್ರಜ್ಞಾನ...",fRu-3k4gOyk,2018-09-07T14:27:53.000Z,1,0,2,175,ಸೃಜನಶೀಲತೆಯ ಅಭಿವ್ಯಕ್ತಿಗೆ ಮಾಹಿತಿ ತಂತ್ರಜ್ಞಾನ ಸಲಕರಣೆಗಳ ಬಳಕೆ - ಮಿತ್ರಾ ವೆಂಕಟ್ರಾಜ್,0,
PRAGATHI TV OFFICIAL,PRAGATHI TV OFFICIAL,false,sd,2d,PT1M21S,true,rectangular,IN,ಜಲಶಕ್ತಿ ಅಭಿಯಾನದ ಅಧಿಕಾರಿ ಆರ್.ಕೆ.ಚಂಡೋಲಿರಿಂದ ವೀಕ್ಷಣೆ #madhugiri#water#pragathitv.,s8YJ3G1PBOM,2019-07-16T13:17:48.000Z,0,0,0,13,ಜಲಶಕ್ತಿ ಅಭಿಯಾನದ ಅಧಿಕಾರಿ ಆರ್.ಕೆ.ಚಂಡೋಲಿರಿಂದ ವೀಕ್ಷಣೆ|Water power campaign 2019,0,
RAGHU EDUCARE,RAGHU EDUCARE,false,hd,2d,PT4M7S,true,rectangular,IN,ಯಾವುದೇ ಕೂಲಿ ಕೆಲಸ ಮಾಡುವ ಕಾರ್ಮಿಕರಿಗಾಗಿ ವೇತನ ನಿಗದಿ ಹಾಗೂ ಪ್ರತಿ ತಿಂಗಳು ಪಿಂಚಣಿ...,TCWg-bw3uqU,2019-02-16T01:00:03.000Z,2,0,47,1400,Pradhan Mantri Shram Yogi Mandhan Yojana||ಪ್ರಧಾನ ಮಂತ್ರಿ ಶ್ರಮಯೋಗಿ ಮಾನಧನ ಯೋಜನೆ,9,
Dighvijay 24X7 News,Dighvijay 24X7 News,false,hd,2d,PT6M38S,true,rectangular,IN,Dighvijay News - Farmer Struggling to Get Masoor Dhal Price in Market ▻http://www.dighvijaytv.in ▻https://www.facebook.com/DighvijayNews/ ▻click the link to ...,POc7cgZ7-tM,2018-06-02T08:25:57.000Z,0,0,1,123,Farmer Struggling to Get Masoor Dhal Price in Market । ರೈತರ ತೊಗರಿ ಖರೀದಿ ಮಾಡಿದ ಹಣ ಬಾಕಿ,0,
Prajavani | ಪ್ರಜಾವಾಣಿ,Prajavani | ಪ್ರಜಾವಾಣಿ,false,sd,2d,PT1M7S,true,rectangular,,ಬೆಂಗಳೂರಿನ ಪಂತರಪಾಳ್ಯದ ಪ್ರಮೋದ್‌ ಬಡಾವಣೆಯಲ್ಲಿರುವ ಯೋಗೀಶ್‌ ತಮ್ಮ ನಿವೇಶನದ ಸುಮಾ...,WY8ryvS6Nm0,2016-06-06T12:09:21.000Z,0,0,1,310,yogish final,0,
Dighvijay 24X7 News,Dighvijay 24X7 News,false,hd,2d,PT4M11S,false,rectangular,IN,Dighvijay News - Farmers Protest Mango prices crash ▻http://www.dighvijaytv.in ▻https://www.facebook.com/DighvijayNews/ ▻click the link to dighvijay news ...,XrOsozoneDc,2018-07-09T09:10:27.000Z,0,0,0,173,Farmers Protest Mango prices crash | ಮಾವು ಬೆಳೆಗೆ ಸೂಕ್ತ ಬೆಂಬಲ ಬೆಲೆ ನೀಡುವಂತೆ ಆಗ್ರಹ,0,
RAGHU EDUCARE,RAGHU EDUCARE,false,hd,2d,PT4M32S,true,rectangular,IN,ವೆಬ್‍ಸೈಟ್ ಲಿಂಕ್: http://schooleducation.kar.nic.in/ ನೆರೆಹೊರೆ ಶಾಲೆಗಳ ಪಟ್ಟಿಗೆ ಆಬ್ಜೆಕ್ಷನ್ ಸಲ್ಲಿಸ...,MgUvNpXfvow,2019-03-09T08:21:00.000Z,4,0,98,5665,RTE 2019||ONLINE APPLICATION||ನೆರೆಹೊರೆ ಶಾಲೆಗಳ ಪಟ್ಟಿಗೆ ಆಬ್ಜೆಕ್ಷನ್ ಸಲ್ಲಿಸುವುದು ಹೇಗೆ?,26,
PRAGATHI TV OFFICIAL,PRAGATHI TV OFFICIAL,false,sd,2d,PT43M42S,true,rectangular,IN,MANEPATA #SSLCMATHSEP01 #PRAGATHITV.,MNQbRN8pa-U,2019-02-12T06:52:00.000Z,0,0,16,1122,MANEPATA SSLC MATHS EP 01 PRAGATHI TV,0,
EI-Kannada,EI-Kannada,false,sd,2d,PT1M18S,false,rectangular,,ಬೆಂಗಳೂರು: ವಿದೇಶಗಳಿಂದ ಆಮದು ಮಾಡಿಕೊಳ್ಳಲಾಗುತ್ತಿರುವ ಪೆಟ್ರೋಲ್​ ಮತ್ತು ಡೀಸೆಲ್​...,lRBirKBi2lg,2018-11-29T17:13:57.000Z,0,0,0,34,ದೇಶದ ಕೃಷಿಕರ ಆದಾಯಕ್ಕೆ ಜೈವಿಕ ಇಂಧನ: ಭವಿಷ್ಯದ ಕ್ರಾಂತಿ,0,
Raman Tutorial For G.K,Raman Tutorial For G.K,false,hd,2d,PT11M40S,true,rectangular,IN,,c65QuD_nNSg,2019-04-11T02:38:38.000Z,5,0,114,2975,6-8 CET English : Dairy Entry,7,
Pushpalata CS,Pushpalata CS,false,sd,2d,PT11M36S,false,rectangular,,,MUS0cOkDpTw,2019-07-05T15:37:53.000Z,0,0,3,115,B.Ed  ಅಣು  ಬೋಧನೆ (ವಿವರಣಾ ಕೌಶಲ್ಯ),1,
AVR PAPER PLATE MAKING MACHINES IN INDIA,AVR PAPER PLATE MAKING MACHINES IN INDIA,false,sd,2d,PT2M29S,true,rectangular,IN,"GET IN TOUCH WITH OUR BEST SUPPORT TEAM Kalyani Paper Products A.V. Reddy(Admin Manager) C-7, Opp to Ajantha Hotel, IDA Uppal, Hyderabad ...",S_Xka4QnZ4g,2019-06-25T06:02:44.000Z,0,0,1,159,ಕರೆ  86 888 67 011 ರಾವತ್ ಗಂಗವತಿ ಹಾಸೆಪೆಟ್ ಮ್ಯಾನ್ವಿ ಕರ್ನಾಟಕದಲ್ಲಿ ಪೇಪರ್ ಪ್ಲೇಟ್ ಯಂತ್ರ,,
GK Kannada,GK Kannada,false,hd,2d,PT4M58S,true,rectangular,IN,ಕರ್ನಾಟಕದಲ್ಲಿರುವ ಪ್ರಮುಖ ನೀರಾವರಿ ಯೋಜನೆಗಳು.,YYEawztk3dI,2018-12-14T13:48:11.000Z,0,0,7,247,ಕರ್ನಾಟಕದಲ್ಲಿರುವ ಪ್ರಮುಖ ನೀರಾವರಿ ಯೋಜನೆಗಳು,3,
RAGHU EDUCARE,RAGHU EDUCARE,false,hd,2d,PT3M28S,true,rectangular,IN,"ನಿಮ್ಮ ಮತ ನಿಮ್ಮ ಹಕ್ಕು, ಎದ್ದೇಳ್ರಲ.. ಓಟು ಹಾಕಿ ಓಟು ಹಾಕಿದವರ ಖುಷಿ ನೋಡ್ರೀ... ಎಷ್ಟು...",taw3ZOuwCSw,2019-04-18T12:14:10.000Z,0,0,16,270,"ನಿಮ್ಮ ಮತ ನಿಮ್ಮ ಹಕ್ಕು,ಓಟು ಹಾಕಿ|ಓಟು ಹಾಕಿದವರ ಖುಷಿ ನೋಡ್ರೀ... ಎಷ್ಟು ಚೆಂದ ಪೋಜ್ ಕೊಟ್ಟರ ನೋಡ್ರೀ",6,
PRASHANT classes,PRASHANT Prashant,false,sd,2d,PT10M27S,true,rectangular,IN,ಕೇಂದ್ರ ಸರ್ಕಾರದ 15 ಪ್ರಮುಖ ಯೋಜನೆಗಳು.,6ot37ZSbmio,2018-06-20T16:43:21.000Z,8,0,115,6525,ಕೇಂದ್ರ ಸರ್ಕಾರದ 15 ಪ್ರಮುಖ ಯೋಜನೆಗಳು,2,
SumukhaTv Sirsi,SumukhaTv Sirsi,false,sd,2d,PT7M29S,true,rectangular,,"ಅಡಿಕೆ ಬೆಳೆಗೆ ಬೆಲೆಯಿಲ್ಲ, ವಿದೇಶಿ ಅಡಿಕೆ ಆಮದಿಗೆ ಕೊನೆಯಿಲ್ಲ . ಮಳೆ ಕಣ್ಣು ಮುಚ್ಚಾಲ...",uDTqlvQ6GUo,2019-07-01T16:33:20.000Z,1,0,11,519,"ಅಡಿಕೆ ಬೆಳೆಗೆ ಬೆಲೆಯಿಲ್ಲ, ವಿದೇಶಿ ಅಡಿಕೆ ಆಮದಿಗೆ ಕೊನೆಯಿಲ್ಲ..!!!",0,
Kannada real fact,Kannada real fact,false,hd,2d,PT2M6S,true,rectangular,IN,"Welcome to kannada real fact, ಭಾರತದ ಪ್ರಮುಖ ಅಣುಸ್ಥಾವರ ಇನ್ಸ್ಟಿಟ್ಯೂಟ್ಗಳು, ಈ ಚಾನಲ್ ನಲ್ಲಿ ಭಾರತ...",pbHA4yWwAPc,2018-05-24T00:58:02.000Z,0,0,20,469,"ಭಾರತದ ಪ್ರಮುಖ ಅಣುಸ್ಥಾವರ ಇನ್ಸ್ಟಿಟ್ಯೂಟ್ಗಳು,",2,
Gopal Natekar,Gopal Natekar,false,sd,2d,PT1M5S,false,rectangular,,ನಮ್ಮ ಅಣ್ಣನ ಒಂದು ದೃಶ್ಯ.,Qg7V3H25yKQ,2017-12-13T04:10:54.000Z,0,0,1,258,ನಮ್ಮ ಹೊಲದಲ್ಲಿ ನಮ್ಮ ಊರು ಕಡೆ  ತೋಗರಿ ಕೋಯುವ ಒಂದು ದೃಶ್ಯ,0,
Sakshi TV Kannada,Sakshi TV Kannada,false,hd,2d,PT6M5S,true,rectangular,,,3dS-EGcCIWw,2018-10-13T14:33:56.000Z,0,0,9,387,DAVANAGERE DASARA GOMBE | VINOBANAGARA | ದಾವಣಗೆರೆ ವಿನೋಬನಗರ ದಸರಾ ಗೊಂಬೆ ಪ್ರದರ್ಶನ,0,
InNews Kannada,InNews Kannada,false,sd,2d,PT1M14S,true,rectangular,IN,,gdKCYeZioQs,2018-09-29T08:04:59.000Z,0,0,5,1512,ಖಾನಾಪುರ ಪೊಲೀಸ್ ಟ್ರೈನಿಂಗ್ ಸ್ಕೂಲ್ ನಲ್ಲಿ  ವಿದ್ಯುತ್ ಸ್ಪರ್ಶದಿಂದ ಪೊಲೀಸ್ ಪೇದೆ ಸಾವು,0,
Tulasivana - Gift To The Next Generation,Tulasivana - Gift To The Next Generation,false,hd,2d,PT2M20S,false,rectangular,IN,TerraceGarden #Gardening #InKannada Follow me on instagram to know more https://www.instagram.com/ambika_subrahmanya/ ಗಿಡವನ್ನು ಎಲ್ಲರೂ ...,PTtV9lXEJoE,2019-01-18T11:27:59.000Z,0,0,13,462,ತಾರಸಿ ತೋಟ - ಗಿಡದ ಭಾಗಗಳು,2,
Namma Kudla News 24x7,Namma Kudla News 24x7,false,sd,2d,PT44M14S,true,rectangular,IN,"ಸಹಕಾರ ರತ್ನ ಡಾ. ಎಂ.ಎನ್ ರಾಜೇಂದ್ರ ಕುಮಾರ್ ,ದ.ಕ.ಜಿಲ್ಲಾ ಕೇಂದ್ರ ಸಹಕಾರಿ ಬ್ಯಾಂಕಿನ...",WIdEgdgVkTQ,2019-01-18T10:28:41.000Z,1,0,3,292,ಸಹಕಾರ ರತ್ನ  ಡಾ|ಎಂ.ಎನ್. ರಾಜೇಂದ್ರ ಕುಮಾರ್  ಎಸ್‍ಸಿಡಿಸಿಸಿ ಬ್ಯಾಂಕ್,0,
KVK Chitradurga,KVK Chitradurga,false,hd,2d,PT1M32S,false,rectangular,,"Dr. Rudragouda , Scientist (Agronomy) taking the opinion of the farmer Mr. Prakash,shidlayanakote , Hiriyur, chitradurga on Redgarm variety BSMR-736.",QPUKmsCkp3s,2018-10-16T17:17:39.000Z,0,0,27,3951,BSMR-736 Redgram variety,0,
ಉದ್ಯೋಗ ರಾಜ್,ಉದ್ಯೋಗ ರಾಜ್,false,hd,2d,PT7M5S,true,rectangular,IN,Part 1/Various jobs in Karnataka/ಕರ್ನಾಟಕದಲ್ಲಿ ವಿವಿಧ ಉದ್ಯೋಗಗಳು/karnataka job news/ಕರ್ನಾಟಕದ ಉದ್ಯೋಗ ಸುದ್ದಿ/u...,x0aCgS7Z5Kg,2018-09-20T14:00:18.000Z,23,0,249,15049,Various job in Karnataka/1/top 10 news/karnataka job news/ಉದ್ಯೋಗ ಸುದ್ದಿ/kannada jobs/udyoga raj,14,
Tv9 Kannada,Tv9 Kannada,false,sd,2d,PT50M41S,true,rectangular,IN,"TV9 Discussion: `ಮರ ಸೂತಕವೇ..? ಮರ ದೋಷವೇ..?`: Trees Being Chopped Down Due To 'Vaastu' in Bengaluru - (02-12-2017) - Full...., ▻ Download TV9 ...",2X9hRBg9kzE,2017-12-02T08:17:57.000Z,2,0,3,2261,`Mara Soothakave..Doshave`: Trees Being Chopped Down Due To &#39;Vaastu&#39; in Bengaluru,0,
competitive world ಸ್ಪರ್ಧಾ ಜಗತ್ತು,competitive world ಸ್ಪರ್ಧಾ ಜಗತ್ತು,false,hd,2d,PT9M5S,false,rectangular,IN,"೫೦೦,೦೦೦ ವರ್ಷಗಳಿಗಿಂತ ಹಳೆಯ ಹೋಮೊ ಎರೆಕ್ಟಸ್ ಜಾತಿಯ ಪೂರ್ವಾಮನವರ ಪಳೆಯುಳಿಕೆಗಳು...",mY6lyNknAM0,2019-07-04T16:07:25.000Z,,0,,69,ಪ್ರಾಚೀನ ಭಾರತ- prachina bharatha kannada,,
chanakya,chanakya,false,hd,2d,PT4M19S,false,rectangular,IN,ನಮಸ್ಕಾರ ನನ್ನ ಚಾನಲ್ಗೆ ಆತ್ಮೀಯ ಸ್ವಾಗತ ನಾನು ನಿಮಗೆ ಗ್ರಾಮ ಪಂಚಾಯತ ಪ್ರಮುಖ ಕಾರ್ಯಗ...,mONChBQz7_E,2019-05-06T04:43:25.000Z,0,0,20,115,ಗ್ರಾಮಪಂಚಾಯತಿಯ ಕಡ್ಡಾಯವಾದ ಕಾರ್ಯಗಳು,2,
Udayavani,Udayavani,false,hd,2d,PT16M18S,true,rectangular,IN,ಆಧುನಿಕ ತಂತ್ರಜ್ಞಾನ ಹಿರಿ-ಕಿರಿಯರ ನಡುವಿನ ಅಂತರವನ್ನು ಹೆಚ್ಚಾಗಿಸಿದೆಯೇ. ಜನರೇಷನ್...,WXXr_nelfQM,2018-12-09T14:07:17.000Z,0,0,3,88,‘ಕಾಲ ಕೆಟ್ಟಿದೆಯೇ ಅಥವಾ ನಾವು ಯೋಚಿಸುವ ಶೈಲಿ ಬದಲಾಗಿದೆಯೇ…?’ Dr. Nagesh Pai Interview| UDAYAVANI,0,
Kahale News / ಕಹಳೆ ನ್ಯೂಸ್,Kahale News / ಕಹಳೆ ನ್ಯೂಸ್,false,hd,2d,PT1M3S,true,rectangular,IN,ಸಿಎಂ ಪಟ್ಟಕ್ಕಾಗಿ ಬಿಎಸ್‍ವೈ ಮಹಾರುದ್ರಯಾಗ ಗವಿಗಂಗಾಧರ ದೇವಾಲಯದಲ್ಲಿ ಗ್ರಹಣ ದೋಷ...,iVXt-NvAPK8,2019-07-17T11:15:02.000Z,0,0,1,20,ಸಿಎಂ ಪಟ್ಟಕ್ಕಾಗಿ ಬಿಎಸ್‍ವೈ ಮಹಾರುದ್ರಯಾಗ - ಕಹಳೆ ನ್ಯೂಸ್,0,
InformationCorner IC,InformationCorner IC,false,hd,2d,PT1M43S,false,rectangular,,ಮರಗಳ ಬಗ್ಗೆ ಮಾಹಿತಿ.,N_05ZxepJiA,2018-11-07T11:18:04.000Z,0,0,3,273,ಮರಗಳ ಬಗ್ಗೆ ನಿಮಗೆ ಗೊತ್ತೇ???,0,
Btv News Ɩ ಬಿಟಿವಿ ನ್ಯೂಸ್,Btv News Ɩ ಬಿಟಿವಿ ನ್ಯೂಸ್,false,sd,2d,PT27S,true,rectangular,IN,Btv - Blast materials found in empty place in raichur Subscribe / Follows on our offical Channels: https://www.facebook.com/btvnewslive/ ...,p1Y3klHjx6Q,2017-05-09T11:50:53.000Z,0,0,1,624,Blast materials found in empty place in raichur,0,
Nisarga Mane Sirsi,Nisarga Mane Sirsi,false,sd,2d,PT29S,true,rectangular,IN,For more details contact :9448729434.,C_VHRCPjU0o,2019-06-03T17:48:24.000Z,0,0,1,38,Asharani From Davangere Got Relief From Back Pain After Getting Treated At Nisarga Mane,0,
Ramesh Competitive Classes,Ramesh Competitive Classes,false,sd,2d,PT5M11S,true,rectangular,IN,"ನಮಸ್ಕಾರ ಗೆಳೆಯರೇ, ಈ ವಿಡಿಯೋದಲ್ಲಿ ನೀವು ಭಾರತದ ಮಳೆಯ ಹಂಚಿಕೆಯ ಬಗ್ಗೆ ತಿಳಿಯುವಿರಿ....",QYpY-22svS0,2017-08-15T17:17:48.000Z,0,0,42,1856,ಭಾರತದಲ್ಲಿ ಮಳೆಯ ಹಂಚಿಕೆ,2,
Helping Hand,Helping Hand,false,hd,2d,PT11M2S,true,rectangular,IN,list special for Karnataka exam: https://youtu.be/r_vGxDPde-Y =December current affairs https://youtu.be/wOfmiWzkyiw = last 5 months institute heads |August to ...,-qfYRhPovqA,2019-01-11T11:31:24.000Z,1,0,37,661,Kannada current affairs 2018|last 5 month environment 2018|Environment Gk in Kannada 2019,4,
Raman Tutorial For G.K,Raman Tutorial For G.K,false,hd,2d,PT17M12S,true,rectangular,IN,,-qXdx7TdJe4,2019-06-24T10:23:08.000Z,1,0,107,2206,PDO ಪರೀಕ್ಷಾ ತಯಾರಿ:  ಭಾರತದ ಪ್ರಮುಖ ಬೆಳೆಗಳ ವೈಜ್ಞಾನಿಕ ಹೆಸರುಗಳು,18,
Joyti Chouhan,Joyti Chouhan,false,sd,2d,PT2M57S,false,rectangular,,Mirch.,N6KcBkSwW2g,2017-12-18T07:28:58.000Z,0,0,8,191,Dharni dhara jevik khad results,1,
Nairutya NEWS,Nairutya NEWS,false,hd,2d,PT1M33S,true,rectangular,IN,ಸುಲಭ ವಿಧಾನದಲ್ಲಿ ವಿದ್ಯುತ್ ಉತ್ಪಾದನೆ ಹೀಗೂ ಮಾಡಬಹುದು.. | Nairutya Tv Please Log on to: http://www.fidelitusgallery....,qeVGjSVvs2o,2019-01-09T11:15:27.000Z,0,0,5,125,ಸುಲಭ ವಿಧಾನದಲ್ಲಿ ವಿದ್ಯುತ್ ಉತ್ಪಾದನೆ ಹೀಗೂ ಮಾಡಬಹುದು.. | Nairutya Tv,0,
ಉದ್ಯೋಗ ರಾಜ್,ಉದ್ಯೋಗ ರಾಜ್,false,hd,2d,PT5M2S,true,rectangular,IN,ಜಿಲ್ಲಾ ಮತ್ತು ಸತ್ರ ನ್ಯಾಯಾಧೀಶರ ಕಚೇರಿ/ರಾಮನಗರ/District & Sessions #udyogaraj Court/Ramanagarm/udyoga raj Notification Link...,9zQwjKU8Mrw,2018-05-04T12:32:01.000Z,1,0,10,382,ಜಿಲ್ಲಾ ಮತ್ತು ಸತ್ರ ನ್ಯಾಯಾಧೀಶರ ಕಚೇರಿ/ರಾಮನಗರ/District Court/Ramanagarm/udyoga raj/udyoga varte,0,
Rashmi Patil Ass.teacher,Rashmi Patil Ass.teacher,false,sd,2d,PT1M17S,false,rectangular,,1ತರಗತಿ ಕುಮಾರಿ ಅಮೃತ. GLPS KEREBUDUR CAMP.,t0yVz4Krejg,2019-03-16T13:01:07.000Z,0,0,7,96,Nali kali. ಕರ್ನಾಟಕದ ಜಿಲ್ಲೆಗಳು,0,
DD Chandana,DD Chandana,false,sd,2d,PT8M39S,true,rectangular,IN,Interesting Tips on Millet cultivation-Govina jola cultivation in kannada.,QQfVMKXSl-8,2018-07-23T06:09:36.000Z,0,0,13,877,Interesting Tips on Millet  cultivation-Govina jola krushi ಗೋವಿನ ಜೋಳ,0,
Suvarna News | ಸುವರ್ಣ ನ್ಯೂಸ್,Suvarna News | ಸುವರ್ಣ ನ್ಯೂಸ್,false,sd,2d,PT5M6S,true,rectangular,IN,SUVARNA NEWS - CRIME REPORTER - 6TH JULY - SEG_3.,_48YbwoctdY,2011-07-06T17:38:51.000Z,1,0,4,2287,SUVARNA NEWS - CRIME REPORTER - 6TH JULY - SEG_3,0,
DK Shivakumar,DK Shivakumar,false,hd,2d,PT5M46S,false,rectangular,IN,ಪ್ರಗತಿಯ ಪಥದಲ್ಲಿ ಇಂಧನ ಇಲಾಖೆ ತುಮಕೂರು ಜಿಲ್ಲೆ ಪಾವಗಡ ತಾಲೂಕಿನ 13000 ಎಕರೆ ಪ್ರದೇಶದಲ...,DhOzuPHp7rI,2017-11-17T05:10:12.000Z,0,0,7,229,"ಪ್ರಗತಿಯ ಪಥದಲ್ಲಿ ಇಂಧನ ಇಲಾಖೆ ತುಮಕೂರು ಜಿಲ್ಲೆ ಪಾವಗಡ ತಾಲೂಕಿನ 13,000 ಎಕರೆ ಪ್ರದೇಶದಲ್ಲಿ ವಿಶ್ವದಲ್ಲೇ ವಿಸ್ತಾರವಾ",3,
UTV NEWS BIJAPUR,UTV NEWS BIJAPUR,false,hd,2d,PT4M11S,true,rectangular,IN,,Z0-UCWCzv6g,2018-12-24T11:36:17.000Z,1,0,7,228,ಇಂಡಿ ನ್ಯೂಸ್.ತಾಲೂಕ ಮಟ್ಟದ ರಸಪ್ರಶ್ನೆ ಕಾರ್ಯಕ್ರಮವನ್ನು  ಗುರುಭವನದಲ್ಲಿ ಜರುಗಿತು.,0,
Nairutya NEWS,Nairutya NEWS,false,hd,2d,PT3M15S,true,rectangular,IN,ಮಣ್ಣಿನ ವೈವಿಧ್ಯತೆಯ ಬಗ್ಗೆ ಸರಳ ಪ್ರಯೋಗ.. | Nairutya Tv Please Log on to: http://www.fidelitusgallery.com http://www.fidelituscorp.com...,fD4jMZG_-ag,2019-01-09T09:29:05.000Z,0,0,5,80,ಮಣ್ಣಿನ ವೈವಿಧ್ಯತೆಯ ಬಗ್ಗೆ ಸರಳ ಪ್ರಯೋಗ.. | Nairutya Tv,0,
ಸಾಮಾನ್ಯ ಮಾಹಿತಿ ನಿಮ್ಮ ಕೈಯಲ್ಲಿ,ಸಾಮಾನ್ಯ ಮಾಹಿತಿ ನಿಮ್ಮ ಕೈಯಲ್ಲಿ,false,hd,2d,PT2M9S,true,rectangular,IN,ಪ್ರಾಥಮಿಕ ಶಾಲಾ ಶಿಕ್ಷಕರಾಗಲು ಎನ್ ಸಿ ಟಿ ಇ(NCTE)ನಿಂದ ಹೂಸ ನಿಯಮಜಾರಿ. ಬಿ ಇಡಿ ಹಾಗು ಟಿಇಟ...,YrnFXKmF-jA,2018-07-16T12:04:45.000Z,138,0,752,162137,ಪ್ರಾಥಮಿಕ ಶಾಲಾ ಶಿಕ್ಷಕರಾಗಲು ಎನ್ ಸಿ ಟಿ ಇ(NCTE)ನಿಂದ ಹೂಸ ನಿಯಮಜಾರಿ.,128,
Nammuru TV,Nammuru TV,false,sd,2d,PT7M2S,true,rectangular,IN,ಬಳ್ಳಾರಿ/ಹೊಸಪೇಟೆ:ಬಡ ಮಧ್ಯಮ ವರ್ಗದವರು ಸ್ವಾವಲಂಬಿ ಜೀವನ ನಡೆಸಲು ಅಗತ್ಯ ಆರ್ಥಿಕ ನೆರ...,Hzpr6PisJ_I,2017-11-20T08:57:11.000Z,0,0,1,139,ಸಹಕಾರಿಯ ಸಹಕಾರದೊಂದಿಗೆ ಅಭಿವೃದ್ಧಿ ಸಾಧಿಸಿ.,0,
ಕನ್ನಡ ವೇದಿಕೆ Kannada Dais,ಕನ್ನಡ ವೇದಿಕೆ Kannada Dais,false,hd,2d,PT4M50S,false,rectangular,IN,ಅಜಂತಾ ವಸ್ತು ಪ್ರದರ್ಶನ DJ Amusement First Time in Dharwad Robot Aminals Exhibition Kannada Dais Subscribe for more videos...... Keep supporting ...,qHlHKVQ3604,2018-04-11T18:53:40.000Z,1,0,13,1412,ಅಜಂತಾ ವಸ್ತು ಪ್ರದರ್ಶನ DJ Amusement First Time in Dharwad Robot Aminals Exhibition Kannada Dais,0,
ETV Bharat Kannada,ETV Bharat Kannada,false,sd,2d,PT1M23S,false,rectangular,,"ಕೋಲಾರ: ಹಳ್ಳಿಗಳಲ್ಲಿ ಬೆಂಬಿಡದೆ ಕಾಡುತ್ತಿರುವ ನೀರಿನ ಸಮಸ್ಯೆ, ನೀರಿನ ಮಿತ ಬಳಕೆ ಅರಿವ...",abQ0qqGFSns,2017-09-19T01:07:10.000Z,0,0,2,44,ನೀರಿನ ಸಮಸ್ಯೆ ನೀಗಿಸಲು ಹಳ್ಳಿಯಲ್ಲಿ ಹೀಗೊಂದು ಮಾದರಿ ಜಲ ಪ್ರಯೋಗ!,0,
V4 News,V4 News,false,hd,2d,PT4M57S,false,rectangular,IN,For More News & Updates Keep Watching V4news 24x7 Or You May Log into v4news.com & facebook.com/V4news.,gcFkydJ7RnE,2018-02-02T05:59:00.000Z,0,0,3,273,Demand increases for Kundapura Hemmadi Sevanthige in Coastal region.,0,
karibasappa mg,karibasappa mg,false,hd,2d,PT1M33S,false,rectangular,IN,,ru59Hlv6y8E,2018-03-18T15:04:48.000Z,0,0,5,392,Solar  trap explain GM siddeshwara mp,0,
Director of Extension UAS B,Director of Extension UAS B,false,sd,2d,PT1M15S,false,rectangular,,biofuel market.,dsATJrdqwyg,2018-02-05T04:29:31.000Z,0,0,3,317,02  ಜೈವಿಕ ಇಂಧನದ ಮಾರುಕಟ್ಟೆ,0,
Raman Tutorial For G.K,Raman Tutorial For G.K,false,hd,2d,PT14M9S,true,rectangular,IN,ಆಂದ್ರ ಪ್ರದೇಶ ರಾಜಧಾನಿ ಅಮರಾವತಿ ತೆಲಂಗಾಣ Hyderbad But Now both states share Hyderbad for some years as the capital.,hwM7uMbU76U,2018-02-17T15:04:47.000Z,28,0,382,18827,ಭಾರತದ ರಾಜ್ಯಗಳು ಹಾಗೂ ಅವುಗಳ ರಾಜಧಾನಿಗಳು &amp; ಕೇಂದ್ರಾಡಳಿತ ಪ್ರದೇಶಗಳು,14,
Kannada Plus,Kannada Plus,false,sd,2d,PT3M23S,true,rectangular,IN,ಈ ಆಹಾರವನ್ನು ಸೇವಿಸಿದರೆ ನಮ್ಮ ಕೂದಲು ಉದ್ದವಾಗಿ ಬೆಳೆಯುವುದು ಎಣ್ಣೆ ಮಾತ್ರ ಹಚ್ಚಿದ...,AkEO9LIbBOg,2019-01-10T13:50:37.000Z,1,0,5,1112,ಕೂದಲು ಉದ್ದವಾಗಿ ಬೆಳೆಯಬೇಕಾದರೆ ಈ ಆಹಾರವನ್ನು ಸೇವಿಸಿ /growing long hair,5,
TV5 Kannada,TV5 Kannada,false,hd,2d,PT10M52S,true,rectangular,IN,"ಆಲದ ಆರೈಕೆ TV5 Kannada - News You can trust. TV5 Kannada now captures Karnataka every inch and every second standing by the land and its pride, ...",AZHNrPOY9AA,2018-04-22T10:41:43.000Z,0,0,1,350,ಆಲದ ಆರೈಕೆ ...!  | TV5 Kannada,0,
MNR NEWS kannada,MNR NEWS kannada,false,sd,2d,PT3M18S,false,rectangular,,ಕೋಲಾರ ಜಿಲ್ಲೆಯ ಶ್ರೀನಿವಾಸಪುರ ತಾಲ್ಲೂಕಿನ ಬಂಗವಾದಿ ಗ್ರಾಮದಲ್ಲಿ ರೈತರಿಂದ ರೈತರಿಗ...,6w7Ubp2OJHA,2018-12-13T19:08:54.000Z,0,0,3,113,ದ್ವಿತಳಿ ರೇಷ್ಮೆ ಬೆಳೆಯಿಂದ ಬಂಪರ್ ಲಾಭ,0,
B news nation Kannada,B news nation Kannada,false,hd,2d,PT4M59S,true,rectangular,,ಕರ್ನಾಟಕ ರಾಜ್ಯ ಮಾನವ ಹಕ್ಕುಗಳ ಆಯೋಗ ಜಿಲ್ಲಾಡಳಿತ. ಜಿಲ್ಲಾ ಕಾನೂನು ಸೇವೆಗಳ ಪ್ರಾಧಿಕ...,jxT3ljCzFSA,2018-12-11T07:46:54.000Z,0,0,2,97,ವಿಶ್ವ ಮಾನವ ಹಕ್ಕುಗಳ ದಿನಾಚರಣೆ.......... ! 11-12-2018,0,
Muhammed Ashfaq.K.A. Achu,Muhammed Ashfaq.K.A. Achu,false,hd,2d,PT5M55S,false,rectangular,,ಉಮ್ಮುಲ್ ಮಆಹಿದ್‌ಗೆ ಐವತ್ತರ ಸಂಭ್ರಮ* ಸಅದಾಬಾದ್ !...,kXq93WvwTbo,2019-03-14T11:57:25.000Z,0,0,2,95,SA-ADIYA GOLDEN JUBILEE PROMO VIEDIO,0,
Spandana TV l ಸ್ಪಂದನ ಟಿವಿ,Spandana TV l ಸ್ಪಂದನ ಟಿವಿ,false,sd,2d,PT4M39S,true,rectangular,IN,ಗುರುಕುಲದಲ್ಲಿ ಅಂತರ್ಜಲ ವೃದ್ಧಿಗೆ ಹೊಸ ಪ್ರಯೋಗ ಆಲ್ಲೆಯಲ್ಲಿ ಮೊದಲ ಪ್ರಯೋಗವಾಗಿ ಇಂಗ...,132p3OOXYZE,2017-06-14T07:55:22.000Z,0,0,7,536,ಗುರುಕುಲದಲ್ಲಿ ಅಂತರ್ಜಲ ವೃದ್ಧಿಗೆ ಹೊಸ ಪ್ರಯೋಗ,1,
NUK NEWS Karnataka,NUK NEWS Karnataka,false,hd,2d,PT2M54S,true,rectangular,IN,NUK NEWS KARNATAKA Iಇದು ಉತ್ತರ ಕರ್ನಾಟಕದ ಜೀವನಾಡಿ latest news update: https://nuknews24.com/ like us on fb ...,VdnLagR6Hlk,2019-04-16T10:11:51.000Z,0,0,3,116,NUK NEWS : ಬೆಳಗಾವಿ ಇಂಜಿನೀಯರಿಂಗ್ ವಿದ್ಯಾರ್ಥಿ ವಿಶಾಲ ಹಟ್ಟಿಹೊಳಿ ಅನುಮಾನಾಸ್ಪದ ಸಾವು...,0,
chanakya,chanakya,false,hd,2d,PT7M8S,false,rectangular,IN,ನಮಸ್ಕಾರ ಸ್ನೇಹಿತರೆ ನನ್ನ ಚ್ಯಾನಲ್ಗೆ ಸ್ವಾಗತ; ತಲಾವಾರು ಆಹಾರ ಉತ್ಪಾದನೆಯಲ್ಲಿ ಹೆಚ...,t-imr7s0al8,2019-03-15T07:30:39.000Z,0,0,9,181,ಬಡತನ ನಿರ್ಮೂಲನೆ ಮಾಡುವದು ಹೇಗೆ ?,0,
Nammuru TV,Nammuru TV,false,sd,2d,PT2M37S,true,rectangular,IN,ಬಳ್ಳಾರಿ /ಹೊಸಪೇಟೆ:ಹಂಪಿ ಕನ್ನಡ ವಿಶ್ವ ವಿದ್ಯಾಲಯದ ಬೆಳ್ಳಿಹಬ್ಬ-25 ಸಮಾರಂಭ ಇದೇ ಸೆ.12...,3t9RPQ0je78,2017-09-10T15:44:44.000Z,0,0,2,574,ಹಂಪಿ ಕನ್ನಡ ವಿ.ವಿ.ಯ ಬೆಳ್ಳಿಹಬ್ಬ,0,
Mallinath H Narona,Mallinath H Narona,false,hd,2d,PT16S,false,rectangular,,ವರ್ಷ - 2015 ರ ಮಳೆ ಬರದಲ್ಲಿ ಸಮೃದ್ದಿಯಾಗಿ ಬೆಳೆದ ತೊಗರಿ ಬೆಳೆ.,wWkmZmDHdD8,2015-10-17T13:26:27.000Z,0,0,0,95,3,0,
nataraj karave,nataraj karave,false,hd,2d,PT1M31S,false,rectangular,,,_Ak6TnfjRAg,2018-06-23T03:32:38.000Z,0,0,4,244,ಇಟ್ಟಿಗೆ ತಯಾರಿಕಾ ಯಂತ್ರ,1,
ETV Jaikisan,ETV Jaikisan,false,sd,2d,PT48S,false,rectangular,IN,"Jaikisan is a powerful platform and voice of Farmer.The programme is outside the domain of technology.It is a prime driving force of issues,problems,concerns ...",p-AFtf3QeSA,2015-12-19T07:09:10.000Z,0,0,0,20,Jai Kisan Headlines TS - జైకిసాన్ - 7th December 2015,0,
digitalgreenorg,digitalgreenorg,false,sd,2d,PT6M41S,false,rectangular,,For more information and related videos visit us on http://www.digitalgreen.org/,ZjBAdo0L61k,2015-12-01T06:19:32.000Z,1,0,0,336,Gulbarga_Togare Bejamrutha (Tur seed treatment),0,
INCHARA TV,INCHARA TV,false,hd,2d,PT6M13S,true,rectangular,,ರಾಜ್ಯ ಮಟ್ಟದ ಖಾದಿ ಗ್ರಾಮೋದ್ಯೋಗ ವಸ್ತು ಪ್ರದರ್ಶನ ಹಾಗೂ ಮಾರಾಟ ಮೇಳ.,LVvNi6utZCI,2018-11-09T06:47:13.000Z,0,0,1,28,ರಾಜ್ಯ ಮಟ್ಟದ ಖಾದಿ ಗ್ರಾಮೋದ್ಯೋಗ ವಸ್ತು ಪ್ರದರ್ಶನ ಹಾಗೂ ಮಾರಾಟ ಮೇಳ,0,
Nammuru TV,Nammuru TV,false,sd,2d,PT1M21S,true,rectangular,IN,ರಾಯಚೂರು. ಹೈ.ಕ ಭಾಗದ ವಿದ್ಯಾರ್ಥಿಗಳ ಶೈಕ್ಷಣಿಕ ಪ್ರಗತಿಯನ್ನು ಸಾಧಿಸಲು ಅವರಲ್ಲಿರುವ...,5AUXiwMN-us,2017-07-31T09:25:50.000Z,0,0,1,22,ಶೈಕ್ಷಣಿಕ ಪ್ರಗತಿಗೆ ರಾಜಕಾರಣಿಗಳು ಮುಂದಾಗಿ,0,
Abhishek Banavane,Abhishek Banavane,false,sd,2d,PT13M5S,false,rectangular,IN,7ನೇ ತರಗತಿ ವಿಜ್ಞಾನ ಘಟಕ ಹತ್ತು ಗಡಸು ನೀರು ಮತ್ತು ಮೆದು ನೀರು.,j4E-tw9dj0s,2018-10-05T05:31:01.000Z,1,0,1,198,7 ನೇ ತರಗತಿ ವಿಜ್ಞಾನ ಘಟಕ 10 ಗಡಸು ನೀರು ಮತ್ತು ಮೆದು ನೀರು 7th  Std Science Chapter 10,0,
DD Chandana,DD Chandana,false,sd,2d,PT17M15S,true,rectangular,IN,,_8PbVEZknVI,2015-03-25T07:14:58.000Z,1,0,11,1253,29 04 2014  Mannu mattu neeru parikshe,0,
Yashtel TV,Yashtel TV,false,sd,2d,PT52M6S,true,rectangular,IN,ಯಶಸ್ವಿನಿ ಯೋಜನೆ ಎಂಬ 'ಜೀವಧಾರೆ' ಬಡವರ ಆಶಾದೀಪವಾಗಿತ್ತು 'ಯಶಸ್ವಿನಿ' ಯೋಜನೆ ೧೪...,Ne39wVunPGQ,2018-05-30T05:55:11.000Z,0,0,0,147,ಯಶಸ್ವಿನಿ  ಎಚ್.ವಿಶ್ವನಾಥ್ ಕನಸಿನ ಕೂಸು,0,
Rural Development and Panchayat Raj - Karnataka,Rural Development and Panchayat Raj - Karnataka,false,hd,2d,PT1M2S,false,rectangular,,,JRYu5Y7Chpw,2019-01-16T06:56:51.000Z,0,0,1,84,ಹಸಿ ಹಾಗೂ ಒಣ ಕಸದ ವಿಂಗಡಣೆಯ ಮಹತ್ವ,0,
SMILE Channel in Kannada,SMILE Channel in Kannada,false,sd,2d,PT3M51S,false,rectangular,IN,"ನಾಡು - ನುಡಿ, ಸಂಸ್ಕೃತಿ, ಮನರಂಜನೆ, ಜ್ಞಾನ - ವಿಜ್ಞಾನ, ತಂತ್ರಜ್ಞಾನ, ಕಲೆ - ಸಾಹಿತ್ಯ, ಅದ್...",UNW7WMTwvNI,2019-02-27T12:14:40.000Z,0,0,3,32,24 *7 ಕೆಲಸ ಮಾಡುವ ಮರ ಗಿಡಗಳು.....,0,
Raman Tutorial For G.K,Raman Tutorial For G.K,false,hd,2d,PT5M27S,true,rectangular,IN,,xi-lMIYWHnQ,2019-04-06T10:58:47.000Z,4,0,87,3256,6-8 Teacher Online classes - Raman tutorial for gk,16,
Consumax,Consumax,false,hd,2d,PT1H52M56S,false,rectangular,IN,You could visit the company link by clicking the below url http://consumax.net/ Also do visit Master Coach Mr Sathyanarayana VR website by clicking the link ...,galeejx-ri4,2018-10-28T21:49:20.000Z,0,0,1,141,Glare Zone 561 ( ಪೋಷಣೆ ),0,
Nairutya NEWS,Nairutya NEWS,false,hd,2d,PT1M3S,true,rectangular,IN,ಗೃಹ ತ್ಯಾಜ್ಯದಿಂದ ಹೀಗೂ ವಿದ್ಯುತ್ ಉತ್ಪಾದಿಸಬಹುದು | Nairutya Tv Please Log on to: http://www.fidelitusgallery.com...,nfWLTGRVATw,2019-01-11T07:48:40.000Z,0,0,2,52,ಗೃಹ ತ್ಯಾಜ್ಯದಿಂದ ಹೀಗೂ ವಿದ್ಯುತ್ ಉತ್ಪಾದಿಸಬಹುದು | Nairutya Tv,0,
Raman Tutorial For G.K,Raman Tutorial For G.K,false,hd,2d,PT5M27S,true,rectangular,IN,,xi-lMIYWHnQ,2019-04-06T10:58:47.000Z,4,0,87,3256,6-8 Teacher Online classes - Raman tutorial for gk,16,
Consumax,Consumax,false,hd,2d,PT1H52M56S,false,rectangular,IN,You could visit the company link by clicking the below url http://consumax.net/ Also do visit Master Coach Mr Sathyanarayana VR website by clicking the link ...,galeejx-ri4,2018-10-28T21:49:20.000Z,0,0,1,141,Glare Zone 561 ( ಪೋಷಣೆ ),0,
DD Chandana,DD Chandana,false,sd,2d,PT17M15S,true,rectangular,IN,,_8PbVEZknVI,2015-03-25T07:14:58.000Z,1,0,11,1253,29 04 2014  Mannu mattu neeru parikshe,0,
Nairutya NEWS,Nairutya NEWS,false,hd,2d,PT1M3S,true,rectangular,IN,ಗೃಹ ತ್ಯಾಜ್ಯದಿಂದ ಹೀಗೂ ವಿದ್ಯುತ್ ಉತ್ಪಾದಿಸಬಹುದು | Nairutya Tv Please Log on to: http://www.fidelitusgallery.com...,nfWLTGRVATw,2019-01-11T07:48:40.000Z,0,0,2,52,ಗೃಹ ತ್ಯಾಜ್ಯದಿಂದ ಹೀಗೂ ವಿದ್ಯುತ್ ಉತ್ಪಾದಿಸಬಹುದು | Nairutya Tv,0,
ನವ ಮಾರ್ಗ NAVA MARGA,ನವ ಮಾರ್ಗ NAVA MARGA,false,sd,2d,PT1M10S,false,rectangular,,ವೆರಿಫೀಕೆಶನ್ ಸಮಯದಲ್ಲಿ ORIGINAL DOCUMENTS ಗಳ ಜೊತೆ ಒಂದು ಸೆಟ್ ATTESTED (GOVT HIGH SCHOOL HEAD MASTER SIGNED) XEROX ...,VSwghvn5kPk,2019-05-27T07:17:09.000Z,0,0,4,347,KCET - 2019 || DOCUMENTS PRODUCED TO BE A VERIFICATION || ENGINEERING | BSC AGRI | AYUSH | B- PHRM |,15,
Thirumalesh Kaje,Thirumalesh Kaje,false,hd,2d,PT40M36S,false,rectangular,,15- 07- 2018ರಂದು ಮಂಗಳೂರು ಆಕಾಶವಾಣಿಯಲ್ಲಿ ಪ್ರಸಾರವಾದ 'ವಾರದ ಅತಿಥಿ' ಸಂದರ್ಶನ ಕಾರ್ಯಕ್ರಮ...,fdUqaXQve0k,2018-07-20T05:05:32.000Z,0,0,23,841,ಆಕಾಶವಾಣಿ ವಾರದ ಅತಿಥಿ ವಸಂತ ಕಜೆ 15- 07- 2018,0,
ಚಾಣುಕ್ಯ NEWS,ಚಾಣುಕ್ಯ NEWS,false,hd,2d,PT23S,false,rectangular,,ನಗು.,XQmyHqM-3UE,2018-01-14T13:06:20.000Z,0,0,2,813,Funny Joke. ಪ್ರಾಣಿಗಳಿಗು ಕಾಮಕ್ಕೆ ಕಣ್ಣಿಲ್ಲಾ . ನಿದ್ರೆಗೆ ಜಾಗ ಬೇಕಿಲ್ಲ.,0,
ಸಾಮಾನ್ಯ ಮಾಹಿತಿ ನಿಮ್ಮ ಕೈಯಲ್ಲಿ,ಸಾಮಾನ್ಯ ಮಾಹಿತಿ ನಿಮ್ಮ ಕೈಯಲ್ಲಿ,false,hd,2d,PT3M2S,true,rectangular,IN,ಕರ್ನಾಟಕ ರಾಜ್ಯ ಶಿಕ್ಷಣ ಇಲಾಖೆಯಿಂದ 1ನೇ ತರಗತಿ ಮತ್ತು 2ನೇ ತರಗತಿ ವಿದ್ಯಾರ್ಥಿಗಳಿಗೆ...,cHIzN6jXNsE,2019-06-02T02:30:00.000Z,279,0,1933,267097,1ನೇ ಮತ್ತು 2ನೇ ತರಗತಿ ವಿದ್ಯಾರ್ಥಿಗಳಿಗೆ || ರಾಜ್ಯ ಸರ್ಕಾರದಿಂದ ಸಿಹಿಸುದ್ದಿ || ಪೋಷಕರಿಗೆ ತಂದೆ-ತಾಯಂದಿರಿಗೆ,82,
INCHARA TV,INCHARA TV,false,hd,2d,PT2M7S,true,rectangular,,ವಾಯುಮಾಲಿನ್ಯ ನಿಯಂತ್ರಣ ಜಾಗೃತಿ ಮಾಸಾಚರಣೆ ಕಾರ್ಯಕ್ರಮ.,6xwcOd-JhUA,2018-11-25T09:27:18.000Z,0,0,1,7,ವಾಯುಮಾಲಿನ್ಯ ನಿಯಂತ್ರಣ ಜಾಗೃತಿ ಮಾಸಾಚರಣೆ ಕಾರ್ಯಕ್ರಮ,0,
Chiguru TV ಚಿಗುರು ಟಿ ವಿ,Chiguru TV ಚಿಗುರು ಟಿ ವಿ,false,hd,2d,PT58M1S,true,rectangular,IN,,o84xkvbZiDE,2018-12-24T16:39:56.000Z,0,0,31,176,ಪಟ್ ಅಂತ ಹೇಳಿ ರಸಪ್ರಶ್ನೆ ಕಾರ್ಯಕ್ರಮ LIVE 27,2,
Kannada Desk,Kannada Desk,false,sd,2d,PT2M56S,false,rectangular,,ಕೋಲಾರ: ವಿದ್ಯುತ್ ಸಮಸ್ಯೆ ನಿವಾರಿಸಲು ಗ್ರಾಮ ಪಂಚಾಯತಿಯೊಂದು ಗ್ರಾಮದೆಲ್ಲೆಡೆ ಸೋಲಾರ...,VlIERbeJrpg,2019-01-20T13:59:03.000Z,0,0,0,50,ವಿದ್ಯುತ್ ಸಮಸ್ಯೆಗೆ ಸೋಲಾರ್ ಮೊರೆ.. ಮಾದರಿಯಾಯ್ತು ತೊರದೇವಂಡಹಳ್ಳಿ ಪಂಚಾಯ್ತಿ,0,
NAMMURA-SUDDI ENGLISH NEWS,NAMMURA-SUDDI ENGLISH NEWS,false,sd,2d,PT1M20S,true,rectangular,IN,ಕೀರ್ತಿ ಸಾಗರ ಹೋಟೆಲ್ ನಲ್ಲಿ ಸಪ್ಲೈಯರ್ ಆಗಿ ಕೆಲಸ ಮಾಡುವ ಧಾರವಾಡ ಜಿಲ್ಲೆಯ ನರಗುಂದ...,QsMULoZdIqc,2018-08-16T09:53:06.000Z,0,0,1,187,NAMMURA -SUDDI | ಮುದ್ದೇಬಿಹಾಳ ಪಟ್ಟಣದಲ್ಲಿ ಆಧುನಿಕ ಮಹಾತ್ಮ ಗಾಂಧೀಜಿ,0,
INCHARA TV,INCHARA TV,false,hd,2d,PT1M3S,true,rectangular,,ಸರ್ಕಾರಿ ಜಾಗವನ್ನು ಕಬಳಿಸಿ ಮನೆ ನಿರ್ಮಾಣ ಮಾಡಿದವರಿಗೆ ಮಹಾನಗರ ಪಾಲಿಕೆ ಅಧಿಕಾರಿಗಳಿ...,smxGRxdmM9c,2018-08-25T15:50:04.000Z,0,0,0,38,ಸರ್ಕಾರಿ ಜಾಗವನ್ನು ಕಬಳಿಸಿ ಮನೆ ನಿರ್ಮಾಣ ಮಾಡಿದವರಿಗೆ ಮಹಾನಗರ ಪಾಲಿಕೆ ಅಧಿಕಾರಿಗಳಿಂದ ಶಾಕ್,0,
News18 MP Chhattisgarh,News18 MP Chhattisgarh,false,sd,2d,PT29M10S,true,rectangular,IN,अन्नदाता कृषि के बारे ETV Network का एक विशेष दैनिक शिक्षा कार्यक्रम है। यह कार्य...,n6qYZR6FlsY,2017-04-07T08:59:37.000Z,0,0,0,64,Annadata - अन्नदाता - 6th Apr 2017 - ETV MP Chhattisgarh,0,
Somari Katte (ಸೋಮಾರಿ ಕಟ್ಟೆ),Somari Katte (ಸೋಮಾರಿ ಕಟ್ಟೆ),false,hd,2d,PT2M15S,false,rectangular,,,XnkLZFMhqcQ,2017-12-11T06:21:23.000Z,0,0,2,650,ಅಶ್ವತ್ಥ ಮರದ ಆಶ್ಚರ್ಯಕಾರಿ ಉಪಯೋಗಗಳು,0,
Ёж Таёжный,Ёж Таёжный,false,sd,2d,PT34M36S,true,rectangular,RU,23Февраля #Музыка #Концерт #ДеньЗащитникаОтечества #СамостоятельнаяЖизнь #НаСвоейЗемле #СибирскаяДеревня...,Sx6BP1AzXgs,2015-03-08T08:13:43.000Z,0,0,0,84,#Клуб #Байкал -#Концерт на День #Защитника Отечества 23 февраля 2011 #Песня #Вокал #Танцы #Музыка,0,
InNews Kannada,InNews Kannada,false,sd,2d,PT1M5S,true,rectangular,IN,14/11/2017 (Kannada) Raitara Samasye Bageharisi-Suvarna Chalo Chaluwali.,d7nZcL1w3SU,2017-11-15T08:10:57.000Z,1,0,0,104,14/11/2017 (Kannada) Raitara Samasye Bageharisi-Suvarna Chalo Chaluwali,0,
RAVI KUMARA BM M GOWDA,RAVI KUMARA BM M GOWDA,false,hd,2d,PT2M49S,false,rectangular,,ರಕುಬ.,_Beag0YcDo8,2017-04-08T10:19:02.000Z,0,0,0,66,ಜೀವ ಜಲ ರಕ್ಷಿಸಿ .....(ರವಿಕುಮಾರ್ ಬಲ್ಲೇನಹಳ್ಳಿ ),0,
Nammuru TV,Nammuru TV,false,hd,2d,PT49S,true,rectangular,IN,ಬೆಂಗಳೂರು/ಕೆಆರ್ ಪುರ: ಗ್ರಾಮೀಣ ಪ್ರದೇಶದ ಜನರ ಅಭಿವೃದ್ಧಿಗೆ ಸಂಘ ಸಂಸ್ಥೆಗಳು ಮುಂದೆ...,kPbtdGqA6ss,2017-03-19T08:38:27.000Z,0,0,0,44,ರಾಷ್ಟ್ರೀಯ ವಿಚಾರ ಸಂಕೀರಣ,0,
Ёж Таёжный,Ёж Таёжный,false,sd,2d,PT34M36S,true,rectangular,RU,23Февраля #Музыка #Концерт #ДеньЗащитникаОтечества #СамостоятельнаяЖизнь #НаСвоейЗемле #СибирскаяДеревня...,MWUAPgsH-Ho,2015-03-08T21:57:08.000Z,0,0,0,26,#Клуб #Байкал -#Концерт на День #Защитника Отечества 23февраля #Песня #Вокал #Танцы #Музыка #Сглажен,0,
nanasaheb hachhadad,nanasaheb hachhadad,false,hd,2d,PT3M35S,false,rectangular,,,BaV-yWE-ofw,2018-03-21T16:15:47.000Z,0,0,15,433,ಕೌಶಲ್ಯ ಅಭಿವೃದ್ಧಿ ತರಬೇತಿ ನೀಡುತ್ತರುವುದು(2),0,
gumpumarada Anand Kumar,gumpumarada Anand Kumar,false,sd,2d,PT1M22S,false,rectangular,,Video from anandkumar089255.,J3b-Ojr1zA4,2018-10-28T10:22:38.000Z,1,0,1,463,ಹೊಂಗೆ ಹೂವ ತೊಂಗಲಲ್ಲಿ .ಗುಂಪು ಮರದ ಅನಂದ್,0,
Ramesh Competitive Classes,Ramesh Competitive Classes,false,sd,2d,PT5M48S,true,rectangular,IN,"ನಮಸ್ಕಾರ ಗೆಳೆಯರೇ, ಈ ವಿಡಿಯೋದಲ್ಲಿ ನೀವು ಮನೋವಿಜ್ಞಾನದ ಬಗ್ಗೆ ತಿಳಿಯುವಿರಿ. ಇಲ್ಲಿ...",EyH82EG9Ezo,2018-09-27T17:23:55.000Z,1,0,80,2718,ವಿಕಾಸದ ಪರಿಕಲ್ಪನೆ,10,
Shirolli mallu,Shirolli mallu,false,sd,2d,PT4M57S,false,rectangular,,By shirolli mallu...9th Class students Part 2.,2zYdYwD1hrg,2018-02-28T11:06:48.000Z,0,0,1,105,Quiz in Kannada (ರಸಪ್ರಶ್ನೆ),0,
MASTER GK KAPSE,MASTER GK KAPSE,false,hd,2d,PT3M53S,false,rectangular,,Tet Notes.,D_ZYlI1CYW0,2018-10-07T08:47:40.000Z,0,0,6,413,ಬ್ರೂನರ್ ರವರ ಪರಿಕಲ್ಪನಾತ್ಮಕ ವಿಕಾಸದ ಹಂತಗಳು,0,
SM Trust,SM Trust,false,sd,2d,PT24M50S,false,rectangular,,DD Panel Discussion on World Rabies Day (Kannada) Panellists present are Dr MK Sudarshan - Mentor: Association for Prevention and Control of Rabies in ...,xl06Sllb3nI,2018-10-02T05:41:59.000Z,0,0,0,36,DD Chandana Panel Discussion on World Rabies Day 2018,0,
MASTER GK KAPSE,MASTER GK KAPSE,false,hd,2d,PT1M5S,false,rectangular,,ವಿಜ್ಞಾನ TET Notes.,SoNRuGsabQo,2018-11-06T10:25:42.000Z,0,0,3,161,4) ಜೀವ ವೈವಿಧ್ಯತೆ BIODIVERSITY,0,
MASTER GK KAPSE,MASTER GK KAPSE,false,sd,2d,PT1M25S,false,rectangular,,,7aF5WwYj6vk,2018-09-13T03:06:15.000Z,1,0,5,323,ಅಧ್ಯಾಯ 1 ನಮ್ಮ ನೈಸರ್ಗಿಕ ಸಂಪನ್ಮೂಲಗಳು,0,
ಉದ್ಯೋಗ ಬಿಂದು,ಉದ್ಯೋಗ ಬಿಂದು,false,hd,2d,PT1M32S,true,rectangular,IN,ಉದ್ಯೋಗ ವಾರ್ತೆಗೆ ಸ್ವಾಗತ   ನಮ್ಮ Instagram : https://www.instagram.com/udyoga_247/ ಫೇಸ್ಬುಕ್ ಪೇಜ್ : https://www.facebook....,NxSNUHYMrjw,2018-04-05T01:00:02.000Z,31,0,624,36212,ಕೃಷಿ ವಿಶ್ವವಿದ್ಯಾಲಯ ನೇಮಕಾತಿ ೨೦೧೮: Agriculture  University recruitment 2018,13,
ಉದ್ಯೋಗ ರಾಜ್,ಉದ್ಯೋಗ ರಾಜ್,false,hd,2d,PT2M35S,true,rectangular,IN,University of agricultural sciences/Dharwad/ಕೃಷಿ ವಿಶ್ವವಿದ್ಯಾಲಯ/ಧಾರವಾಡ/Research Fellow/udyoga raj Notification Link &Application Link: ...,en2mSBAhRe0,2018-03-29T18:26:59.000Z,2,0,9,1612,University of agricultural sciences/Dharwad/ಕೃಷಿ ವಿಶ್ವವಿದ್ಯಾಲಯ/ಧಾರವಾಡ/udyoga raj/udyoga varte,0,
Oneindia Kannada | ಒನ್ಇಂಡಿಯಾ ಕನ್ನಡ,Oneindia Kannada | ಒನ್ಇಂಡಿಯಾ ಕನ್ನಡ,false,hd,2d,PT4M15S,true,rectangular,IN,"ಕೈಲಾಸವಡಿವೂ ಶಿವನ್ (62), ಇಡೀ ಜಗತ್ತು ದಿಟ್ಟಿಸಿ ಬೆರಗುಗಣ್ಣಿನಿಂದ ನೋಡುತ್ತಿರುವ ಇಸ್ರ...",xkagxTNXNiI,2019-09-09T14:06:04.000Z,5,0,112,8312,ಎಲ್ಲರಿಗೂ ಶಿವನ್ ಹೇಳೋದು ಒಂದೇ ಮಾತು..?| ISRO chief K Sivan,6,
Student Academy,Student Academy,false,hd,2d,PT43S,false,rectangular,,ವಿಜ್ಞಾನ : ಹೊಮೊಪೋಲಾರ್ ಮೋಟಾರ್ ನ ಮಾದರಿಯ ತಯಾರಿಕೆ.,bF10ApGJMSg,2017-12-30T06:31:04.000Z,0,0,16,3777,ವಿಜ್ಞಾನ ಮಾದರಿ ತಯಾರಿಕೆ.ಹೊಮೊಪೋಲಾರ್ ಮೋಟಾರ್.,,
Maruthi Tech & Fun,Maruthi Tech & Fun,false,hd,2d,PT5M55S,true,rectangular,IN,"ಯಾವುದೇ ಜಾಗ, ಭೂಮಿಯನ್ನು ಅತ್ಯಂತ ನಿಖರವಾಗಿ ಅಳತೆ ಮಾಡುವುದು ಹೇಗೆ ಎಂದು ನಾನು ಈ ವೀಡಿ...",OxfSeRXQ6cg,2018-10-31T04:26:37.000Z,387,0,6706,388284,"ಯಾವುದೇ ಜಾಗ, ಭೂಮಿಯನ್ನು ಅತ್ಯಂತ ನಿಖರವಾಗಿ ನೀವೇ ಕುಳಿತಲ್ಲಿಯೇ ಅಳತೆ ಮಾಡಿ",81,
Raman Tutorial For G.K,Raman Tutorial For G.K,false,hd,2d,PT13M8S,true,rectangular,IN,"ಭಾರತದ ಇತಿಹಾಸ Chaya Davangere ಸ್ನೇಹಿತರೇ ,ಈ ಕೆಳಗಡೆ ಮೌರ್ಯ ಸಾಮ್ರಾಜ್ಯದ ಸಂಪೂರ್ಣ ಚಿತ್ರಣವ...",VOWhBQCU4Ck,2018-11-20T03:14:23.000Z,10,0,174,5210,ಭಾರತದ ಇತಿಹಾಸ : ಮೌರ್ಯರ ಇತಿಹಾಸ ಕುರಿತಾದ ಪ್ರಮುಖ ಮಾಹಿತಿ : GK booster,21,
ತಿಳಿ TiLi,ತಿಳಿ TiLi,false,hd,2d,PT9M7S,false,rectangular,,Original video source : https://www.youtube.com/LearnEngineering ನಮ್ಮಲ್ಲಿ ಹೆಚ್ಚಿನ ಮಂದಿ ಮೊಬೈಲ್ ಫೋನ್ ಬಳಸುತ್ತೇವಾದರ...,PQGFi-N_IG0,2019-06-15T05:12:37.000Z,3,0,274,2776,ಮೊಬೈಲ್ ಹೇಗೆ ಕೆಲಸ ಮಾಡುತ್ತದೆ? / How mobile phone works? (Kannada),47,
Pratilipi ಕನ್ನಡ,Pratilipi ಕನ್ನಡ,false,hd,2d,PT54M58S,false,rectangular,,ಕನ್ನಡ ಕಿರುತೆರೆಯ ಜನಪ್ರಿಯ ಕಾರ್ಯಕ್ರಮ 'ಥಟ್ ಅಂತ ಹೇಳಿ'.... ಈ ಹೆಸರು ಕೇಳಿದೊಡನೆ ನಮಗೆ...,4CPb5gi9RqM,2019-03-19T09:19:22.000Z,0,0,43,517,ಡಾ।। ನಾ ಸೋಮೇಶ್ವರ । Dr .Na Someshwara । ಪ್ರತಿಲಿಪಿಕನ್ನಡ । Pratilipi,15,
Raman Tutorial For G.K,Raman Tutorial For G.K,false,hd,2d,PT8M2S,true,rectangular,IN,,7vemM0mTCP8,2018-01-15T13:27:44.000Z,4,0,141,5654,"ಕರ್ನಾಟಕದ ವಾಯುಗುಣ , ಮಣ್ಣು ಮತ್ತು  ಸಸ್ಯವರ್ಗದ ಮೇಲಿನ ಪ್ರಶ್ನೋತ್ತರಗಳು",15,
MNS ACADEMY,MNS ACADEMY,false,sd,2d,PT7M51S,true,rectangular,IN,Harappan civilization videos gives detail information about the topic *It also discussed about the factors influenced on establishment of this civilization. *about ...,t_iVCHdexHc,2018-04-29T05:31:50.000Z,0,0,39,1941,ಹರಪ್ಪ ನಾಗರೀಕತೆ ( ಭಾರತದ ಇತಿಹಾಸ),3,
Navaneeth Puneeth,Navaneeth Puneeth,false,hd,2d,PT2M49S,false,rectangular,,link is ...,hk4oboEcuM4,2018-06-16T07:13:23.000Z,6,0,16,2284,೧೦ನೇ  ತರಗತಿ ಕನ್ನಡ ಗೈಡನ್ನು ಡೌನ್ ಲೋಡ್  ಮಾಡುವುದು ಹೇಗೆ ಕನ್ನಡದಲ್ಲಿ how to download tenth  kannada guide,1,
News Bharati,News Bharati,false,hd,2d,PT3M51S,false,rectangular,,ಇದು ಕರ್ನಾಟಕದ ಹತ್ತನೇ ತರಗತಿಯವರೆಗೆ ಇರುವ ಕನ್ನಡ ಪದ್ಯ. ವಿದ್ಯಾರ್ಥಿಗಳಿಗೆ ನೆನಪಿಟ...,RJDtQMk25gc,2017-09-04T15:33:02.000Z,3,0,13,4012,ಹಕ್ಕಿ ಹಾರುತಿದೆ ನೋಡಿದಿರಾ? ರಚನೆ: ದ.ರಾ.ಬೇಂದ್ರೆ. ಹಾಡಿದರು ರವೀಂದ್ರ ದೇಸಾಯಿ.,1,
kiram Nudimane,kiram Nudimane,false,hd,2d,PT7M11S,false,rectangular,,ಹೆಣ್ಣಿನ ಮೇಲಿನ ಅತ್ಯಾಚಾರ ಕುರಿತಂತೆ ಸಮುದಾಯ ತಂಡದೊಂದಿಗೆ ಸೇರಿ ನಡೆಸಿದ -ವಿಚಾರಸಂಕ...,9ryUnNIKoFw,2014-08-02T14:36:12.000Z,2,0,0,1175,ಟೈಮ್ ಲೈನ್ ಬೀದಿ ನಾಟಕ  ಸಮುದಾಯ ತಂಡ,1,
DR. M Shiva Kumar,DR. M Shiva Kumar,false,sd,2d,PT1M4S,false,rectangular,,,JJ1Y6Bpjp3g,2018-03-31T10:13:35.000Z,0,0,18,2469,NCERT10ನೇ ತರಗತಿ ಗಣಿತ ಹೊಸ ಪಠ್ಯಕ್ರಮ ಪರಿಚಯ,1,
