channelTitle,channelid,contentDetails/caption,contentDetails/definition,contentDetails/dimension,contentDetails/duration,contentDetails/licensedContent,contentDetails/projection,country,description,id,publishedAt,statistics/commentCount,statistics/dislikeCount,statistics/favoriteCount,statistics/likeCount,statistics/viewCount,title
მეცხრე არხი ახალციხე,მეცხრე არხი ახალციხე,false,hd,2d,PT1M46S,true,rectangular,GE,"მოსწავლეთა სამეცნიერო კომფერენცია: ,, მოსწავლის თვალით დანახული აგრარული...",yhKGMBMmZsQ,2016-12-21T15:37:12.000Z,0,0,0,0,148,სამცხე–ჯავახეთის სახელწიფო უნივერსიტეტში სამეცნიერო კონფერენცია გაიმართა
მეცხრე არხი ახალციხე,მეცხრე არხი ახალციხე,false,sd,2d,PT37S,true,rectangular,GE,"1. ადიგენის მუნიციპალიტეტის საკრებულომ, ახალციხის რაიონული სასამართლოს...",1WgrfcX9GJI,2015-10-29T07:42:16.000Z,0,0,0,0,19,"29 ოქტომბრის ,,ექოს&quot; ანონსი"
Business Media Georgia,Business Media Georgia,false,hd,2d,PT7M13S,false,rectangular,GE,"სტუმარი: ხათუნა ახალაია - აგროეკოლოგი, გაეროს ექსპერტი.",VsMN7woB9i4,2018-07-27T08:53:22.000Z,0,0,0,0,5,ქალების ნარატივი - ხათუნა ახალაია
NewimediTV,NewimediTV,false,sd,2d,PT54S,false,rectangular,GE,მეცნიერები რადიოლოგიური და აგროეკოლოგიური კვლევების პრობლემებს განიხი...,8WrJcFF7mEA,2009-10-24T12:18:40.000Z,0,0,0,0,12,24.10.2009
aprili19,aprili19,false,hd,2d,PT1M30S,false,rectangular,GE,"აგროეკოლოგი შმაგი ჩიხელი საუბრობს საზოგადოებრივი მოძრაობა ""19 აპრილის""...",RboO-OTDuqQ,2013-03-12T01:14:57.000Z,,6,0,3,354,შმაგი ჩიხელი 19 აპრილის შესახებ
