[],RT @AlterUK21: What kind of civic spaces could we open up that could connect citizens directly to radical innovation? Innovators under thir…,SyneDrum,"Scotland, UK, Europe"
['SikkimGovernment'],"RT @egovonline: H K Sharma, Secy, Cooperative Department, #SikkimGovernment while speaking at the Elets Marketing Innovation Summit, talked…",eletsonline,"Noida, India"
[],I've never seen any developed or developing world put his critical production in the hand of ONE man. Nigeria fuel… https://t.co/wMmYtU0K0e,OtunMuri,"Calgary, Alberta 🇨🇦"
[],RT @ReclaimAnglesea: Interesting to learn that if animals in agriculture are being routinely fed antibiotics it indicates they are being ke…,narelleford,"Canberra, Australia"
[],"RT @seekewa: 1/2 Women are essential contributors to agriculture around the world. In developing countries, women make up approximately 40…",Nestor_Pius,"Namibia, Windhoek"
