Periodo,Titulo,autor,formato,link
"Date
2006",¿Será el tenor de sólidos solubles totales de los frutos de Cucumis melo influenciado por Carlavirus?,"Author
Rodrígues, Sandra M.M.
Bleicher, Ervino
Nogueira, Sávio G.",Artículos de revistas,http://repositorio.bibliotecaorton.catie.ac.cr/handle/11554/6964?show=full
"Date
2004",Seleçao de colonias de Beauveria bassiana resistentes a produtos fitossanitários,"Author
Cavalcanti, R.S.
Moino Jr, A.
Souza, G.C.
Duarte, A.S.M.",Artículos de revistas,http://repositorio.bibliotecaorton.catie.ac.cr/handle/11554/6797?show=full
"Date
2006","SeqSam, un programa para la elaboración de planes de muestreo secuencial","Author
Casanoves, Fernando
Di Rienzo, Julio A.",Artículos de revistas,http://repositorio.bibliotecaorton.catie.ac.cr/handle/11554/6805?show=full
"Date
2006","Situación actual del manejo de las plagas de los cítiricos en Tamaulipas, México","Author
Ruíz C., Enrique
Coronado B., Juana M.A.
Myartseva, Svetlana.N.",Artículos de revistas,http://repositorio.bibliotecaorton.catie.ac.cr/handle/11554/6829?show=full
"Date
2004",Análisis de los estilos de agricultura ecológica,"Martínez Castillo, R.",Artículos de revistas,http://repositorio.bibliotecaorton.catie.ac.cr/handle/11554/5772?show=full
"Date
2005","Sombra y especies arbóreas en los cacaotales de Alto Beni, Bolivia","Author
Ortiz, Meivis
Somarriba, Eduardo",Artículos de revistas,http://repositorio.bibliotecaorton.catie.ac.cr/handle/11554/6833?show=full
"Date
2004","Antecedentes y estrategias para el combate de Diaprepes abbreviatus, plaga invasora del Caribe","Author
Lapointe, S.L.",Artículos de revistas,http://repositorio.bibliotecaorton.catie.ac.cr/handle/11554/5782?show=full
"Date
2004",Manejo de la mosca blanca en el cultivo de la vid,"Author
Haji, F.N.P.
Moreira, A.N.
Bleicher, E.
Ferreira, R.C.F.
Alencar, J.A. de",Artículos de revistas,http://repositorio.bibliotecaorton.catie.ac.cr/handle/11554/6536?show=full
"Date
2012",Las escuelas de campo del Programa Agroambiental Mesoamericano en la región de Trifinio: una plataforma para la gestión de conocimiento y la creación de capacidades locales hacia el desarrollo territorial sostenible,"Author
Rivas Platero, Gonzalo G.
Gutiérrez Montes, Isabel A.
Ramírez, Felicia
Padilla Castillo, Danilo
Suchini, José G.
Hernández Hernández, Liseth
Rodríguez Azucena, Laura
Juárez, Modesto
López Payés, Julio",Artículos de revistas,http://repositorio.bibliotecaorton.catie.ac.cr/handle/11554/7871?show=full
"Date
2004","Tecnología agrícola y conservación biológica en el Petén, Guatemala","Author
Ferguson, B.G.
Griffith, D.M.",Artículos de revistas,http://repositorio.bibliotecaorton.catie.ac.cr/handle/11554/6844?show=full
"Date
2004","Termitas asociadas a plantaciones e Eucalyptus spp. en una reforestadora en Magdalena, Colombia","Author
Gutiérrez, A.I.
Uribe, S.
Quiroz, J.A.",Artículos de revistas,http://repositorio.bibliotecaorton.catie.ac.cr/handle/11554/6848?show=full
"Date
2004",Alexander Skutch: ¿El último gran naturalista?,"Author
Hilje Quirós, Luko",Artículos de revistas,http://repositorio.bibliotecaorton.catie.ac.cr/handle/11554/5755?show=full
"Date
2003",Toxicidad sobre Apis mellifera de cebos empleados en el combate de moscas de la fruta,"Author
Domínguez M, V.M.
Leyva V, J.L.
Moreno, D.S.
Trujillo A, F.J.
Alatorre R, R.
Becerril R, A.E.",Artículos de revistas,http://repositorio.bibliotecaorton.catie.ac.cr/handle/11554/6858?show=full
"Date
2002",Un enfoque interdisciplinario para la investigación en agroecología y desarrollo rural en el trópico latinoamericano,"Author
Méndez, V.E.
Gliessman, S.R.",Artículos de revistas,http://repositorio.bibliotecaorton.catie.ac.cr/handle/11554/6865?show=full
"Date
2004",Una base agroecológica para el diseno de sistemas diversificados de cultivo en el trópico,"Author
Altieri, M.A.
Nicholls, C.I.",Artículos de revistas,http://repositorio.bibliotecaorton.catie.ac.cr/handle/11554/6873?show=full
"Date
2006",Uso de fêmeas virgens na coleta massal de Bephratelloides pomorum (Fab.) (Hymenoptera: Eurytomidae) em Annona muricata L. (Annonaceae),"Author
Moura, José Inácio L.
Sgrillo, Ricardo B.
Sgrillo, Katia R.P.A.
Vilela, Evaldo F.
Bento, Jose Mauricio S.",Artículos de revistas,http://repositorio.bibliotecaorton.catie.ac.cr/handle/11554/6886?show=full
"Date
2006",Uso de trampas con kairomona para el manejo de la broca de la areca (Coccotrypes carpophagus)(Hormung) en la palmera Chrysalidocarpus lutescens var. areca,"Author
Villalobos, Ericka
Blanco Metzler, Helga",Artículos de revistas,http://repositorio.bibliotecaorton.catie.ac.cr/handle/11554/6893?show=full
"Date
2004","Adelaida Chaverri: ecóloga de tierras altas, conservacionista genuina","Author
Kapelle, M.
Cleef, A.M.",Artículos de revistas,http://repositorio.bibliotecaorton.catie.ac.cr/handle/11554/5743?show=full
"Date
2013","Evolución, aplicación y futuro de la agroforestería en Nicaragua","Author
Orozco Aguilar, Luis
López Sampson, Arlene",Artículos de revistas,http://repositorio.bibliotecaorton.catie.ac.cr/handle/11554/6296?show=full
"Date
2004",Evaluando la diversidad de plantas en los agroecosistemas como estrategia para el control de plagas,"Author
Muriel R, S.B.
Vélez V, L.D.",Artículos de revistas,http://repositorio.bibliotecaorton.catie.ac.cr/handle/11554/6291?show=full
"Date
2006",Efecto de subcultivos sucesivos de Beauveria bassiana sobre sus características y actividad contra Premnotrypes vorax,"Author
García, Magda X.
Villamizar, Laura F.
Torres, Lissette A.
Cotes, Alba M.",Artículos de revistas,http://repositorio.bibliotecaorton.catie.ac.cr/handle/11554/6119?show=full
"Date
2003",Efecto de tres fungicidas sobre siete aislamientos del entomopatógeno Lecanicillium (=Verticillium) lecanii,"Author
Olán H, J.F.
Cortez M, H.",Artículos de revistas,http://repositorio.bibliotecaorton.catie.ac.cr/handle/11554/6121?show=full
"Date
2004",Evaluación de prácticas agrícolas para el manejo de Bemisia tabaci en tomate,"Author
Salas, J.",Artículos de revistas,http://repositorio.bibliotecaorton.catie.ac.cr/handle/11554/6278?show=full
"Date
2003",Evaluación de métodos de cría del ácaro Amblyseius largoensis,"Author
Rodríguez M, H.
Ramos L, M.",Artículos de revistas,http://repositorio.bibliotecaorton.catie.ac.cr/handle/11554/6277?show=full
"Date
2005","Aportes de productores y científicos al entendimiento de la agregación de Hypothenemus hampei en Chiapas, México","Author
Jarquín Gálvez, R.
Jiménez Sánchez, L.
Guharay, F.
Barrera, J.F.",Artículos de revistas,http://repositorio.bibliotecaorton.catie.ac.cr/handle/11554/5783?show=full
"Date
2003",Experiencias iniciales con alternativas al bromuro de metilo en tomate,"Author
Gilreath, J.P.
Noling, J.W.
Jones, J.P.
Overman, A.J.
Santos, B.M.",Artículos de revistas,http://repositorio.bibliotecaorton.catie.ac.cr/handle/11554/6304?show=full
"Date
2006","Mancha foliar de Chamaedorea elegans en Corrientes, Argentina","Cúndom, María A.
Cabrera, María G.
Cejas, Patricia",Artículos de revistas,http://repositorio.bibliotecaorton.catie.ac.cr/handle/11554/6530?show=full
"Date
2006",Manejo integrado de Hypothenemus hampei bajo dos modelos de capacitación y difusión en México,"Author
Jarquín Gálvez, Ramón
Barrera, Juan F.
García Barrios, Luis
Guharay, Falguni
Jiménez Sánchez, Leobardo",Artículos de revistas,http://repositorio.bibliotecaorton.catie.ac.cr/handle/11554/6553?show=full
"Date
2006",Selección de cepas de Bacillus thuringiensis con efecto nematicida,"
Márquez Gutiérrez, María Elena
Fernández Gonzálvez, Emilio",Artículos de revistas,http://repositorio.bibliotecaorton.catie.ac.cr/handle/11554/6798?show=full
"Date
2005",Selección de plantas de cacao resistentes a la moniliasis usando savia del floema y fluidos embriónicos de frutos jóvenes,"Author
Arévalo G, E.
Ortiz B, C.
Zúñiga C, L.
Gonzales V, J.",Artículos de revistas,http://repositorio.bibliotecaorton.catie.ac.cr/handle/11554/6800?show=full
"Date
2006",Avances en el control biológico de Botritys cinerea en chile y tomate cultivados bajo techo,"Author
Salas Brenes, William
Sánchez Garita, Vera",Artículos de revistas,http://repositorio.bibliotecaorton.catie.ac.cr/handle/11554/5815?show=full
"Date
2006","Abundância estacional de Myzus persicae (Sulzer), Brevicoryne brassicae (L.) e Lipaphis erysimi (Kalt.) (Hemiptera: Aphididae) na região nordeste do estado de São Paulo","Author
Souza, Vanderlei de Paula
Cividanes, Francisco Jorge
Galli, Julio César",Artículos de revistas,http://repositorio.bibliotecaorton.catie.ac.cr/handle/11554/6794?show=full
"Date
2005",Cobertura muerta y arvenses en la asociación Lactuca sativa - Allium ampeloprasum,"Author
Contreras, O.
Moreno, F.",Artículos de revistas,http://repositorio.bibliotecaorton.catie.ac.cr/handle/11554/5894?show=full
"Date
2003",Efecto de la toxina beauvericina sobre Hypothenemus hampei,"Author
Arboleda V, J.W.
Delgado B, F.
Valencia J, A.",Artículos de revistas,http://repositorio.bibliotecaorton.catie.ac.cr/handle/11554/6116?show=full
"Date
2004",Selection of entomopathogenic fungi to control Bemisia tabaci biotype B | Seleçao de fungos entomopatogenicos para o controle de Bemisia tabaci biótipo B,"Author
Quisberth Ramos, E.
Batista Alves, S.
Demétrio, C.G.B.
Costa, S.C. da",Artículos de revistas,http://repositorio.bibliotecaorton.catie.ac.cr/handle/11554/6803?show=full
"Date
2005",Respuesta funcional de Chrysoperla externa a Aphis gossypii en cultivares de algodón,"Author
Santos, T.M. dos
Junior, A.L.B.
Barbosa, J.C.",Artículos de revistas,http://repositorio.bibliotecaorton.catie.ac.cr/handle/11554/6782?show=full
"Date
2015-11-03",Informe de país Honduras 2010: Logros y resultados,Author CATIE,Artículos de revistas,http://repositorio.bibliotecaorton.catie.ac.cr/handle/11554/7758?show=full
"Date
2015-11-03",Informe de país: Logros e impactos 2010,Author CATIE,Artículos de revistas,http://repositorio.bibliotecaorton.catie.ac.cr/handle/11554/7878?show=full
"Date
2015",Hacia el fortalecimiento de una agricultura familiar: pilar de los territorios rurales,"Author
Rivas Platero, Gonzalo G.
Gutiérrez Montes, Isabel A.
Ramírez Agüero, Felicia
Padilla Castillo, Danilo
Suchini, José G.
Hernández Hernández, Liseth
Rodríguez Azucena, Laura
Juárez, Modesto",Artículos de revistas,http://repositorio.bibliotecaorton.catie.ac.cr/handle/11554/7812?show=full
"Date
2015-11-03",El desarrollo de la capacidad emprendedora: una apuesta del MAP-CATIE para lograr la autonomía económica de mujeres y jóvenes en la Región del Trifinio,"Author
Padilla, Danilo
Rodriguez, L.
Hernandez, L.",Artículos de revistas,http://repositorio.bibliotecaorton.catie.ac.cr/handle/11554/7835?show=full
"Date
2005",Caracteres agronómicos afectados por la aparición de Steneotarsonemus spinki en arroz en Cuba,"Author
Miranda Cabrera, I.
Fernández, A.
Solórzano, E.
Hernández, J.L.",Artículos de revistas,http://repositorio.bibliotecaorton.catie.ac.cr/handle/11554/5859?show=full
"Date
2005",Biología y enemigos naturales de Tetranychus urticae en pimentón,"Author
Gallardo, A.
Vásquez, C.
Morales, J.
Gallardo, J.",Artículos de revistas,http://repositorio.bibliotecaorton.catie.ac.cr/handle/11554/5830?show=full
"Date
2002",Bob Hart: pionero de la agroecología en Latinoamérica,"Moreno, R.",Artículos de revistas,http://repositorio.bibliotecaorton.catie.ac.cr/handle/11554/5833?show=full
"Date
2003",Redescubriendo a Alexander von Humboldt,"Author
Ezcurra, E.",Artículos de revistas,http://repositorio.bibliotecaorton.catie.ac.cr/handle/11554/6762?show=full
"Date
2003","Abundancia estacional de Doru luteipes en el cultivo de maíz en Sao Paulo, Brasil","Author
Guerreiro, J.C.
Berti Filho, E.
Busoli, A.C.",Artículos de revistas,http://repositorio.bibliotecaorton.catie.ac.cr/handle/11554/5732?show=full
"Date
2005",Reconocimiento fitosanitario en cinco variedades cultivadas de macadamia (Macadamia integrifolia Maiden et Betche) en la zona cafetera colombiana,"Author
Villegas García, C.",Artículos de revistas,http://repositorio.bibliotecaorton.catie.ac.cr/handle/11554/6755?show=full
"Date
2005","Reconocimiento de macromicetos asociados al cultivo de Guadua angustifolia en Caldas, Colombia","Restrepo F, G.M.
Vélez A, P.E.
Botero A, P.A.
Pulido V, C.",Artículos de revistas,http://repositorio.bibliotecaorton.catie.ac.cr/handle/11554/6753?show=full
"Date
2004",Preparación de lixiviados de compost y lombricompost,"Author
Larco, E.",Artículos de revistas,http://repositorio.bibliotecaorton.catie.ac.cr/handle/11554/6694?show=full
"Date
2003","Abundance of soybean pests and their natural enemies in Gurupi, Brazil | Abundancia de pragas e inimigos naturais em soja na regiao de Gurupi, Brasil","Author
Didonet, J.
Sarmento, R. de A.
Souza Aguiar, R.W. de
Santos, G.R. dos
Erasmo, E.A.L.",Artículos de revistas,http://repositorio.bibliotecaorton.catie.ac.cr/handle/11554/5731?show=full
"Date
2006","Potencial de uso de armadilhas iscadas com o feromônio sexual do percevejo marrom, Euschistus heros (Heteroptera: Pentatomidae), para o monitoramento populacional de percevejos praga da soja","Author
Pires, Carmen S.S.
Sujii, Edison R.
Schmidt, Francisco G.V.
Zarbin, Paulo H.G.
Almeida, João R.M. de
Borges, Miguel",Artículos de revistas,http://repositorio.bibliotecaorton.catie.ac.cr/handle/11554/6685?show=full
"Date
2004",Potencial de hormigas como depredadoras de la broca del café (Hypothenemus hampei) en Costa Rica,"Author
Varón, E.H.
Hanson, Paul
Borbón, O.
Carballo, Manuel
Hilje Quirós, Luko",Artículos de revistas,http://repositorio.bibliotecaorton.catie.ac.cr/handle/11554/6683?show=full
"Date
2005",Potencial de depredación de Hypsipyla grandella por hormigas en cafetales de Costa Rica,"Author
Varón, E.H.
Barbera, N.
Hanson, Paul
Carballo, Manuel
Hilje Quirós, Luko",Artículos de revistas,http://repositorio.bibliotecaorton.catie.ac.cr/handle/11554/6681?show=full
"Date
2005",Abejas silvestres y polinización,"Author
Nates Parra, G.",Artículos de revistas,http://repositorio.bibliotecaorton.catie.ac.cr/handle/11554/5728?show=full
"Date
2003",Bases para el manejo integrado de Thrips palmi,"Author
Vázquez M, L.L.",Artículos de revistas,http://repositorio.bibliotecaorton.catie.ac.cr/handle/11554/5823?show=full
"Date
2005",Reproducción y esporulación in vitro de la bacteria Paenibacillus (=Bacillus) lentimorbus para el control de larvas de Phyllophaga elenans,"Author
Fernández Redondo, Geovanny
Hidalgo Jaminson, Eduardo
Badilla Fernández, Francisco",Artículos de revistas,http://repositorio.bibliotecaorton.catie.ac.cr/handle/11554/6777?show=full
"Date
2003",Material compostado y Trichoderma harzianum como supresores de Rhizoctonia solani y promotores del crecimiento de la lechuga,"Author
Yossen, V.
Vargas Gil, S.
Díaz, M.P.
Olmos, C.",Artículos de revistas,http://repositorio.bibliotecaorton.catie.ac.cr/handle/11554/6561?show=full
"Date
2005",Micobiota epífita y contaminantes fungosos del establecimiento in vitro de Eucalyptus grandis,"Author
Acosta, M.
Alvarado, Y.
Cruz, M.
Leiva, M.
Delgado, L.",Artículos de revistas,http://repositorio.bibliotecaorton.catie.ac.cr/handle/11554/6575?show=full
"Date
2006",Variação populacional de Phyllocnistis citrella e parasitismo em variedades de citros sob manejo orgánico,"Author
Efrom, Caio F.S.
Redaelli, Luiza R.
Diefenbach, Lúcia M.G.",Artículos de revistas,http://repositorio.bibliotecaorton.catie.ac.cr/handle/11554/6919?show=full
"Date
2003","Nuevos híbridos de tomate, tolerantes al TYLCV","Author
Piñón, M.
Gómez, O.",Artículos de revistas,http://repositorio.bibliotecaorton.catie.ac.cr/handle/11554/6614?show=full
"Date
2004","Riqueza y abundancia de hongos entomógenos en tres sistemas de manejo de cacao en Choroní, Venezuela","Author
Rojas, T.
Goitía, W.",Artículos de revistas,http://repositorio.bibliotecaorton.catie.ac.cr/handle/11554/6788?show=full
"Date
2003",Participación de las familias rurales en procesos de capacitación relacionados con plaguicidas,"Author
Rugama F, R.A.
Guharay, F.",Artículos de revistas,http://repositorio.bibliotecaorton.catie.ac.cr/handle/11554/6635?show=full
"Date
2003",Patogenicidad del virus costarricense del mosaico dorado de Sida (SiGMCRV) en varias especies de plantas cultivadas,"Author
Jovel, J.
Ruiz, E.",Artículos de revistas,http://repositorio.bibliotecaorton.catie.ac.cr/handle/11554/6643?show=full
"Date
1994","Caracterización del huerto mixto tropical La Asunción, Masatepe, Nicaragua","Víquez, Edgar
Prado, Aryeris
Oñoro, Pedro
Solano A, Romeo",Artículos de revistas,http://repositorio.bibliotecaorton.catie.ac.cr/handle/11554/5870?show=full
"Date
2005",Percepciones y valoración de los productores cacaoteros del Alto Beni sobre el Sistema Agroforestal sucesionaol multiestrato,"Author
Quelga Llanque, A.S.",Artículos de revistas,http://repositorio.bibliotecaorton.catie.ac.cr/handle/11554/6655?show=full
"Date
2004",Posibilidades del uso de nematodos entomopatógenos para el control de Aeneolamia varia en caña de azúcar,"Author
Ferrer, F.
Arias, M.
Trelles, A.
Palencia, G.
Navarro, J.M.
Colmenarez, R.",Artículos de revistas,http://repositorio.bibliotecaorton.catie.ac.cr/handle/11554/6679?show=full
"Date
2005",Variabilidades inter e intraespecífica en la susceptibilidad de ácaros fitoseidos a deltametrina en cítricos en Brasil,"Author
Poletti, M.
Omoto, C.",Artículos de revistas,http://repositorio.bibliotecaorton.catie.ac.cr/handle/11554/6915?show=full
"Date
2004",Selección y caracterización genética por RAPD de linajes de Beauveria bassiana para el control de Homalinotus coriaceus,"Author
Araujo, R.P.C.
Ferreira, J.M.S.
Tigano, M.S.
Sarro, F.B.
Costa, C.",Artículos de revistas,http://repositorio.bibliotecaorton.catie.ac.cr/handle/11554/6802?show=full
"Date
2003",Patogenicidad de aislamientos de nucleopolyhedrovirus (NPV) procedentes de larvas de Spodoptera exigua y S. littoralis sobre larvas de S. frugiperda,"Author
Guimaraes, F.R.
Beserra, E.B.
Santiago Alvarez, C.
Vargas Osuna, E.",Artículos de revistas,http://repositorio.bibliotecaorton.catie.ac.cr/handle/11554/6642?show=full
"Date
2003",Factores que afectan la abundancia poblacional de Helicoverpa (heliothis) virescens en tabacco en el noroeste argentino,"Author
Delgado, H.A.
Fedre, D.",Artículos de revistas,http://repositorio.bibliotecaorton.catie.ac.cr/handle/11554/6312?show=full
"Date
2004",AndinoNET: una iniciativa regional de apoyo a la taxonomía de insectos,"Author
Clavijo A, J.A.",Artículos de revistas,http://repositorio.bibliotecaorton.catie.ac.cr/handle/11554/5780?show=full
"Date
2006","Efecto de la rotación cvon leguminosas sobre la productividad del cultivo de piña (Ananas comosus [L.] Merr.) y cultivos intercalados en Tabasco, México","Author
García de la Cruz, Rubén
García Espinosa, Roberto
Rodríguez Guzmán, María del Pilar
González Hernández, Héctor
Palma López, David J.",Artículos de revistas,http://repositorio.bibliotecaorton.catie.ac.cr/handle/11554/6112?show=full
"Date
2004",Las feromonas y sus usos en el manejo integrado de plagas,"Author
Blanco Metzler, H.",Artículos de revistas,http://repositorio.bibliotecaorton.catie.ac.cr/handle/11554/6481?show=full
"Date
2005",Las herramientas moleculares en el control biológico,"Author
Alvarez, J.M.
Menalled, F.
Hoy, M.A.",Artículos de revistas,http://repositorio.bibliotecaorton.catie.ac.cr/handle/11554/6483?show=full
"Date
2005",Luis Angel Salas Fonseca (1915-1999): maestro del diagnóstico agrícola,"Author
Ochoa, R.",Artículos de revistas,http://repositorio.bibliotecaorton.catie.ac.cr/handle/11554/6525?show=full
"Date
2005",La identificación y distribución de los salivazos de la caña de azúcar y los pastos (Homoptera: Cercopidae) en Costa Rica,"Thompson, V.
León González, R.",Artículos de revistas,http://repositorio.bibliotecaorton.catie.ac.cr/handle/11554/6456?show=full
"Date
2009","Condiciones para la implementación del enfoque de cogestión de cuencas en la parte alta de la subcuenca del río Viejo, Nicaragua","Author
Bucardo Hernández, Elías Manolo
Jiménez Otárola, Francisco",Artículos de revistas,http://repositorio.bibliotecaorton.catie.ac.cr/handle/11554/5937?show=full
"Date
2005",Malla de polipropileno para prevenir los daños del virus de la mancha anular en semilleros de papayo (Carica papaya L.) cv. Maradol roja,"Author
Hernández Castro, E.
Marín Lara, N.E.D.
Villanueva Jiménez, J.A.",Artículos de revistas,http://repositorio.bibliotecaorton.catie.ac.cr/handle/11554/6528?show=full
"Date
2003",Compatibilidad de Beauveria bassiana y Metarhizium anisopliae con Nimkol-L para el combate de Heterotermes tenuis,"Author
Castiglioni, E.
Vendramim, J.D.
Alves, S.B.",Artículos de revistas,http://repositorio.bibliotecaorton.catie.ac.cr/handle/11554/5919?show=full
"Date
2006",Compatibilidad de Beauvearia bassiana con fenoxicarb,"Author
Vásquez, Carmen
Saldarriaga, Yamillé
Pineda, Fabio",Artículos de revistas,http://repositorio.bibliotecaorton.catie.ac.cr/handle/11554/5918?show=full
"Date
2005",Comparación del contenido de nutrientes de bokashis elaborados con desechos de fincas del trópico húmedo de Costa Rica,"Author
Leblanc, H.A.
Cerrato, M.E.
Vélex, L.A.",Artículos de revistas,http://repositorio.bibliotecaorton.catie.ac.cr/handle/11554/5916?show=full
"Date
2003",Combate de Liriomyza spp. en crisantemo mediante el uso de una aspiradora,"Author
Huerta P, R.A.
Lomeli Flores, J.R.
Trujillo A, J.
Hernández C, A.",Artículos de revistas,http://repositorio.bibliotecaorton.catie.ac.cr/handle/11554/5900?show=full
"Date
2003","Colletotrichum gloeosporioides, patógeno de orquídeas en el noreste de Argentina","Author
Cabrera, M.G.
Galmarini, M.R.
Flachsland, E.",Artículos de revistas,http://repositorio.bibliotecaorton.catie.ac.cr/handle/11554/5898?show=full
"Date
2006",Control hidrotérmico de Colletotrichum gloeosporiodes Penz en mango (Mangifera indica L.),"Author
Rondón, Olivier
Sanabria de Albarracín, Nelly
Rondón, Amado",Artículos de revistas,http://repositorio.bibliotecaorton.catie.ac.cr/handle/11554/5972?show=full
"Date
2005",La estadística no paramétrica para el análisis e intrpretación de estudios de plagas: alternativas al análisis de varianza,"Author
Santos, Bienlinski M.
Gilreath, James P.
Arbona, Ramón
Pimentel, Angel .R.",Artículos de revistas,http://repositorio.bibliotecaorton.catie.ac.cr/handle/11554/6455?show=full
"Date
2005",Identificación de posibles biotipos de Tagosodes orizicolus en diferentes zonas arroceras de Colombia,"Author
Meneses, R.
Reyes, L.
Calvert, L.
Triana, M.
Cuervo, M.
Duque, M.C.",Artículos de revistas,http://repositorio.bibliotecaorton.catie.ac.cr/handle/11554/6358?show=full
"Date
2003","Inventario y fluctuación de áfidos alados en Caripe, Venezuela","Author
Carrera, A.
Cermeli, M.",Artículos de revistas,http://repositorio.bibliotecaorton.catie.ac.cr/handle/11554/6426?show=full
"Date
2004","Identificación de un nuevo begomovirus en melón (Cucumis melo L.) en Lara, Venezuela","Author
Ramírez, P.
Chicas, M.
Salas, J.
Maxwell, D.
Karkashian, J.",Artículos de revistas,http://repositorio.bibliotecaorton.catie.ac.cr/handle/11554/6361?show=full
"Date
2005",Diagnóstico del uso de insecticidas utilizados contra Bemisia tabaci (Gennadius) en tomate y chile en Costa Rica,"Author
Araya R, L.
Carazo R, E.
Cartín L, V.M.",Artículos de revistas,http://repositorio.bibliotecaorton.catie.ac.cr/handle/11554/6039?show=full
"Date
2006","Cultivo de meristemas, termo y quimioterapia en chayote (Sechium edule Jacq. Sw.) para la erradicación del virus del mosaico del chayote (ChMV)","Author
Abdelnour Esquivel, Ana
Bermudez, L.C.
Alvarenga, S.
Rivera, C.",Artículos de revistas,http://repositorio.bibliotecaorton.catie.ac.cr/handle/11554/6001?show=full
"Date
2004",Cómo medir la calidad de los abonos orgánicos,"Author
Soto, G.
Meléndez, G.",Artículos de revistas,http://repositorio.bibliotecaorton.catie.ac.cr/handle/11554/5911?show=full
"Date
2005",La diversidad de insectos en cítricos y su importancia en los programas de manejo integrado de plagas,"Author
León M, G.A.",Artículos de revistas,http://repositorio.bibliotecaorton.catie.ac.cr/handle/11554/6451?show=full
"Date
2006",Karl Hoffmann: un naturalista en tiempos turbulentos,"Author
Hilje Quirós, Luko",Artículos de revistas,http://repositorio.bibliotecaorton.catie.ac.cr/handle/11554/6438?show=full
"Date
2006",Depredación de Hypothenemus hampei por hormigas durante el secado solar del café,"Author
Vélez, Moisés
Bustillo, Alex E.
Posada, Francisco J.",Artículos de revistas,http://repositorio.bibliotecaorton.catie.ac.cr/handle/11554/6017?show=full
"Date
2005",Depredación por hormigas sobre la broca del café Hypothenemus hampei (Curculionidae: Scolytinae) en cafetales cultivados bajo dos niveles de sombra en Colombia,"Author
Gallego Ropero, M.C.
Armbrecht, I.",Artículos de revistas,http://repositorio.bibliotecaorton.catie.ac.cr/handle/11554/6018?show=full
"Date
2006",Las enfermedades del café: logros y desafíos para la caficultura colombiana del siglo XXI,"Author
Cadena Gómez, Gabriel
Gaitán Bustamante, Alvaro",Artículos de revistas,http://repositorio.bibliotecaorton.catie.ac.cr/handle/11554/6479?show=full
"Date
2003",Joe Saunders: pionero y maestro del manejo integrado de plagas en América Central,"Author
Hilje Quirós, Luko",Artículos de revistas,http://repositorio.bibliotecaorton.catie.ac.cr/handle/11554/6435?show=full
"Date
2004","Detección del viroide de la exocortis en una plantación comercial de naranja dulce, utilizando la selección 861-S1 del cidro Etrog (Citrus medica L.)","Author
Villalobos, W.
Moreira, L.
Alfaro, V.H.
Yglesias, G.
Rivera, C.",Artículos de revistas,http://repositorio.bibliotecaorton.catie.ac.cr/handle/11554/6034?show=full
"Date
2003",Insectos polinizadores de frutales tropicales: no solo las abejas llevan la miel al panal,"Author
Peña, J.E.",Artículos de revistas,http://repositorio.bibliotecaorton.catie.ac.cr/handle/11554/6417?show=full
"Date
2006",Inmersión y riego con vermicompost líquido de secciones de cormos del clon Dominico-Harton (Musa AAB),"Author
Tremont, Omar
Mogollón, José P.
Martínez, Gustavo",Artículos de revistas,http://repositorio.bibliotecaorton.catie.ac.cr/handle/11554/6412?show=full
"Date
2003",Determinación del sexo del picudo en chile,"Author
Pérez J, O.
Blanco M, H.",Artículos de revistas,http://repositorio.bibliotecaorton.catie.ac.cr/handle/11554/6037?show=full
"Date
2006",Ing. Agr. Oscar Demetrio Beingolea Guerrero (1920-2001): entomólogo agrícola y cultor de principios bioecológicos,"Aguilar Fenández, Pedro G.",Artículos de revistas,http://repositorio.bibliotecaorton.catie.ac.cr/handle/11554/6410?show=full
"Date
2004","Incidencia de moscas de la fruta de importancia económica sobre Citrus aurantium (Rutaceae) en Tucumán, Argentina","Author
Schliserman, P.
Ovruski, S.M.",Artículos de revistas,http://repositorio.bibliotecaorton.catie.ac.cr/handle/11554/6381?show=full
"Date
2003","Evaluación de fuentes de fertilización orgánica para tomate de invernadero en Oaxaca, México","Author
Mendoza Netzahual, H.
Carrillo Rodríguez, J.C.
Perales Segovia, C.
Ruiz Vega, J.",Artículos de revistas,http://repositorio.bibliotecaorton.catie.ac.cr/handle/11554/6264?show=full
"Date
2003",La taxonomía en el control biológico de malezas,"Author
Maes, J.M.",Artículos de revistas,http://repositorio.bibliotecaorton.catie.ac.cr/handle/11554/6473?show=full
"Date
2003",Crianza de artrópodos para el control biológico de malezas,"Author
Norambuena, H.",Artículos de revistas,http://repositorio.bibliotecaorton.catie.ac.cr/handle/11554/5989?show=full
"Date
2004",Control biológico de malezas en sistemas acuáticos y en áreas pantanosas en los Estados Unidos,"Author
Cuda, J.
Buckingham, G.
Medal, J.",Artículos de revistas,http://repositorio.bibliotecaorton.catie.ac.cr/handle/11554/5967?show=full
"Date
2003",Enmiendas y microorganismos antagonistas para el manejo de Pseudomonas solanacearum en tomate,"Author
Díaz B, J.U.
Bustamante Rojas, Elkin
Sánchez G, V.
Schlonvoigt, A.",Artículos de revistas,http://repositorio.bibliotecaorton.catie.ac.cr/handle/11554/6205?show=full
"Date
2003","Entomofauna asociada a maíz de temporal con diferentes manejos de malezas en Chiapas, México","Author
Silva Aparicio, M.
Castro Ramírez, A.E.
León Cortés, J.L.
Ishiki Ishihara, M.",Artículos de revistas,http://repositorio.bibliotecaorton.catie.ac.cr/handle/11554/6213?show=full
"Date
2003",Escala para estimar el daño de insectos en el maíz almacenado,"Author
Silva A, G.
Lagunes T, A.
Rodríguez, J.C.
Rodríguez L, D.",Artículos de revistas,http://repositorio.bibliotecaorton.catie.ac.cr/handle/11554/6215?show=full
"Date
1999",El mito del manejo seguro de los plaguicidas en los países en desarrollo,"Author
García, Jaime E.",Artículos de revistas,http://repositorio.bibliotecaorton.catie.ac.cr/handle/11554/7188?show=full
"Date
2006",Distribución vertical de las orugas de Alabama argillacea (Hubner) (Lepidoptera: Noctuidae) en plantas de algodón,"Author
Fernandes, Marco Gino
Silva, Anderson Miguel
Degrande, Paulo Eduardo
Cubas, Antonio Carlos",Artículos de revistas,http://repositorio.bibliotecaorton.catie.ac.cr/handle/11554/6072?show=full
"Date
2005","Evaluación de formulaciones de Beauveria bassiana (Vuill.) en el campo contra el picudo de la yema del manzano Amphidees spp. (Coleoptera: Curculionidae) en Arteaga, Coahuila, México","Author
Gallegos Morales, G.
Olayo Paredes, R.P.
Guerrero Rodríguez, E.
Sánchez Valdez, V.M.
Sánchez Pérez, F. de J.
Cepeda Siller, M.",Artículos de revistas,http://repositorio.bibliotecaorton.catie.ac.cr/handle/11554/6263?show=full
"Date
2006",Enfermedades de las semillas de soja en Argentina,"Author
Gally, Teresa",Artículos de revistas,http://repositorio.bibliotecaorton.catie.ac.cr/handle/11554/6204?show=full
"Date
2003","Evaluación de la fecundidad de hembras de Phyllophaga obsoleta capturadas con trampas de luz en La Esperanza, Honduras","Author
Vásquez, L.",Artículos de revistas,http://repositorio.bibliotecaorton.catie.ac.cr/handle/11554/6273?show=full
"Date
2005",Fluctuación poblacional de Carpophilus sp. en huertos de guayaba sometidos a dos métodos de pulverización de fentión,"Author
Galli, Julio César
Senö, K.C.A.
Carareto, E.C.B.",Artículos de revistas,http://repositorio.bibliotecaorton.catie.ac.cr/handle/11554/6330?show=full
"Date
2003",Control biológico de malezas en Chile: experiencias para la implementación rápida de proyectos,"Author
Norambuena, H.",Artículos de revistas,http://repositorio.bibliotecaorton.catie.ac.cr/handle/11554/5966?show=full
"Date
2005",Dr. Leslie R. Holdridge: la capacidad de crear a partir de lo cotidiano,"Author
Jiménez Saa, H.",Artículos de revistas,http://repositorio.bibliotecaorton.catie.ac.cr/handle/11554/6086?show=full
"Date
2006",Falsa mancha angular del frijol: una enfermedad que avanza en Costa Rica,"
Barrantes S., Walter
Araya F., Carlos Manuel
Esquivel H., Alejandro",Artículos de revistas,http://repositorio.bibliotecaorton.catie.ac.cr/handle/11554/6314?show=full
"Date
2004",Efecto bioherbicida de extractos vegetales para el manejo de malezas en algodón en el Caribe Colombiano,"Author
Jarma Orozco, A.J.
Tirado G, G.R.",Artículos de revistas,http://repositorio.bibliotecaorton.catie.ac.cr/handle/11554/6098?show=full
"Date
2003","Factores que influyen en la abundancia de Steneotarsonemus spinki en arroz, en Cuba","Author
Miranda Cabrera, I.
Ramos L, M.
Fernández, B.M.",Artículos de revistas,http://repositorio.bibliotecaorton.catie.ac.cr/handle/11554/6313?show=full
"Date
2006",Flutuação populacional de adultos de Chrysoperla externa (Hagen 1861) (Neuroptera: Chrysopidae) em cafeeiros conduzidos em sistemas orgânico e convencional,"Author
Silva, Rogéiro Antonio
Reis, Paulo Rebelles
Souza, Brigida
Carvalho, César Freire
Carvalho, Geraldo Andrade
Cosme, Luciano Veiga",Artículos de revistas,http://repositorio.bibliotecaorton.catie.ac.cr/handle/11554/6328?show=full
"Date
2006",El ser humano y la economía de la naturaleza,"Author
Cure, José R.
Gutiérrez, Andrew P.",Artículos de revistas,http://repositorio.bibliotecaorton.catie.ac.cr/handle/11554/6189?show=full
"Date
2015-09-06",Informe País 2010: Guatemala,Author CATIE,Artículos de revistas,http://repositorio.bibliotecaorton.catie.ac.cr/handle/11554/7838?show=full
"Date
2005","Estudio exploratorio de los problemas de salud humana derivados del uso de plaguicidas en Bella Vista, Estado de México, México","Author
Oliva, M.
Rodríguez, J.C.
Silva, G.",Artículos de revistas,http://repositorio.bibliotecaorton.catie.ac.cr/handle/11554/6248?show=full
"Date
2003",Distribución agroecológica de enfermedades del frijol en Costa Rica,"Author
Araya F, C.M.
Hernández F, J.C.",Artículos de revistas,http://repositorio.bibliotecaorton.catie.ac.cr/handle/11554/6067?show=full
"Date
2003",Estatus del manejo de Bemisia tabaci en América Latina y el Caribe: ocho preguntas pertinentes,"Author
Hilje Quirós, Luko",Artículos de revistas,http://repositorio.bibliotecaorton.catie.ac.cr/handle/11554/6231?show=full
"Date
2004",Luis Alberto Fournier Origgi: docencia e investigación universitaria en pro del desarrollo sostenible,"Author
García G, J.E.
Di Stéfano, J.F.",Artículos de revistas,http://repositorio.bibliotecaorton.catie.ac.cr/handle/11554/6524?show=full
"Date
2004","Control del saltahojas de la caña de azúcar Perkinsiella saccharicida con los hongos Metarhizium anisopliae y Beauveria bassiana en el ingenio San Carlos, en Ecuador","Author
Badilla Fernández, Francisco
Jara, W.
Gordillo, W.",Artículos de revistas,http://repositorio.bibliotecaorton.catie.ac.cr/handle/11554/5971?show=full
"Date
2003","Evaluación de diseños de trampa, altura de colocación y tamaño de dispensadores de feromona en la captura de adultos de Spodoptera frugiperda","Author
Salas, J.",Artículos de revistas,http://repositorio.bibliotecaorton.catie.ac.cr/handle/11554/6261?show=full
"Date
2003",Eficacia del farnesol y de un extracto de semilla de ayote como repelentes de Atta mexicana,"Author
Palacios F, F.Y.
Gladstone, S.",Artículos de revistas,http://repositorio.bibliotecaorton.catie.ac.cr/handle/11554/6133?show=full
"Date
2006",Manejo de la fertilidad de suelos e insectos plaga: armonizando la salud del suelo y la salud de las plantas en los agroecosistemas,"Author
Nicholls Estrada, Clara Inés
Altieri, Miguel Angel",Artículos de revistas,http://repositorio.bibliotecaorton.catie.ac.cr/handle/11554/6535?show=full
"Date
2003","El caucho, un hongo y la guerra: los orígenes del CATIE en Turrialba","Author
Hilje Quirós, Luko",Artículos de revistas,http://repositorio.bibliotecaorton.catie.ac.cr/handle/11554/6146?show=full
"Date
2005",¿Existe la tolerancia genética del cacao (Theobroma cacao) a Rosellinia bunodes y Rosellinia pepo?,"García Córdoba, J.
George, A.
Argyle, T.
Hoopen, M. ten
Krauss, U.",Artículos de revistas,http://repositorio.bibliotecaorton.catie.ac.cr/handle/11554/6960?show=full
"Date
2005","Evaluación de atrayentes alimenticios para la captura de la mosca mexicana de la fruta (Diptera: Tephritidae) en el Soconusco, Chiapas, México","Author
Ríos, E.
Toledo, J.
Mota Sanchez, D.",Artículos de revistas,http://repositorio.bibliotecaorton.catie.ac.cr/handle/11554/6256?show=full
"Date
2003",Evaluación de extractos de meliáceas para el control de Heterotermes tenuis,"Author
Castiglioni, E.
Vendramim, J.D.",Artículos de revistas,http://repositorio.bibliotecaorton.catie.ac.cr/handle/11554/6262?show=full
"Date
2004",Germinación y reproducción in vitro de la bacteria Paenibacillus (= Bacillus) lentimorbus,"Author
Fernández Redondo, Geovanny
Hidalgo Jaminson, Eduardo
Badilla Fernández, Francisco",Artículos de revistas,http://repositorio.bibliotecaorton.catie.ac.cr/handle/11554/6343?show=full
"Date
2006",El injerto en la producción de cacao orgánico,"Author
Echeverri Rodríguez, Jorge H.",Artículos de revistas,http://repositorio.bibliotecaorton.catie.ac.cr/handle/11554/6411?show=full
"Date
2006",El efecto de prácticas agronómicas sobre el nivel poblacional de áfidos y virosis en Carica papaya L.,"Author
Robles, Wilfredo
Pantoja, Alberto
Abreu, Edwin
Peña, Jorge
Ortiz, Juan
Lugo, María de L.
Cortés, Mildred
Macchiavelli, Raúl",Artículos de revistas,http://repositorio.bibliotecaorton.catie.ac.cr/handle/11554/6159?show=full
"Date
2003","Evaluación de aceites vegetales de diferentes características secantes sobre Bemisia tabaci, en melón","Author
Paula Neto, F.L. de
Bleicher, E.",Artículos de revistas,http://repositorio.bibliotecaorton.catie.ac.cr/handle/11554/6254?show=full
"Date
2008",Taller de ordenamiento territorial comunitario. Cuaderno de capacitación,"Author
Monge, M.",Libros,http://repositorio.bibliotecaorton.catie.ac.cr/handle/11554/4169?show=full
"Date
2007","Talleres en organización empresarial y comercialización para iniciativas empresariales asociativas de la Selva Chiapas, México. Talleres empresariales. Guía de facilitación","Author
Junkin, R.",Libros,http://repositorio.bibliotecaorton.catie.ac.cr/handle/11554/4170?show=full
"Date
2007","Escuela de campo para promotoras y promotores de la Selva, Chiapas, México. Módulo 4. Manejo forestal. Cuaderno de capacitación","Author
Villalobos Soto, Róger
Detlefsen Rivera, Guillermo
Gutiérrez Montes, Isabel A.
Rivas Platero, Gonzalo G.",Libros,http://repositorio.bibliotecaorton.catie.ac.cr/handle/11554/2972?show=full
"Date
2010",24 recetas con quinua: una opción para la seguridad alimentaria de los pueblos andinos de Colombia,"Metadata
Show full item record",Libros,http://repositorio.bibliotecaorton.catie.ac.cr/handle/11554/31?show=full
"Date
2015",Agroforestry: Essential for Sustainable and Climate-Smart Land Use?,"Author
Muschler, Reinhold G.",Libros,http://repositorio.bibliotecaorton.catie.ac.cr/handle/11554/8309?show=full
"Date
2008",Coaching para la promoción de cambios en la comunidad y el desarrollo rural. Cuaderno de capacitación,"Author
Emery, Mary
Gutiérrez Montes, Isabel A.
Rivas Platero, Gonzalo G.",Libros,http://repositorio.bibliotecaorton.catie.ac.cr/handle/11554/7016?show=full
"Date
2010","El PIA desde el principio: 2008 y 2009 Logros, desafíos y oportunidades. Sistematización del Programa Integral de Alimentos (PIA). Documento final","Author
Baker Botelho, A.C.
Melo Virginio Filho, E. de",Libros,http://repositorio.bibliotecaorton.catie.ac.cr/handle/11554/1587?show=full
"Date
2013","El rol de los sistemas cacaoteros en los medios de vida de los hogares productores en el Municipio de Cortés, Honduras","Author
Hipólito Romero, Enrique
Junkin, Ruth
Escobedo Aguilar, Adriana",Libros,http://repositorio.bibliotecaorton.catie.ac.cr/handle/11554/1597?show=full
"Date
2008","La raíz del conocimiento científico explícito sobre el trópico americano, enclavada en el Valle de Turrialba, acto de juramentación de José Joaquín Campos como Director General del CATIE período 2008 - 2012, 29 de febrero 2008","Author
Páez Bogarín, G.",Libros,http://repositorio.bibliotecaorton.catie.ac.cr/handle/11554/2802?show=full
"Date
2015-11-03","Escalonando aprendizajes de lo sectorial a lo territorial, experiencias del MAP en la región del Trifinio","Author
Padilla, Danilo",Libros,http://repositorio.bibliotecaorton.catie.ac.cr/handle/11554/7841?show=full
"Date
2007","Escuela de Campo para promotoras y promotores de la Selva. Chiapas, México. Módulo 5. Producción orgánica y agroforestal de cultivos perennes (café). Cuaderno de capacitación","Author
Muschler, Reinhold
Gutiérrez Montes, Isabel A.
Rivas Platero, Gonzalo G.",Libros,http://repositorio.bibliotecaorton.catie.ac.cr/handle/11554/3519?show=full
"Date
2008",Cogestión de cuencas hidrográficas: experiencias y desafíos,"Author
Benegas, L. (ed.)
Faustino, Jorge",Libros,http://repositorio.bibliotecaorton.catie.ac.cr/handle/11554/802?show=full
"Date
2013","El rol de los sistemas cacaoteros en los medios de vida de los hogares productores del Cantón de Talamanca, Costa Rica","Author
Cárdenas Herrera, Adriana
Hipólito Romero, Enrique
Junkin, Ruth
Escobedo Aguilar, Adriana",Libros,http://repositorio.bibliotecaorton.catie.ac.cr/handle/11554/1596?show=full
"Date
2013",Bancos comunitarios de semillas criollas : una opción para la conservación de la agrobiodiversidad,"Author
Rivas Platero, Gonzalo G.
Rodríguez Cortés, Angela M.
Padilla Castillo, Danilo
Hernández Hernández, Liseth
Suchini Ramírez, José G.",Libros,http://repositorio.bibliotecaorton.catie.ac.cr/handle/11554/7184?show=full
"Date
2013",Guía para el sondeo agroecológico de suelos y cultivos,"Padilla, Danilo",Libros,http://repositorio.bibliotecaorton.catie.ac.cr/handle/11554/2265?show=full
"Date
2013-06-05",Injertos y otras técnicas de propagación del cacao,"Author
Somarriba, Eduardo
Astorga Domian, Carlos
Vásquez Morera, Nelly
Cerda Bustillos, Rolando
Orozco Aguilar, Luis
Quesada Chaverri, Francisco",Libros,http://repositorio.bibliotecaorton.catie.ac.cr/handle/11554/7734?show=full
"Date
2012",Informe de país: Logros e impactos 2011 Oficina Técnica Nacional Honduras,"Author
Palacios, Herminia",Libros,http://repositorio.bibliotecaorton.catie.ac.cr/handle/11554/7880?show=full
"Date
2013-06-06",Políticas y sistemas de incentivos para el fomento y adopción de buenas prácticas agrícolas: como una medida de adaptación al cambio climático en América Central,"Author
Sepúlveda López, Claudia J.
Ibrahim, Muhammad Akbar",Libros,http://repositorio.bibliotecaorton.catie.ac.cr/handle/11554/7964?show=full
"Date
2013-06-04",Innovaciones agroecológicas para una producción agropecuaria sostenible en la región del Trifinio,"Author
Suchini Ramírez, José Gabriel",Libros,http://repositorio.bibliotecaorton.catie.ac.cr/handle/11554/7790?show=full
"Date
2015-11-03",Informe de país: Logros e impactos 2011,"Author
Juárez, Modesto",Libros,http://repositorio.bibliotecaorton.catie.ac.cr/handle/11554/7850?show=full
"Date
2007",El manejo integral de la unidad de producción y la seguridad alimentaria: Módulo 2.,"Author
Rivas Platero, Gonzalo G.
Gutiérrez Montes, Isabel A.
Yépez Pacheco, Cristina
Vega Márquez, Lina
Pinto Decelis, Gustavo",Libros,http://repositorio.bibliotecaorton.catie.ac.cr/handle/11554/7013?show=full
"Date
2015","Sistemas agroforestales: funciones productivas, socioeconómicas y ambientales","Author
Montagnini, Florencia
Somarriba, Eduardo
Fassola, Hugo
Eibl, Beatriz",Libros,http://repositorio.bibliotecaorton.catie.ac.cr/handle/11554/7124?show=full
"Date
2007","Escuela de campo para promotoras y promotores de la Selva. Chiapas, México. Módulo 10. Manejo integral de la granja porcícola. Cuaderno de capacitación","Author
Calvo Vargas, Bernal
Gutiérrez Montes, Isabel A.
Rivas Platero, Gonzalo G.",Libros,http://repositorio.bibliotecaorton.catie.ac.cr/handle/11554/2981?show=full
"Date
2006",Highlights 2005,"Metadata
Show full item record",Libros,http://repositorio.bibliotecaorton.catie.ac.cr/handle/11554/2293?show=full
"Date
2013",Las plantaciones de teca en América Latina,"Author
Camino Velozo, Ronnie de",Libros,http://repositorio.bibliotecaorton.catie.ac.cr/handle/11554/2854?show=full
"Date
2004",Libro,"Author
Somarriba, Eduardo
Stoian, Dietmar
Zelada, Efraín",Libros,http://repositorio.bibliotecaorton.catie.ac.cr/handle/11554/7010?show=full
"Date
2007","Escuela de campo para promotores y promotoras de La Selva, Chiapas, México. Módulo 3. Organización empresarial para la comercialización. Cuaderno de capacitación","Author
Junkin, Ruth
Pinto Decelis, Gustavo
Gutiérrez Montes, Isabel A.
Rivas Platero, Gonzalo G.",Libros,http://repositorio.bibliotecaorton.catie.ac.cr/handle/11554/1671?show=full
"Date
2007","Escuela de campo para promotores y promotoras de La Selva Chiapas, México. Módulo1. Desarrollo rural participativo y equitativo. Cuaderno de trabajo","Author
Gutiérrez Montes, Isabel A.
Rivas Platero, Gonzalo G.
Yepez Pacheco, Cristina
Quintero Sánchez, Noel Noé
Pinto Decelis, Gustavo
Vega Márquez, Lina",Libros,http://repositorio.bibliotecaorton.catie.ac.cr/handle/11554/1668?show=full
"Date
2007","Escuela de campo para promotoras y promotores de la Selva. Chiapas, México. Módulo 8. Sistemas silvopastoriles y apicultura. Cuaderno de capacitación","Author
Sepúlveda López, Claudia J.
Casasola Coto, Francisco
Ibrahim, Muhammad Akbar
Villanueva, Cristóbal
Arguello, Omar
Gutiérrez Montes, Isabel A.
Rivas Platero, Gonzalo G.",Libros,http://repositorio.bibliotecaorton.catie.ac.cr/handle/11554/4027?show=full
"Date
2010",ABC del cambio climático en Mesoamérica,"Author
Cifuentes Jara, Miguel",Libros,http://repositorio.bibliotecaorton.catie.ac.cr/handle/11554/8371?show=full
"Date
2015-11-03",Linking plant strategies and ecosystem function: an assessment of the contribution of biodiversity to neotropical grassland productivity,"Author
Ospina Hernández, Sonia Daryuby",Libros,http://repositorio.bibliotecaorton.catie.ac.cr/handle/11554/7852?show=full
"Date
2016",Redacción de referencias bibliográficas : normas técnicas para ciencias agroalimentarias. 5. edición,"Metadata
Show full item record",Libros,http://repositorio.bibliotecaorton.catie.ac.cr/handle/11554/8341?show=full
"Date
2009",Revista Recursos Naturales y Ambiente No. 56-57,"Metadata
Show full item record",Revista,http://repositorio.bibliotecaorton.catie.ac.cr/handle/11554/7306?show=full
"Date
2003",Manejo Integrado de Plagas y Agroecología. Número 70. Revista Completa,"Metadata
Show full item record",Revista,http://repositorio.bibliotecaorton.catie.ac.cr/handle/11554/7634?show=full
"Date
2002",Manejo Integrado de Plagas y Agroecología. Número 64. Revista Completa,CATIE,Revista,http://repositorio.bibliotecaorton.catie.ac.cr/handle/11554/7543?show=full
"Date
2003",Manejo Integrado de Plagas y Agroecología. Número 68. Revista Completa,"Metadata
Show full item record",Revista,http://repositorio.bibliotecaorton.catie.ac.cr/handle/11554/7630?show=full
"Date
2003",Manejo Integrado de Plagas y Agroecología. Número 67. Revista Completa,CATIE,Revista,http://repositorio.bibliotecaorton.catie.ac.cr/handle/11554/7620?show=full
"Date
2004",Manejo Integrado de Plagas y Agroecología. Número 71. Revista Completa,CATIE,Revista,http://repositorio.bibliotecaorton.catie.ac.cr/handle/11554/7637?show=full
"Date
2003",Manejo Integrado de Plagas y Agroecología. Número 69. Revista Completa,CATIE,Revista,http://repositorio.bibliotecaorton.catie.ac.cr/handle/11554/7632?show=full
"Date
2004",Manejo Integrado de Plagas y Agroecología. Número 72. Revista Completa,CATIE,Revista,http://repositorio.bibliotecaorton.catie.ac.cr/handle/11554/7639?show=full
"Date
2005",Manejo Integrado de Plagas y Agroecología. Número 75. Revista Completa,CATIE,Revista,http://repositorio.bibliotecaorton.catie.ac.cr/handle/11554/7650?show=full
"Date
2005",Agroforestería en las Américas No. 43-44. Revista Completa,"Metadata
Show full item record",Revista,http://repositorio.bibliotecaorton.catie.ac.cr/handle/11554/7614?show=full
"Date
2004",Manejo Integrado de Plagas y Agroecología. Número 73. Revista Completa,CATIE,Revista,http://repositorio.bibliotecaorton.catie.ac.cr/handle/11554/7641?show=full
"Date
2005",Manejo Integrado de Plagas y Agroecología. Número 74. Revista Completa,CATIE,Revista,http://repositorio.bibliotecaorton.catie.ac.cr/handle/11554/7644?show=full
"Date
2009",Agroforestería en las Américas No. 47. Revista Completa,"Metadata
Show full item record",Revista,http://repositorio.bibliotecaorton.catie.ac.cr/handle/11554/7618?show=full
"Date
2006",Manejo Integrado de Plagas y Agroecología. Número 77. Revista Completa,"Metadata
Show full item record",Revista,http://repositorio.bibliotecaorton.catie.ac.cr/handle/11554/7646?show=full
"Date
2006",Manejo Integrado de Plagas y Agroecología. Número 78. Revista Completa,CATIE,Revista,http://repositorio.bibliotecaorton.catie.ac.cr/handle/11554/7647?show=full
"Date
2007",Manejo Integrado de Plagas y Agroecología. Número 79-80. Revista Completa,CATIE,Revista,http://repositorio.bibliotecaorton.catie.ac.cr/handle/11554/7649?show=full
"Date
2013",Agroforestería en las Américas No. 50. Revista Completa,"Metadata
Show full item record",Revista,http://repositorio.bibliotecaorton.catie.ac.cr/handle/11554/7296?show=full
"Date
2010",Revista Recursos Naturales y Ambiente No. 59-60,"Metadata
Show full item record",Revista,http://repositorio.bibliotecaorton.catie.ac.cr/handle/11554/7156?show=full
"Date
2005",Manejo Integrado de Plagas y Agroecología. Número 76. Revista Completa,CATIE,Revista,http://repositorio.bibliotecaorton.catie.ac.cr/handle/11554/7645?show=full
"Date
1999",Manejo Integrado de Plagas No. 52. Revista completa,"Author
Varios",Revista,http://repositorio.bibliotecaorton.catie.ac.cr/handle/11554/7197?show=full
"Date
2001",Manejo Integrado de Plagas. Número 60. Revista Completa,"Metadata
Show full item record",Revista,http://repositorio.bibliotecaorton.catie.ac.cr/handle/11554/7536?show=full
"Date
2011","Capitales de vida: las familias productoras de quinua, sus capitales y la seguridad alimentaria en la provincia centro de Boyacá, Colombia","Author
Higuera Mora, Nubia C.
Rivas Platero, Gonzalo G.
Gutiérrez Montes, Isabel A.
Cárdenas Chacón, Jeanette M.
Cárdenas Bejarano, Gustavo E.
García González, Daniel G.
González, Edelmira",Serie Divulgativa,http://repositorio.bibliotecaorton.catie.ac.cr/handle/11554/8628?show=full
"Date
2017",Manual para el establecimiento y manejo agroecológico de patios y huertos comunitarios,"Author
Suchini, José Gabriel
Taleno, Sayra
Soto, Gabriela",Serie Técnica. Informe Técnico,http://repositorio.bibliotecaorton.catie.ac.cr/handle/11554/8653?show=full
"Date
2010","Efecto del uso del suelo adyacente al cafetal sobre la dispersión y dinámica poblacional de la broca Hypothenemus hampei Ferrari y la abundancia de enemigos naturales en el cantón de Turrialba, Costa Rica","Author
Olivas, A.P.",Tesis,http://repositorio.bibliotecaorton.catie.ac.cr/handle/11554/1434?show=full
"Date
2011",Efecto de la sombra y del manejo del café sobre la dinámica poblacional de (Hypothenemus hampei Ferrari) en frutos nuevos y remanentes en Turrialba,"Author
Sánchez González, Esteban",Tesis,http://repositorio.bibliotecaorton.catie.ac.cr/handle/11554/4873?show=full
"Date
2014","Facilitación participativa del Plan Estratégico del Bosque Modelo Caçador, Santa Catarina, Brasil","Author
Faro, Julia",Tesis,http://repositorio.bibliotecaorton.catie.ac.cr/handle/11554/7164?show=full
"Date
2014","Efecto de la sombra del café y el manejo sobre la incidencia, severidad, cantidad de inóculo y dispersión de Hemileia vastatrix en Turrialba, Costa Rcia","Author
Pico Rosado, Jimmy T.",Tesis,http://repositorio.bibliotecaorton.catie.ac.cr/handle/11554/7054?show=full
"Date
2006","Efecto de la Producción orgánica y convencional de chile dulce (Capsicum annuum) bajo invernadero sobre el componente planta-suelo en el cantón de Alfaro Ruiz, Costa Rica","Author
Samaniego Sánchez, R.D.",Tesis,http://repositorio.bibliotecaorton.catie.ac.cr/handle/11554/4225?show=full
"Date
2016","Factores socioeconómicos que influyen sobre la presencia de árboles en fincas del paisaje Centinela Nicaragua-Honduras, en Nicaragua","Author
Santos, Moreira Nayara dos",Tesis,http://repositorio.bibliotecaorton.catie.ac.cr/handle/11554/8592?show=full
"Date
2015","Educación ambiental en Kenscoff, Haití : una necesidad insatisfecha","Author
Laforest, Stephany",Tesis,http://repositorio.bibliotecaorton.catie.ac.cr/handle/11554/7211?show=full
"Date
2006","Efecto de los sistemas agroforestales de café orgánico y convencional sobre las características de suelos en el Corredor Biológico Turrialba-Jiménez, Costa Rica","Author
Porras Vanegas, Claudia M.",Tesis,http://repositorio.bibliotecaorton.catie.ac.cr/handle/11554/4881?show=full
"Date
2012","Evaluación de la percepción y los factores determinantes en la implementación de medidas de adaptación al cambio y variabilidad climática por los productores de leche de la cuenca del río La Villa, Panamá","Author
Velarde Andrade, Luz Marina",Tesis,http://repositorio.bibliotecaorton.catie.ac.cr/handle/11554/1947?show=full
"Date
2016","Determinación de medios y estrategias de vida, nutrición rural y uso de agro biodiversidad con enfoque de género para el desarrollo sostenible en cuatro comunidades del municipio de Waslala, región autónoma del Atlántico Norte, Nicaragua","Author
Gutiérrez Velásquez, Claudia",Tesis,http://repositorio.bibliotecaorton.catie.ac.cr/handle/11554/8595?show=full
"Date
2007","Determinación de indicadores agroecológicos en sistemas agroforestales y de medios de vida de fincas cafeteras de Colombia, Costa Rica y Nicaragua","Author
Bermúdez Cardona, María B.",Tesis,http://repositorio.bibliotecaorton.catie.ac.cr/handle/11554/4768?show=full
"Date
2007","Escalamiento de los procesos y experiencias de cogestión de cuencas en la subcuenca del Río Aguas Calientes a la subcuenca del Río Inalí y la subcuenca del Río Musunce, Nicaragua","Author
Benavides López, D. N.",Tesis,http://repositorio.bibliotecaorton.catie.ac.cr/handle/11554/3930?show=full
"Date
2008","Escalamiento de experiencias de cogestión de cuencas del río Jucuapa a la parte alta de la subcuenca del río Viejo, Jinotega Nicaragua","Author
Bucardo Hernández, Elías M.",Tesis,http://repositorio.bibliotecaorton.catie.ac.cr/handle/11554/3256?show=full
"Date
2015","Equidad y bioculturalidad: su contribución a la seguridad alimentaria y el desarrollo local sostenible en la Huasteca Baja Veracruzana, Veracruz, México","Author
Dimas Celestino, César",Tesis,http://repositorio.bibliotecaorton.catie.ac.cr/handle/11554/8153?show=full
"Date
2011","Estimated investment cost for the implementation of good practices in livestock farms to choose a sustainable certification: case study of the region Esparza, Costa Rica","Author
Castro Vargas, R.E.",Tesis,http://repositorio.bibliotecaorton.catie.ac.cr/handle/11554/1708?show=full
"Date
2009","Estimation of tree cover contribution to climate regulation and biodiversity conservation: a methodology design and application in Chiapas, México","Author
Marinidou, Eleni",Tesis,http://repositorio.bibliotecaorton.catie.ac.cr/handle/11554/4974?show=full
"Date
2010","Estrategias de vida de los hogares rurales como punto de partida para el desarrollo empresarial rural en Alto Beni, Bolivia","Author
Abruzzese Aguirre, Renzo A.",Tesis,http://repositorio.bibliotecaorton.catie.ac.cr/handle/11554/3925?show=full
"Date
2016","Estándar para el aprovechamiento económico sostenible de los sistemas de uso directo (productivos agropecuarios y extractivos), indirecto (servicios ecoturísticos y locales) y su combinación (artesanía), en áreas protegidas traslapadas con grupos étnicos de Parques Nacionales Naturales de Colombia","Author
Rozo Melo, Adriana M.",Tesis,http://repositorio.bibliotecaorton.catie.ac.cr/handle/11554/8605?show=full
"Date
2004","Evaluation of land use capacity for cabbage, corn and carrot crops under two different technologies in the La Soledad micro-watershed in the Valle de Angeles, Honduras","Author
Parrado Grajales, Francisco J.",Tesis,http://repositorio.bibliotecaorton.catie.ac.cr/handle/11554/5101?show=full
"Date
2011",Diversification of livelihoods of rural families and its relevance for the agro-ecosystems of El Paraíso (Honduras) and Jalapa (Nicaragua),"Author
Pinoth Arguijo, Rut E.",Tesis,http://repositorio.bibliotecaorton.catie.ac.cr/handle/11554/4816?show=full
"Date
2009","Evaluación metodológica del enfoque de ecoagricultura para medir el desempeño de un paisaje con matríz agropecuaria en la subcuenca del río Copán, Honduras","Author
Bejarano Banegas, Luis F.",Tesis,http://repositorio.bibliotecaorton.catie.ac.cr/handle/11554/2017?show=full
"Date
2005","Effects of the altitude, shade, production and fertilization on coffee quality (Coffea arabica L. var. Caturra) produced in agroforestry systems of coffee zone Northern Central of Nicaragua","Author
Lara Estrada, L.D.",Tesis,http://repositorio.bibliotecaorton.catie.ac.cr/handle/11554/1503?show=full
"Date
2011",Identificación de la vulnerabilidad en los medios de vida de las familias cafetaleras y sus posibles estrategias de adaptación al cambio climático en el norte de Nicaragua,"Author
Baca Gómez, María G.",Tesis,http://repositorio.bibliotecaorton.catie.ac.cr/handle/11554/5194?show=full
"Date
2016","Diversidad y almacenamiento de carbono, en dos sitios con diferente grado de intensificación de uso de suelo de Nicaragua","Author
Caicedo Albán, Willan J.",Tesis,http://repositorio.bibliotecaorton.catie.ac.cr/handle/11554/8278?show=full
"Date
2005","Diseño y manejo de cafetales en Matagalpa, Nicaragua","Author
Caballero Herrera, Alfredo R.",Tesis,http://repositorio.bibliotecaorton.catie.ac.cr/handle/11554/4803?show=full
"Date
2009","Impact of the recovery of vegetation, and vigilance and monitoring of protected areas programs of The Fund for the Protection of Water, Quito-Ecuador","Author
Coronel Tapia, Lorena",Tesis,http://repositorio.bibliotecaorton.catie.ac.cr/handle/11554/5209?show=full
"Date
2013","Impacto de las escuelas de campo en familias y fincas cacaoteras de Alta Verapaz y Costa Sur, Guatemala","Author
Delgado Vargas, Iván Andrés",Tesis,http://repositorio.bibliotecaorton.catie.ac.cr/handle/11554/5211?show=full
"Date
2013","Impacto de las escuelas de campo en familias y fincas cacaoteras de Upala y Talamanca, Costa Rica","Author
Castro Vargas, Esmeralda",Tesis,http://repositorio.bibliotecaorton.catie.ac.cr/handle/11554/2341?show=full
"Date
2012","Impacto socioeconómico y ambiental de la certificación orgánica-comercio justo de café (Coffea arabica) en la Región Frailesca, Chiapas, México","Author
Aguilar Ruiz, Julio A.",Tesis,http://repositorio.bibliotecaorton.catie.ac.cr/handle/11554/5547?show=full
"Date
2010",Impactos humanos en la provisión de servicios ecosistémicos por bosques tropicales muy húmedos: un enfoque de ecología funcional,"Author
Aquino Yaringaño, Sandro",Tesis,http://repositorio.bibliotecaorton.catie.ac.cr/handle/11554/5221?show=full
"Date
2009",Development of a granular base formulation for the biological control of leaf cutting ants (Atta ssp.),"Author
Herrera Salazar, Ena E.",Tesis,http://repositorio.bibliotecaorton.catie.ac.cr/handle/11554/4777?show=full
"Date
2004",Effect of nutrients supply of biomass from three types of shade trees in management systems of organic and conventional coffee,"Author
Montenegro Gracia, E.J.",Tesis,http://repositorio.bibliotecaorton.catie.ac.cr/handle/11554/1474?show=full
"Date
2004","Development and evaluation of compost and lombricompost leachates to control black sigatoka (Mycosphaerella fijiensis Morelet), in plantain","Author
Larco Reyes, Erick S.",Tesis,http://repositorio.bibliotecaorton.catie.ac.cr/handle/11554/4776?show=full
"Date
2007","Governability and institutionality for the management, protection and use of water resources in the municipality of Valle de Angeles, Honduras","Author
Angulo Aguilar, Oscar G.",Tesis,http://repositorio.bibliotecaorton.catie.ac.cr/handle/11554/5177?show=full
"Date
2015","Diálogo de saberes en el proyecto piloto de ciencia abierta y colaborativa para la adaptación al cambio climático en el Bosque Modelo Reventazón, Costa Rica","Author
Guallpa Rivera, Raquel L.",Tesis,http://repositorio.bibliotecaorton.catie.ac.cr/handle/11554/8175?show=full
"Date
2014",Efecto del biocarbón en cacao orgánico (Theobroma cacao L.) y manejo biológico del Mal de Panamá (Fusarium Oxysporum f.sp cubense) con biocarbón y microorganismos benéficos,"Author
Acosta Buitrago, Jorge O.",Tesis,http://repositorio.bibliotecaorton.catie.ac.cr/handle/11554/7142?show=full
"Date
2012","Efecto del biocarbón combinado con fertilizantes orgánicos y microorganismos benéficos sobre el desarrollo, productividad y resistencia de las plantas, Turrialba, Costa Rica","Author
Henreaux, Jerôme",Tesis,http://repositorio.bibliotecaorton.catie.ac.cr/handle/11554/4889?show=full
"Date
2011","Evaluación de servicios ambientales en sistemas agroforestales con café bajo diferentes tipos de certificaciones en Turrialba, Costa Rica","Author
Pico Mendoza, José Newthon",Tesis,http://repositorio.bibliotecaorton.catie.ac.cr/handle/11554/5048?show=full
"Date
2007",Evaluación del efecto de fertilización y caracterización de vegetación asociada al cultivo de Dracaena marginata y sus periferias,"Author
Villalobos Araya, A.",Tesis,http://repositorio.bibliotecaorton.catie.ac.cr/handle/11554/5058?show=full
"Date
2013",Efecto de preparados homeopáticos en indicadores de calidad de suelos provenientes de manejo convencional,"Author
Barbosa, Natashia M.",Tesis,http://repositorio.bibliotecaorton.catie.ac.cr/handle/11554/4885?show=full
"Date
2013",Evaluación de dos protocolos para la inducción de embiogénesis somática en clones de cacao (Theobroma cacao L.) seleccionados por el Programa de Mejoramiento Genético de Cacao del CATIE,"Author
Mata Quirós, Allan",Tesis,http://repositorio.bibliotecaorton.catie.ac.cr/handle/11554/1924?show=full
"Date
2007","Comportamiento productivo del café (Coffea arabica var caturra), el poró (Erythrina poeppigiana), el amarillón (Terminalia amazonia) y el cashá (Chloroleucon eurycyclum) en sistemas agroforestales bajo manejos convencionales y orgánicos en Turrialba, Costa Rica","Author
Merlo Caballero, M.E.",Tesis,http://repositorio.bibliotecaorton.catie.ac.cr/handle/11554/3539?show=full
"Date
2015","Identificación de innovaciones en las unidades de producción caprina y su relación con la seguridad alimentaria y nutricional e ingresos de las familias rurales de Quiché, Guatemala","Author
Alvarenga Ayala, Francisco",Tesis,http://repositorio.bibliotecaorton.catie.ac.cr/handle/11554/8161?show=full
"Date
2014","Artículo I. Efecto de la sombra y el manejo agronómico del café sobre la incidencia, severidad y cantidad de inóculo de Hemileia vastatrix","Author
Pico Rosado, Jimmy Trinidad",Tesis,http://repositorio.bibliotecaorton.catie.ac.cr/handle/11554/7261?show=full
"Date
2015","Artículo I. La agricultura protegida de pequeña escala como una alternativa de producción agrícola y seguridad alimentaria para la zona de Somoto, Nicaragua","Author
Rojas Castro, Usbeika I.
Hidalgo Jaminson, Eduardo
Faustino, Jorge
Vásquez Morera, Nelly",Tesis,http://repositorio.bibliotecaorton.catie.ac.cr/handle/11554/8503?show=full
"Date
2015",Artículo I. Contribución de los árboles en finca a los medios de vida de familias rurales en dos sitios contrastantes de Nicaragua,"Author
Amores Contreras, Freddy M.",Tesis,http://repositorio.bibliotecaorton.catie.ac.cr/handle/11554/8471?show=full
"Date
2014",Artículo II. Densidad y diversidad en nemátodos de suelo en el cultivo de café,"Author
Chaves Gómez, María Emérita
Avelino, Jacques
Esquivel, Alejandro
Ferris, Howard
Soto, Gabriela
Staver, Charles",Tesis,http://repositorio.bibliotecaorton.catie.ac.cr/handle/11554/8115?show=full
"Date
2014","Artículo I. Percepción del Programa Ganadero - PROGAN- en comunidades de Chiapas, México","Author
Vargas de la Mora, Alma L.
Sepúlveda López, Claudia J.
Ibrahim, Muhammad Akbar
Jimenez Ferrer, Guillermo
Tobar López, Diego
Robalino, Juan",Tesis,http://repositorio.bibliotecaorton.catie.ac.cr/handle/11554/8129?show=full
"Date
2012","Artículo I. Sistemas de producción agropecuaria y su función en la prestación de servicios de provisión de alimentos en la cuenca del río Sixaola, Costa Rica","Author
Pinto Valencia, Paola K.",Tesis,http://repositorio.bibliotecaorton.catie.ac.cr/handle/11554/7111?show=full
"Date
2016",Artículo II. Contribución de los sistemas agroforestales con cacao y café en la economía y nutrición familiar en los departamentos Norte y Noreste de Haití,Lohier Virgiles,Tesis,http://repositorio.bibliotecaorton.catie.ac.cr/handle/11554/8911?show=full
"Date
2018","Artículo I. Análisis de la resiliencia para la construcción de paz territorial en el municipio de Albán, microcuencas Hatillo y Cebadero, Nariño, Colombia","Author
Morán Morillo, Juan C.",Tesis,http://repositorio.bibliotecaorton.catie.ac.cr/handle/11554/8780?show=full
"Date
2014","Artículo II. Evaluación de indicadores ambientales en unidades de producción pecuaria (UPP) de beneficiarios y no beneficiarios del PROGAN en Chiapas, México","Author
Vargas de la Mora, Alma L.
Sepúlveda López, Claudia J.
Ibrahim, Muhammad Akbar
Jimenez Ferrer, Guillermo
Tobar López, Diego
Robalino, Juan",Tesis,http://repositorio.bibliotecaorton.catie.ac.cr/handle/11554/8130?show=full
"Date
2014","Artículo II. Evaluación de la eficiencia, uso y adopción de una estufa mejorada especializada en producir biocarbón en comparación con estufas de leña tradicionales en tres municipios del departamento de León, Nicaragua","Author
Aker Narváez, Carlos Ernesto",Tesis,http://repositorio.bibliotecaorton.catie.ac.cr/handle/11554/8117?show=full
"Date
2015",Artículo II. Prácticas agroecológicas para mejorar la producción y la seguridad alimentaria en huertos caseros: I. Caracterización de huertos caseros en Nicaragua Central,"Arrieta Bolaños, Sebastián",Tesis,http://repositorio.bibliotecaorton.catie.ac.cr/handle/11554/7665?show=full
"Date
2012","Artículo II. Sistemas diversificados de producción agropecuaria como mecanismos de adaptación al cambio climático de las familias campesinas en la cuenca del río Sixaola, Costa Rica","Author
Pinto Valencia, Paola K.",Tesis,http://repositorio.bibliotecaorton.catie.ac.cr/handle/11554/7112?show=full
"Date
2012",Artículo III. Propuesta metodológica para la evaluación y promoción de sistemas diversificados de producción agropecuaria como mecanismos de adaptación al cambio climático,"Author
Pinto Valencia, Paola K.",Tesis,http://repositorio.bibliotecaorton.catie.ac.cr/handle/11554/7113?show=full
"Date
2015",Artículo III. Prácticas agroecológicas para mejorar la producción y la seguridad alimentaria: validación de prácticas más efectivas,"
Arrieta Bolaños, Sebastián",Tesis,http://repositorio.bibliotecaorton.catie.ac.cr/handle/11554/7666?show=full
"Date
2015","Artículo I. Aplicando los capitales de la comunidad para mejorar la adaptación y mitigación al cambio climático en fincas ganaderas de la Subcuenca Sixe Higuito, Región Trifinio","Author
Ochoa Henríquez, José M.",Tesis,http://repositorio.bibliotecaorton.catie.ac.cr/handle/11554/7284?show=full
"Date
2016",Artículo I. Optimización de prácticas agroecológicas bajo enfoque de agricultura climáticamente inteligente en huertos caseros del Trifinio,"Author
Aguilar Medina, Josué D.",Tesis,http://repositorio.bibliotecaorton.catie.ac.cr/handle/11554/8469?show=full
"Date
2016",Artículo I. Análisis de la estructura y composición de los sistemas agroforestales de los usos de suelo de café y cacao en los departamentos Norte y Noreste de Haití,Lohier Virgiles,Tesis,http://repositorio.bibliotecaorton.catie.ac.cr/handle/11554/8910?show=full
"Date
2014","Artículo I. Efecto de la aplicación de biocarbón, gallinaza y fertilizantes sintéticos en la retención de humedad y otras características del suelo en el rendimiento de maíz (Zea mays), en tres texturas de suelo en León, Nicaragua","Author
Aker Narváez, Carlos Ernesto",Tesis,http://repositorio.bibliotecaorton.catie.ac.cr/handle/11554/8116?show=full
"Date
2010","Community capitals and its relationships with agroecosysteMON and institutions in Tierra Nueva, Ocozocoautla Chiapas","Author
Hernández García, J.A.",Tesis,http://repositorio.bibliotecaorton.catie.ac.cr/handle/11554/814?show=full
"Date
2016",Artículo I. Diversidad taxonómica del componente leñoso en diferentes usos de suelo en dos sitios con distinto estado de desarrollo agrícola de Nicaragua,"Author
Caicedo Albán, Willan J.",Tesis,http://repositorio.bibliotecaorton.catie.ac.cr/handle/11554/8557?show=full
"Date
2015",Contribución de los árboles en finca a los medios de vida de familias rurales en dos sitios contrastantes de Nicaragua,"Author
Amores Contreras, Freddy M.",Tesis,http://repositorio.bibliotecaorton.catie.ac.cr/handle/11554/8470?show=full
"Date
2018","Instrumento para la gestión y manejo del territorio con enfoque en la resiliencia socio-ecológica para la construcción de paz territorial en las microcuencas El Hatillo y Cebadero, municipio de Albán, Nariño, Colombia","Author
Morán Morillo, Juan C.",Tesis,http://repositorio.bibliotecaorton.catie.ac.cr/handle/11554/8767?show=full
"Date
2007","Conocimiento local sobre servicios ecosistémicos de cafeticultores del Corredor Biológico Volcán Central Talamanca, Costa Rica","Author
Cerdán Cabrera, Carlos R.",Tesis,http://repositorio.bibliotecaorton.catie.ac.cr/handle/11554/908?show=full
"Date
2006",Livelihoods strategies of coffee planting families and the wealth of ethno botanical farMON in the department of Caldas Colombia,"Author
León Guevara, Jean A.",Tesis,http://repositorio.bibliotecaorton.catie.ac.cr/handle/11554/2887?show=full
"Date
2007","Conocimiento local de especies del bosque en relación con los medios de vida en Sharabata, Chirripó, Costa Rica","Author
Couttolenc Brenis, E.",Tesis,http://repositorio.bibliotecaorton.catie.ac.cr/handle/11554/905?show=full
"Date
2006","Conocimiento local y decisiones de los productores de Alto Beni, Bolivia, sobre el diseño y manejo de la sombra en sus cacaotales","Author
Ortiz González, Meivis",Tesis,http://repositorio.bibliotecaorton.catie.ac.cr/handle/11554/4676?show=full
"Date
2006",Desarrollo de protocolos de muestreo y evaluación de la relación de prácticas agrícolas con la población de plagas cuarentenarias en Dracaena marginata en Costa Rica,"Author
Prado Beltrán, Julia K.",Tesis,http://repositorio.bibliotecaorton.catie.ac.cr/handle/11554/4735?show=full
"Date
2012","Densidad y diversidad de nemátodos en sistemas agroforestales de café en asocio con bananos y sombra de leguminosas en Jinotega, Nicaragua","Author
García Salazar, Julia M.",Tesis,http://repositorio.bibliotecaorton.catie.ac.cr/handle/11554/1082?show=full
"Date
2014",Densidad y diversidad de nematodos fitoparásitos y de suelo en sistemas orgánicos y convencionales de café en asocio con banano en el Valle Central y Occidental de Costa Rica,"Author
Chaves Gómez, María E.",Tesis,http://repositorio.bibliotecaorton.catie.ac.cr/handle/11554/7122?show=full
"Date
2011","Creación de institucionalidad para una efectiva gobernanza de los recursos naturales, el caso de la subcuenca del Río Jucuapa, Nicaragua","Author
Villamagua Vergara, G.C.",Tesis,http://repositorio.bibliotecaorton.catie.ac.cr/handle/11554/1009?show=full
"Date
2011",Linking plant strategies and ecosystem function: an assessment of the contribution of biodiversity to neotropical grassland productivity,"Author
Ospina Hernández, Sonia D.",Tesis,http://repositorio.bibliotecaorton.catie.ac.cr/handle/11554/5293?show=full
"Date
2017","Costos y beneficios por la restauración del manglar: estudio de caso en el Refugio de Vida Silvestre Barras de Cuero y Salado, departamento de Atlántida, Honduras","Author
Rojas Villeda, Héctor R.",Tesis,http://repositorio.bibliotecaorton.catie.ac.cr/handle/11554/8678?show=full
"Date
2018","La gobernanza de la cadena productiva del sector apícola en el contexto del cambio climático en el municipio de Aldama, Chiapas, México","Author
Huacash Pale, Sebastián",Tesis,http://repositorio.bibliotecaorton.catie.ac.cr/handle/11554/8782?show=full
"Date
2013","Contribución de los sistemas agroforestales a la seguridad alimentaria (con énfasis en huertos caseros) de la población del Polo Agroforestal Wilson Pinheiro en Río Branco, Acre","Author
Oliveira Pinheiro, Joseneidy Raimunda Nonata de",Tesis,http://repositorio.bibliotecaorton.catie.ac.cr/handle/11554/4685?show=full
"Date
2017","Contribución de las especies leñosas en los medios de vida y la producción ganadera en Tenantitla, Municipio de Benito Juárez, Veracruz, México","Author
Hernández Hernández, Erika",Tesis,http://repositorio.bibliotecaorton.catie.ac.cr/handle/11554/8619?show=full
"Date
2013",Construyendo programas de educación y extensión rural sostenibles,"Author
Lopes, Sandro Wendell de Mont Serrat",Tesis,http://repositorio.bibliotecaorton.catie.ac.cr/handle/11554/4682?show=full
"Date
2017","Construcción participativa de una propuesta de estrategia para la incidencia política en el marco de la Agricultura Climáticamente Inteligente en la región transfronteriza entre Guatemala, Honduras y El Salvador","Author
Alexandre, Jean Ronald",Tesis,http://repositorio.bibliotecaorton.catie.ac.cr/handle/11554/8683?show=full
"Date
2012",Consideraciones epidemiológicas para el manejo de la marchitez por Fusarium (Fusarium oxysporum f. sp. cubense) del banano en la región central del Perú,"Author
Román Jeri, Carlos H.",Tesis,http://repositorio.bibliotecaorton.catie.ac.cr/handle/11554/4680?show=full
"Date
2010","Efecto del guácimo (Guazuma ulmifolia), carao (Cassia grandis) y roble (Tabebuia rosea) sobre la productividad primaria neta aérea y composición florística de pasturas naturales en Muy Muy y Matiguás, Nicaragua","Author
Zapata Arango, Piedad C.",Tesis,http://repositorio.bibliotecaorton.catie.ac.cr/handle/11554/4891?show=full
"Date
2011",Diseño y validación de una metodología de evaluación de conectividad funcional en paisajes en la cordillera volcánica occidental de Guatemala y propuesta para mejoras con base en medios de vida locales,"Author
Ríos Palencia, Martha M.",Tesis,http://repositorio.bibliotecaorton.catie.ac.cr/handle/11554/4804?show=full
"Date
2013-06-07","Balance de nutrientes en sistemas agroforestales de cacao (theobroma cacao) orgánico en el municipio de Waslala, Nicaragua","Author
Estrada Garro, Francisco J.",Tesis,http://repositorio.bibliotecaorton.catie.ac.cr/handle/11554/7923?show=full
"Date
2005",Reading the Talamanca landscape: land use and livelihoods in the Bribri and Cabécar indigenous territories,"Author
Philipp Whelan, Mathew",Tesis,http://repositorio.bibliotecaorton.catie.ac.cr/handle/11554/5480?show=full
"Date
2014","Caracterización del Sistema Nacional de Extensión Rural en Guatemala, departamentos de Chimaltenango, Baja Verapaz y Alta Verapaz","Author
Cárdenas Hernández, Jenny L.",Tesis,http://repositorio.bibliotecaorton.catie.ac.cr/handle/11554/7200?show=full
"Date
2016",Potencialidad para la intensificación agroecológica en sistemas agroforestales con cacao y café en los departamentos Norte y Noreste de Haití,"Author
Lohier, Virgiles",Tesis,http://repositorio.bibliotecaorton.catie.ac.cr/handle/11554/8571?show=full
"Date
2011","Cambio tecnológico del cultivo de plátano en el Valle del Cibao, República Dominicana: el caso del cv. FHIA-21 (Musa AAAB)","Author
Espinosa Tasón, Jaime A.",Tesis,http://repositorio.bibliotecaorton.catie.ac.cr/handle/11554/4556?show=full
"Date
2014","Cambios en la cobertura del suelo y cuantificación del carbono almacenado en los diferentes usos de la tierra como lineamientos en el desarrollo de estrategias de mitigación ante el cambio climático en la zona de amortiguamiento de la Reserva de Biosfera Río Plátano, Honduras","Author
Lazo Ulloa, Amy A.",Tesis,http://repositorio.bibliotecaorton.catie.ac.cr/handle/11554/7079?show=full
"Date
2008",Oportunidades y limitaciones para el posicionamiento de pequeños cafetaleros de Costa Rica y sus empresas asociativas en mercados de cafés diferenciados,"Author
López Rosse Antequera, J.L.",Tesis,http://repositorio.bibliotecaorton.catie.ac.cr/handle/11554/3255?show=full
"Date
2016",Optimización de prácticas agroecológicas bajo enfoque de agricultura climáticamente inteligente en huertos caseros del Trifinio,"Author
Aguilar Medina, Josué D.",Tesis,http://repositorio.bibliotecaorton.catie.ac.cr/handle/11554/8222?show=full
"Date
2009",Caracterización de la capacidad adaptativa en Nicaragua: contexto político para la inclusión de los servicios ecosistémicos en la adaptación del sector hidroeléctrico,"Author
Saini, M.",Tesis,http://repositorio.bibliotecaorton.catie.ac.cr/handle/11554/647?show=full
"Date
2016",Caracterización socieconómica y de la cadena de valor del sector apícola en las provincias de Puntarenas y Guanacaste como base para determinar la viabilidad en la implementacion de un mecanismo financiero para afrontar al cambio climáico en Costa Rica,"Author
Garay Tapias, Andrea A.",Tesis,http://repositorio.bibliotecaorton.catie.ac.cr/handle/11554/8542?show=full
"Date
2012",Caracterización morfológica de 200 accesiones de chile (Capsicum spp.) del banco de germoplasma del Centro Agronómico Tropical de Investigación y Enseñanza (CATIE),"Author
Paredes Andrade, Nelly J.",Tesis,http://repositorio.bibliotecaorton.catie.ac.cr/handle/11554/4587?show=full
"Date
2017",Planificación participativa de la red de bosques escuela en el bosque modelo Chocó Andino en Ecuador,"Author
Dorantes Palacios, Michelle E.",Tesis,http://repositorio.bibliotecaorton.catie.ac.cr/handle/11554/8664?show=full
"Date
2012","Propuestas de adaptación de la Producción de cacao en Waslala, Nicaragua ante el cambio climático","Author
Altamirano Tinoco, M.A.",Tesis,http://repositorio.bibliotecaorton.catie.ac.cr/handle/11554/3619?show=full
"Date
2010","Calidad de vida, sistemas agroforestales y servicos ambientales en el ámbito de la gestión territorial participativa de la zona de amortiguamiento del Parque Internacional La Amistad, Costa Rica","Author
Franco Stuchi, J.",Tesis,http://repositorio.bibliotecaorton.catie.ac.cr/handle/11554/594?show=full
"Date
2003","Calendarización, uso racional, sustitución o rediseño: una comparación entre horticultores orgánicos y convencionales de la zona norte de Cartago en Costa Rica","Author
Clavijo Ponce, N.L.",Tesis,http://repositorio.bibliotecaorton.catie.ac.cr/handle/11554/590?show=full
"Date
2018","Efectos de bioles en brócoli (Brassica oleracea) y lechuga (Lactuca sativa) en la zona hortícola de Cartago, Costa Rica","Author
Xiu Canche, Paolo A.",Tesis,http://repositorio.bibliotecaorton.catie.ac.cr/handle/11554/8722?show=full
"Date
2009",Análisis de la agrocadena de lácteos en la zona sur de Costa Rica,"Author
López Soriano, Magdiel",Tesis,http://repositorio.bibliotecaorton.catie.ac.cr/handle/11554/4364?show=full
"Date
2006",Caracterización y evaluación de los factores que determinan la calidad nutricional e inocuidad en la Producción de fertilizantes orgánicos fermentados,"Author
Ito, Shingo",Tesis,http://repositorio.bibliotecaorton.catie.ac.cr/handle/11554/4595?show=full
"Date
2007","Productive behavior of the coffee (Coffea arabica var caturra), the poro (Erythrina poeppigiana), the amarillon (Terminalia amazonia), the casha (Chloroleucon eurycyclum) in agroforestry systeMON under managements conventionals and organics in Turrialba, Costa Rica","Author
Merlo Caballero, Marvin E.",Tesis,http://repositorio.bibliotecaorton.catie.ac.cr/handle/11554/5459?show=full
"Date
2008","Plan de ordenamiento territorial de la subcuenca del río Jucuapa, Matagalpa, Nicaragua","Author
Escobar García, J.E.",Tesis,http://repositorio.bibliotecaorton.catie.ac.cr/handle/11554/4196?show=full
"Date
2012","Mujer, manejo de la agrobiodiversidad y su relación con los medios de vida en dos localidades del municipio de San Juan Cancuc, Chiapas, México","Author
Martínez Zepeda, Violeta",Tesis,http://repositorio.bibliotecaorton.catie.ac.cr/handle/11554/5359?show=full
"Date
2012",Are we learning? Strengthening local people's capacities to facilitate the recuperation of degraded pasture lands in Central America,"Author
Bautista Solís, Pável",Tesis,http://repositorio.bibliotecaorton.catie.ac.cr/handle/11554/4516?show=full
"Date
2015-11-03","Determinación del aporte de los sistemas agroforestales con cacao a las familias productoras, en cinco municipios en los departamentos de Cortés y Yoro, Honduras","Author
Martínez Martínez, Carlos Armando",Tesis,http://repositorio.bibliotecaorton.catie.ac.cr/handle/11554/8078?show=full
"Date
2018","Artículo I. La cadena productiva de la miel en el municipio de Aldama, Chiapas, México, como estrategia de mejora de los medios de vida de la población indígena Tsotsil","Author
Huacash Pale, Sebastián",Tesis,http://repositorio.bibliotecaorton.catie.ac.cr/handle/11554/8783?show=full
"Date
2013-06-03",Linking plant strategies and ecosystem function: an assessment of the contribution of biodiversity to neotropical grassland productivity,"Author
Ospina Hernández, Sonia Daryuby",Tesis,http://repositorio.bibliotecaorton.catie.ac.cr/handle/11554/8015?show=full
"Date
2015","Artículo I. Cuantificación de la densidad, diversidad taxonómica y funcional de los árboles presentes en sistemas agroforestales con café, en el Cantón de Hojancha, Guanacaste, Costa Rica","Author
Ruíz Cruz, Pablo Amín",Tesis,http://repositorio.bibliotecaorton.catie.ac.cr/handle/11554/7656?show=full
"Date
2013-06-05","Estimación del costo de inversión para la implementación de buenas prácticas ambientales en fincas ganaderas para optar por una certificación sostenible: Estudio de caso de la región Esparza, Costa Rica","Author
Castro Vargas, Rodrigo Enrique",Tesis,http://repositorio.bibliotecaorton.catie.ac.cr/handle/11554/8004?show=full
"Date
2009",Evaluación y caracterización de selecciones clonales de cacao (Theobroma cacao L.) del Programa de Mejoramiento del CATIE,"Author
Pérez Zúñiga, José I.",Tesis,http://repositorio.bibliotecaorton.catie.ac.cr/handle/11554/5084?show=full
"Date
2013-08-12","Poblaciones de nematodos fitoparásitos asociados a diferentes sistemas de manejo de café en el municipio de Masatepe, departamento de Masaya (Ciclo 2006-2007)","Author
Escobar Medrano, María Mercedes",Tesis,http://repositorio.bibliotecaorton.catie.ac.cr/handle/11554/8024?show=full
"Date
2013-06-12","Caracterización del potencial agroecológico y socioeconómico de la producción, uso y manejo de semilla de papa (Solanum tuberosum), en la zona Trifinio, Honduras","Author
Hernández Hernández, Liseth Oliveth",Tesis,http://repositorio.bibliotecaorton.catie.ac.cr/handle/11554/8054?show=full
"Date
2015","Análisis del estado actual de la producción y comercialización de Eucalyptus camaldulensisen la comunidad de Cristo Rey, León, Nicaragua / Margarita del Carmen Nieto","Author
Nieto, Margarita del Carmen",Tesis,http://repositorio.bibliotecaorton.catie.ac.cr/handle/11554/8507?show=full
"Date
2007",Protocolo de muestreo secuencial para la evaluación de la población de plagas en la Producción de Dracaena marginata,"Author
Marschall Murillo, C.A. von",Tesis,http://repositorio.bibliotecaorton.catie.ac.cr/handle/11554/3620?show=full
"Date
2009","Characterization of the agroecological and socioeconomic potential of the production, use and management of seed potatoes (Solanum tuberosum) in the area Trifinio, Honduras","Author
Hernández Hernández, L.O.",Tesis,http://repositorio.bibliotecaorton.catie.ac.cr/handle/11554/761?show=full
"Date
2009","Caracterización y manejo de los huertos caseros familiares en tres grupos étnicos (Mayas peninsulares, Choles y Mestizos) del Estado de Campeche, México","Author
Chi Quej, Jesús A.",Tesis,http://repositorio.bibliotecaorton.catie.ac.cr/handle/11554/4596?show=full
"Date
2016","Modelación hidrológica para evaluar los niveles de erosión hídrica y producción de sedimentos en diferentes usos y coberturas de la tierra y su efecto en la calidad del agua en la subcuenca del río San Francisco, cuenca del lago de Atitlán, Guatemala","Author
Bocel Chiroy, Juan C.",Tesis,http://repositorio.bibliotecaorton.catie.ac.cr/handle/11554/8596?show=full
"Date
2009","Characterization of the innovation capacity of the players involved in the production system of vegetables under a controlled environment, at the Trifinio Region (Honduras, Guatemala, and El Salvador)","Author
Castellanos Valerio, W.L.",Tesis,http://repositorio.bibliotecaorton.catie.ac.cr/handle/11554/765?show=full
"Date
2016","Motivaciones y limitaciones para la generación de servicios ecosistémicos hídricos en fincas ganaderas en la microcuenca del Río Bulbul, Matiguás, Nicaragua","Author
Estigarribia Canese, Silvia Elisa",Tesis,http://repositorio.bibliotecaorton.catie.ac.cr/handle/11554/8209?show=full
"Date
2013-06-09","Evaluación del impacto del uso ganadero sobre suelo y vegetación en el Sistema Agroforestal Quesungual (SAQ) en el sur de Lempira, Honduras","Author
García Inestroza, Edwin Daniel",Tesis,http://repositorio.bibliotecaorton.catie.ac.cr/handle/11554/8013?show=full
"Date
2009","Alternativas de escalonamiento para organizaciones empresariales de pequeños productores en cadenas productivas de Talamanca, Costa Rica","Author
Escobedo Aguilar, Adriana de los A.",Tesis,http://repositorio.bibliotecaorton.catie.ac.cr/handle/11554/4421?show=full
"Date
2013","Análisis de impacto del proyecto integrador de Ecosta Yutu Cuii en salud, nutrición y medios de vida en las comunidades de la Costa de Oaxaca, México","Author
Loján Zumba, Lilia Violeta",Tesis,http://repositorio.bibliotecaorton.catie.ac.cr/handle/11554/298?show=full
"Date
2008","Territorial ordering plan for the Jucuapa river sub-watershed, Matagalpa, Nicaragua","Author
Escobar García, José E.",Tesis,http://repositorio.bibliotecaorton.catie.ac.cr/handle/11554/5583?show=full
"Date
2013","Bases para la constitución de un bosque modelo en la zona del Bajo Amazonas, Oeste del Estado de Pará, Brasil","Author
Soares Santos, Kolbe W.",Tesis,http://repositorio.bibliotecaorton.catie.ac.cr/handle/11554/4538?show=full
"Date
2015",Prácticas agroecológicas para mejorar la producción y la seguridad alimentaria en huertos caseros en Nicaragua Central,"Author
Arrieta Bolaños, Sebastián",Tesis,http://repositorio.bibliotecaorton.catie.ac.cr/handle/11554/7212?show=full
"Date
2008","Rescate del conocimiento tradicional y biológico para el manejo de productos forestales no maderables en la comunidad indígena Jameykari, Costa Rica","Author
Juep Bakuants, A.",Tesis,http://repositorio.bibliotecaorton.catie.ac.cr/handle/11554/3843?show=full
"Date
2012",Seguridad alimentaria en comunidades indígenas de Costa Rica: el caso de comunidades Cabécar de Alto Chirripó,"Author
Chalampuente Flores, Doris S.",Tesis,http://repositorio.bibliotecaorton.catie.ac.cr/handle/11554/5523?show=full
"Date
2006","Balance entre conservación y desarrollo: estrategias de vida en dos comunidades del Parque Nacional Noel Kempff Mercado, Bolivia","Author
Becerra Vargas, Adriana G.",Tesis,http://repositorio.bibliotecaorton.catie.ac.cr/handle/11554/5608?show=full
"Date
2012","Apropiación y aplicación de conocimientos y habilidades por familias cacaoteras en Bocas del Toro, Panamá. Resultados de las Escuelas de Campo del Proyecto Cacao Centroamérica","Author
Flor Vinces, Juan R.",Tesis,http://repositorio.bibliotecaorton.catie.ac.cr/handle/11554/4514?show=full
"Date
2015","Aplicando los capitales de la comunidad para mejorar la adaptación y mitigación al cambio climático en fincas ganaderas de la Subcuenca Sixe Higuito, Región Trifinio","Author
Ochoa Henríquez, José M.",Tesis,http://repositorio.bibliotecaorton.catie.ac.cr/handle/11554/7213?show=full
"Date
2015","Análisis y propuestas de mejoramiento de las experiencias de extensión rural y transferencia tecnológica, con familias de infrasubsistencia y subsistencia de los municipios de Rabinal y San Miguel Chicaj, Baja Verapaz, Guatemala, para la conservación de la agrobiodiversidad en el marco de la agricultura familiar y la economía campesina","Author
Luque Portillo, Cecilia I.",Tesis,http://repositorio.bibliotecaorton.catie.ac.cr/handle/11554/8211?show=full
"Date
2015","Sistematización de la experiencia de la Escuela de Agricultura Ecológica U Yits Ka’an y su efecto sobre los medios de vida de las familias participantes en el municipio de Maní, Yucatán, México","Author
Hernández Galindo, Florentina",Tesis,http://repositorio.bibliotecaorton.catie.ac.cr/handle/11554/8214?show=full
"Date
2015","Sistematización de la experiencia de las Fiestas de Semillas Nativas e identificación de los impactos generados en el uso de las variedades de semillas de maíz en la Región de los Chenes, Municipio de Hopelchén, Campeche, México","Author
Tzec Caamal, Nora S.",Tesis,http://repositorio.bibliotecaorton.catie.ac.cr/handle/11554/8174?show=full
"Date
2007","Barriers to the implementation of silvopastoral systems and land uses in the area of Matiguás, Nicaragua","Author
Alas Martínez, Juan M.",Tesis,http://repositorio.bibliotecaorton.catie.ac.cr/handle/11554/516?show=full
"Date
2004","Manejo de enfermedades en tomate orgánico (Lycopersicon esculentum Mill.) producido en ambiente controlado, con énfasis en Phytophthora infestans en Turrialba, Costa Rica","Author
Talavera Añez, Edgar F.",Tesis,http://repositorio.bibliotecaorton.catie.ac.cr/handle/11554/4799?show=full
"Date
2006","Evaluación bioeconómica del impacto de la degradación de pasturas en fincas ganaderas de doble propósito en El Chal, Petén, Guatemala","Author
Betancourt, Herty",Tesis,http://repositorio.bibliotecaorton.catie.ac.cr/handle/11554/4523?show=full
"Date
2004",Dinámica de la materia orgánica del suelo en sistemas agroforestales de café con Erythrina poeppigiana (Walpers) O.F. Cook en Costa Rica,"Author
Zuluaga Peláez, John J.",Tesis,http://repositorio.bibliotecaorton.catie.ac.cr/handle/11554/4822?show=full
"Date
2016","Hacia la construcción de una educación popular : reconociendo nuestros recursos y aprendiendo de nuestras experiencias en Yucatán, México","Author
Chan Dzul, Yamili N.",Tesis,http://repositorio.bibliotecaorton.catie.ac.cr/handle/11554/8527?show=full
"Date
2007","Relación entre la diversidad de Herpetofauna en sistemas silvopastoriles, la calidad del agua y el bienestar de los productores en el municipio de Matiguás (Matagalpa, Nicaragua)","Author
Gómez Martínez, Mario J.",Tesis,http://repositorio.bibliotecaorton.catie.ac.cr/handle/11554/5491?show=full
"Date
2014",Almacenamiento de carbono y beneficios familiares obtenidos de cafetales en fincas de pequeños productores de Nicaragua,"Author
Pinoargote Chang, Miryan A.",Tesis,http://repositorio.bibliotecaorton.catie.ac.cr/handle/11554/7146?show=full
"Date
2010","Relación del suelo con el crecimiento inicial y contenido foliar de teca (Tectona grandis), y adaptación de leguminosas para control de arvenses bajo un sistema fertirriego en Campeche, México","Author
Sima González, Shenia A.",Tesis,http://repositorio.bibliotecaorton.catie.ac.cr/handle/11554/5488?show=full
"Date
2006",CARACTERIZACIÓN Y EVALUACIÓN DE LOS FACTORES QUE DETERMINAN LA CALIDAD NUTRICIONAL E INOCUIDAD EN LA PRODUCCIÓN DE FERTILIZANTES ORGÁNICOS FERMENTADOS,"Author
Ito, S.",Tesis,http://repositorio.bibliotecaorton.catie.ac.cr/handle/11554/681?show=full
"Date
2008",The effects of local and landscape context on leafhopper (Hemiptera: cicadellinae) communities in coffeee agroforestry systeMON of Costa Rica,"Author
Ramos, Mariangie",Tesis,http://repositorio.bibliotecaorton.catie.ac.cr/handle/11554/5590?show=full
"Date
2006","The impact of greenhouse conventional and organic pepper (Capsicum annuum) over the soil-plant component, in Alfaro Ruiz, Costa Rica","Author
Samaniego Sánchez, Rubén D.",Tesis,http://repositorio.bibliotecaorton.catie.ac.cr/handle/11554/5594?show=full
"Date
2008",The social protagonism of rural communities as a basis for inclusive adaptive co-management of natural resources in territory,"Author
Botelho, Ana C.B.",Tesis,http://repositorio.bibliotecaorton.catie.ac.cr/handle/11554/5380?show=full
"Date
2012","Adopción de sistemas diversificados de producción agropecuaria como mecanismos de adaptación al cambio climático en el marco del manejo y gestión de cuencas hidrográficas en Sixaola, Costa Rica","Author
Pinto Valencia, Paola K.",Tesis,http://repositorio.bibliotecaorton.catie.ac.cr/handle/11554/7110?show=full
"Date
2003",Utilización de hongos endofíticos provenientes de banano orgánico para el control biológico del nemátodo barrenador Radopholus similis (Cobb) Thorne,"Author
Meneses Hernández, A.",Tesis,http://repositorio.bibliotecaorton.catie.ac.cr/handle/11554/4275?show=full
"Date
2007",Utilization of endophytic bacteria and fungi for the biological control of the burrowing nematode Radopholus similis (Cobb) Thorn,"Author
Chaves Méndez, N.P.",Tesis,http://repositorio.bibliotecaorton.catie.ac.cr/handle/11554/5635?show=full
"Date
2011",Relación del agroecosistema quinua con los medios de vida y seguridad alimentaria de pequeños productores de la zona andina colombiana,"Author
Higuera Mora, Nubia C.",Tesis,http://repositorio.bibliotecaorton.catie.ac.cr/handle/11554/5487?show=full
"Date
2006","A participative evaluation of improved forages for sustainable management of natural resources in the Jucuapa river subwatershed, Matagalpa, Nicaragua","Author
Payán Masis, Arlen Y.",Tesis,http://repositorio.bibliotecaorton.catie.ac.cr/handle/11554/4367?show=full
"Date
2014","Valoración comparativa de la macrofauna de lombrices en sistemas agroforestales de café orgánico y convencional en contraste con cultivos en pleno sol y bosque, durante la época lluviosa y seca en Turrialba, Costa Rica","Author
Vásquez Vela, Ana Lucía M.",Tesis,http://repositorio.bibliotecaorton.catie.ac.cr/handle/11554/5638?show=full
"Date
1991",Zonificación agroecológica para el cultivo de café (Coffea arabica L.) en Nicaragua,"Author
Salinas Marcenaro, I.H.",Tesis,http://repositorio.bibliotecaorton.catie.ac.cr/handle/11554/4343?show=full
"Date
2005",Sustainability evaluation of community forest management for identifying investment priorities in Mexican ejidos,"Author
Morán Montaño, M.",Tesis,http://repositorio.bibliotecaorton.catie.ac.cr/handle/11554/4150?show=full
"Date
2005","Sostenibilidad socioeconómica y ecológica de sistemas agroforestales de café (Coffea arabica) en la microcuenca del río Sesesmiles, Copán, Honduras","Author
Silveira, Nina D.",Tesis,http://repositorio.bibliotecaorton.catie.ac.cr/handle/11554/5553?show=full
"Date
2014","Análisis de la realidad socioeconómica, cultural, ambiental y política de las mujeres agricultoras de la Petite Rivière de Artibonite en Haití","Author
Molin, Germanie",Tesis,http://repositorio.bibliotecaorton.catie.ac.cr/handle/11554/7126?show=full
"Date
2016",Análisis del aporte de las personas graduadas del CATIE en el desarrollo sostenible de la región (América Latina y El Caribe),"Author
García Valdiviezo, Dzoara Donaji",Tesis,http://repositorio.bibliotecaorton.catie.ac.cr/handle/11554/8219?show=full
"Date
2008","Calidad de suelos en plantaciones de cacao (Theobroma cacao), banano (Musa AAA) y plátano (Musa AAB) en el valle de Talamanca, Costa Rica","Author
Cerda Bustillos, R.H.",Tesis,http://repositorio.bibliotecaorton.catie.ac.cr/handle/11554/4067?show=full
"Date
2003","Calendarización, uso racional, sustitución o rediseño: una comparación entre horticultores orgánicos y convencionales de la zona norte de Cartago en Costa Rica","Author
Clavijo Ponce, Neidy L.",Tesis,http://repositorio.bibliotecaorton.catie.ac.cr/handle/11554/4553?show=full
"Date
2010","Yield and profitability of the associated cultivation of mango (Mangifera indica L.) Tommy Atkins and pumpkin (Cucurbita mostacha) as an agroforestry alternative at Divisa, Panama","Author
García Chávez, M.A.",Tesis,http://repositorio.bibliotecaorton.catie.ac.cr/handle/11554/4338?show=full
"Date
2013-07-24",Diversificación de los medios de vida de las familias rurales y su relevancia para los agroecosistemas de El Paraíso (Honduras) y Jalapa (Nicaragua),"Author
Pinoth Arguijo, Rut Ester",Tesis,http://repositorio.bibliotecaorton.catie.ac.cr/handle/11554/8043?show=full
"Date
2013","Principales cambios en las fincas ganaderas de productores que participaron en escuelas de campo de la región Trifinio, Centroamérica","Author
Banegas, K.
Moscoso, C.
Nieuwenhyse, A.
Ibrahim, Muhammad Akbar
Gutiérrez Montes, Isabel A.",conferencia,http://repositorio.bibliotecaorton.catie.ac.cr/handle/11554/7769?show=full
"Date
2013-09-04",Info CATIE Guatemala,Author CATIE,otro,http://repositorio.bibliotecaorton.catie.ac.cr/handle/11554/7762?show=full
"Date
2013-09-09",Info CATIE México,Author CATIE,otro,http://repositorio.bibliotecaorton.catie.ac.cr/handle/11554/7763?show=full
"Date
2013-11-04",Las escuelas de innovación agroecologica: experiencia de integración y gobernanza socioambiental en la región Trifinio (Guatemala-El Salvador-Honduras),"Suchini Ramírez José Gabriel, Padilla Castillo Danilo",otro,http://repositorio.bibliotecaorton.catie.ac.cr/handle/11554/7883?show=full
"Date
2013-08-05",Una apuesta innovadora hacia la investigación acción participativa del Programa Agroambiental Mesoamericano (MAP) en la región Trifinio”,"Metadata
Show full item record",otro,http://repositorio.bibliotecaorton.catie.ac.cr/handle/11554/7752?show=full
"Date
2013-09-04",Info CATIE El Salvador,Author CATIE,otro,http://repositorio.bibliotecaorton.catie.ac.cr/handle/11554/7829?show=full
"Date
2013-09-11",Info CATIE Nicaragua,Author CATIE,otro,http://repositorio.bibliotecaorton.catie.ac.cr/handle/11554/7736?show=full
