Source,utime,Text
SFE.go.cr,1564600197,
SFE.go.cr,1564586807,El Servicio Fitosanitario del Estado informa que la matriz con la información de requisitos fitosanitarios para productos vegetales de importación acaba de ser actualizada en su sitio web.httpsbit.ly2bNsTv2
SFE.go.cr,1564585714," Director ejecutivo de OIRSA, Efraín Medina, sostiene reunión de trabajo con ministro de Agricultura y Ganadería del país, Renato Alvarado director del Servicio Fitosanitario del Estado, Fernando Araya entre otros funcionarios."
SFE.go.cr,1564585628,El Servicio Fitosanitario del Estado publicó en la sección de Tarifas de su sitio web los nuevos números de cuenta IBAN.httpsbit.ly2fynqIZ
SFE.go.cr,1564430596,"El hongo Fusarium oxysporum f. sp. cubense no está presente en Costa Rica, afecta gravemente a las musáceas en otras latitudes y trabajamos fuertemente para evitar su ingreso.La capacitación es un eje vital en la prevención, conozca los síntomas de la plaga."
SFE.go.cr,1564158829,Los hongos endófitos son microorganismos que habitan en los tejidos internos de las plantas sin causar síntomas de enfermedad se encuentran en todas ellas y forman parte de sus mecanismos de defensa.
SFE.go.cr,1563986369,"Centro de Abastecimiento, el Mercado Regional Mayorista Chorotega, el cuál inicia la primera etapa de operaciones este mes de julio.Les presentamos con orgullo Nuestro Centro de Abastecimiento, el Mercado Regional Mayorista Chorotega, el cuál inicia la primera etapa de operaciones este mes de julio."
SFE.go.cr,1563909342,"El Programa Nacional de Financianiento para adaptar fincas al cambio climático presenta las guías para cultivos de banano, café, papa, piña, arroz, yuca, caña de azúcar, frijol, palma y actividades ganaderas, avícolas y porcinas.Puede descargar las guías en la dirección www.mag.go.crEl Programa Nacional de Financianiento para adaptar fincas al cambio climático presenta las guías para cultivos de banano, café, papa, piña, arroz, yuca, caña d..."
SFE.go.cr,1563902940, Gobierno decreta emergencia por déficit hídrico en todos los cantones de Guanacaste 
SFE.go.cr,1563902323,Este martes el Gobierno de la República 5 obras por enEste martes el Gobierno de la República 5 obras por en Más información httpprensamag.blogspot.comgobiernoinvierte1336mill
SFE.go.cr,1563902078,"Ante el posible brote de Fusarium en Colombia se están extremando medidas en el país para evitar su ingreso. Como viajero o turista, desde cualquier país que usted venga No visite plantaciones de banano. No traiga plantas, hojas, semillas o souvenirs hechos de fibra vegetal. Limpie su calzado antes de llegar al país para que no traiga tierra...."
SFE.go.cr,1563883757," En la y la Paacume, Mercado Mayorista Chorotega y reactivación productiva en la provincia, fueron temas abordados por la viceministra Ana Cristina Quirós, acompañando en los diálogos ciudadanos a la primera dama Claudia Dobles Camargo."
SFE.go.cr,1563816779,"El hongo Fusarium oxysporum f. sp. cubense no está presente en Costa Rica, afecta gravemente a las musáceas en otras latitudes y trabajamos fuertemente para evitar su ingreso.La capacitación es un eje vital en la prevención, conozca los síntomas de la plaga."
SFE.go.cr,1563465547,"Cuál es la mejor estrategia para asegurar la alimentación de una población mundial cada vez mayor Esa es una de las interrogantes más preocupantes y omnipresentes en organismos internacionales como la FAO y el Banco Mundial BM. Al respecto, el Banco de Desarrollo Asiático BDA asegura que la clave es atraer a los jóvenes hacia la agricultura. Muy fácil decirlo, la cuestión es cómo lograrlo."
SFE.go.cr,1563400419,"El día de ayer en Arancibia de Puntarenas, en conjunto con Coopemiramontes, Servicio Fitosanitario del Estado, Beneficio El Boyerito y..."
SFE.go.cr,1563371536,Evitar el ingreso del Fusarium Raza 4 Tropical es responsabilidad de todosNo traiga al país plantas o souvenirs hechos de materiales vegetales aunque estos hayan sido procesados.Banano de Costa Rica OIRSA
SFE.go.cr,1563308257,Alerta en Colombia por sospecha de Fusarium Raza 4 Tropical Banano de Costa Rica OIRSA Noticias Caracol httpsbit.ly2Jzfmts
SFE.go.cr,1563306020,Más información sobre la Contraloría de Servicios del Servicio Fitosanitario del Estado en httpsbit.ly2mxSDTh
SFE.go.cr,1563294305,"Más del 20 por ciento de los cinco cultivos de primera necesidad que proveen la mitad del consumo de calorías del planeta se pierden cada año a causa de las plagas. El cambio climático y el comercio mundial son factores causales de la propagación, surgimiento y resurgimiento de enfermedades de los cultivos, y la acción de contención es a menudo ineficiente, especialmente en los países de bajos ingresos. Un Sistema Global de Vigilancia GSS, por sus siglas en inglés para fortalecer e interconectar los sistemas de bioseguridad de cultivos podrían tener éxito en mejorar la seguridad alimentaria mundial, argumenta un equipo de expertos en la edición del 28 de junio de Science."
SFE.go.cr,1563284747,"El hongo Fusarium oxysporum f. sp. cubense no está presente en Costa Rica, afecta gravemente a las musáceas en otras latitudes y trabajamos fuertemente para evitar su ingreso.Qué puedo hacer yo como ciudadano para evitar su ingreso"
SFE.go.cr,1563224914,"Este primero de julio comenzó a regir el Impuesto al Valor Agregado IVA en las transacciones comerciales de bienes y servicios en Costa Rica. Por esa razón, a partir de esta fecha, las personas productoras de bienes contemplados en la canasta básica deben estar inscritos en el registro de comercializadores, productores y distribuidores del Ministerio de Hacienda.Ahora bien, hay otras fechas que deben tomar en cuenta las personas agro productoras para la adecuada aplicación del IVA en sus procesos de producción y comercialización."
SFE.go.cr,1563218945,"La capacitación, que se realiza por segundo año consecutivo en Costa Rica, es impartida por expertos del Joint Institute of Food Safety and Applied Nutrition JIFSAN y la Alianza para la Inocuidad de los Productos Agrícolas Frescos PSA por sus siglas en inglés."
SFE.go.cr,1563212054,"La marchitez por fusarium de los cultivos de banano y plátano es considerada una de las enfermedades más devastadoras para la agricultura a nivel mundial. Por ello, los países de la región han aumentado su prevención "
SFE.go.cr,1563210235,"El hongo Fusarium oxysporum f. sp. cubense no está presente en Costa Rica, afecta gravemente a las musáceas en otras latitudes y trabajamos fuertemente para evitar su ingreso. Corbana OIRSA FAOAprenda sobre los síntomas de la patología del Marchitamiento por Fusarium oxysporum f. sp. cubense R4TMás información en httpsbit.ly2WaENV9"
SFE.go.cr,1562963786,"Para evitar el crecimiento de la Roya del cafeto y otras enfermedades, el ICAFE le recomienda iniciar, lo antes posible, el control químico preventivo con fungicidas sistémicos.Para más información consulte a los técnicos en las Oficinas Regionales del ICAFE, Servicio Fitosanitario del Estado o las sedes de Extensión del MAG."
SFE.go.cr,1562961109,El Servicio Fitosanitario del Estado acaba de actualizar la lista de operadores orgánicos registrados en la Unidad de Registro y Acreditación de Agricultura Orgánica.httpsbit.ly2jeg7Mz
SFE.go.cr,1562954303,"Para evitar el crecimiento de la Roya del cafeto y otras enfermedades, el ICAFE le recomienda iniciar, lo antes posible, el control químico preventivo con fungicidas sistémicos.Para más información consulte a los técnicos en las Oficinas Regionales del ICAFE."
SFE.go.cr,1562767628,Más información sobre la Contraloría de Servicios del Servicio Fitosanitario del Estado enhttpsbit.ly2mxSDTh
SFE.go.cr,1562763832,Atención se siguen declarando productos de origen vegetal
SFE.go.cr,1562679123,"Las mejoras en la productividad superan el crecimiento de la demanda y generan una tendencia que es una buena noticia para los consumidores pobres, pero ejercerá presión sobre los ingresos agrícolas"
SFE.go.cr,1562678424,"El estudio, Evaluación de opciones de valor agregado para rambután y bambú, indicó que Estados Unidos y Japón se perfilan como mercados con potencial para estos productos, principalmente EEUU por su cercanía, tendencias de consumo y apertura a estos nuevos productos."
SFE.go.cr,1562590922,"Entrevista con Nelson Morera, jefe del Departamento de Control Fitosanitario del SFE en el programa Agro Activo, sobre las medidas de prevención que se están tomando en puntos de ingreso.El hongo Fusarium oxysporum f. sp. cubense no está presente en el continente, afecta gravemente a las musáceas en otras latitudes y trabajamos fuertemente para evitar su ingreso. Corbana OIRSA FAOMás información en httpsbit.ly2WaENV9"
SFE.go.cr,1562353282,"Costa Rica se mantiene alerta para prevenir el ingreso del hongo Fusarium R4TEl SFE y CORBANA informan que Costa Rica no ha recibido comunicación oficial sobre la presencia de la plaga Fusarium Oxysporum f. sp. cubense Raza 4 Tropical en Latinoamérica. Además, recuerdan que el país ha tomado medidas estrictas y se ha preparado para minimizar el riesgo de ingreso del hongo al territorio nacional, dado el impacto que podría tener sobre la producción de musáceas. Leer más en h..."
SFE.go.cr,1562341591," Recomendaciones de OIRSA para prevenir diseminación de fusariosis de banano Foc R4T. Esto es de vital importancia, sobre todo ahora, ante la sospecha de presencia de la enfermedad en el sur del continente americano. "
SFE.go.cr,1562273795,Mercado Regional Chorotega reúne a posibles compradores con los futuros vendedores de la central de abastecimiento Por medio de la actividad Visitas guiadas...
SFE.go.cr,1562262183,"El Servicio Fitosanitario del Estado informa que en la sección de Documentos en Consulta Pública del sitio web, está disponible la propuesta de reforma parcial al Decreto Ejecutivo 29782MAG del 21 de agosto de 2001 denominado Reglamento de Agricultura Orgánica. Hay 10 días hábiles para hacer observaciones.httpsbit.ly2FSKO3p"
SFE.go.cr,1562078824,Seminario web sobreJueves 11 de julio   815 a. m. hora de Costa Rica .Para participar ingrese aquí httpbit.ly2JhOI76
SFE.go.cr,1562075710,Más información sobre la Contraloría de Servicios del Servicio Fitosanitario del Estado enhttpsbit.ly2mxSDTh
SFE.go.cr,1562074695,"Renato Alvarado, ministro del ramo, recordó que es a partir de setiembre de este año que podrán hacer la inscripción con base en la terminación de su número de cédula o la de la empresa en caso de registrar una sociedad. "
SFE.go.cr,1561993868," Cuatro fechas que el no puede dejar pasar. El ministro Renato Alvarado se las explica en vivo hoy, a la 1 de la tarde por FacebookLive. Cuatro fechas que el no puede dejar pasar. El ministro Renato Alvarado se las explica en vivo hoy, a la 1 de la tarde por FacebookLive."
SFE.go.cr,1561991295,El Servicio Fitosanitario acaba de actualizar en su sitio web la lista de operadores orgánicos inscritos httpsbit.ly2jeg7Mz
SFE.go.cr,1561990016,"El hongo Fusarium oxysporum f. sp. cubense no está presente en el continente, afecta gravemente a las musáceas en otras latitudes y trabajamos fuertemente para evitar su ingreso. Corbana OIRSA FAOMás información en httpsbit.ly2WaENV9"
SFE.go.cr,1561989720,"El Servicio Agrícola y Ganadero anunció el lanzamiento de una aplicación gratuita para celulares, la que podrá detectar de forma oportuna plagas agrícolas y forestales que no están presentes en Chile"
SFE.go.cr,1561579021,Más información sobre la Contraloría de Servicios del Servicio Fitosanitario del Estado enhttpsbit.ly2mxSDTh
SFE.go.cr,1561562957," Se efectúa curso de auditoría de procesos de fumigación, conforme a Norma del Departamento de y Recursos Hídricos de Australia  Actividad se realiza en y participan técnicos de Servicio Fitosanitario del Estado y OIRSA"
SFE.go.cr,1561388425,"El hongo Fusarium oxysporum f. sp. cubense no está presente en el continente, afecta gravemente a las musáceas en otras latitudes y trabajamos fuertemente para evitar su ingreso. Corbana OIRSA FAOMás información en httpsbit.ly2WaENV9"
SFE.go.cr,1561381084,"El SFE informa que las listas de analitos validados para el análisis de residuos de plaguicidas en vegetales, suelos y aguas de uso agrícola acaban de ser actualizadas en nuestro sitio web httpsbit.ly28PecVy"
SFE.go.cr,1561057073,"Las imágenes espectrales en la agricultura se obtienen mediante satélites, drones, y otras plataformas que puedan portar este tipo de sensores aperos agrícolas, y tractores, quads, robots autónomos lo que otorga a la agricultura una serie de ventajas con base en la toma de datos, su análisis e interpretación. Gracias a estas imágenes, los profesionales de la agricultura consiguen saber las necesidades exactas de insumos, tanto a nivel global como específico."
SFE.go.cr,1560876733,"El hongo Fusarium oxysporum f. sp. cubense no está presente en el continente, trabajamos fuertemente para evitar su ingreso.Costa Rica pone a disposición del público este video sobre la patología realizado en conjunto MAG, SFE, CORBANA y OIRSA.Corbana OIRSA FAO Más información en httpsbit.ly2WaENV9"
SFE.go.cr,1560791186,"El día de hoy el SFE actualizó en su sitio web información del área de agricultura orgánica ARAO lista de operadores orgánicos, operadores en período de transición, agencias certificadoras y lista de certificaciones participativas.httpsbit.ly2jeg7Mz"
SFE.go.cr,1560777975,"El hongo Fusarium oxysporum f. sp. cubense no está presente en el continente, afecta gravemente a las musáceas en otras latitudes y trabajamos fuertemente para evitar su ingreso. Corbana OIRSA FAOMás información en httpsbit.ly2WaENV9"
SFE.go.cr,1560526916,En el Servicio Fitosanitario del Estado hoy se celebró el Día Nacional del Árbol.Más de 400 árboles fueron adoptados por funcionarios y visitantes que se comprometieron a sembrarlos y cuidarlos en sus comunidades.
SFE.go.cr,1560526655,El Servicio Fitosanitario del Estado le informa que acaba de actualizar en su sitio web la lista de sustancias de uso agrícolas autorizadas y el estado de las que están en proceso.httpsbit.ly2gp8DDL
SFE.go.cr,1560440091,"Cursos gratuitos en BPA El interés del SFE es poder reforzar el uso seguro de plaguicidas y el manejo integrado de plagas, con el fin de reducir las prácticas inadecuadas en el campo. Las buenas prácticas agrícolas evitan la contaminación ambiental, los efectos residuales en los productos agrícolas y el daño a la salud de los trabajadores y consumidores. Más información sobre los cursos httpwww.sfe.go.crResidCalendarizaciondecursos.aspx"
SFE.go.cr,1560439891,"Este evento presentará una vez más una amplia variedad de opciones para las empresas interesadas en hacer negocios con Costa Rica, dice Pedro Beirute, director general de Procomer. Conectará a compradores cualificados de todo el mundo con los mejores exportadores que ofrece nuestro país para los sectores de alimentos, agricultura e industrias especializadas."
SFE.go.cr,1560373855,Campos limpios en Nandayure gracias a nuestros agricultores.
SFE.go.cr,1560369241,"Existen ya nuevas formas de trabajar en la agricultura que aprovechan los avances digitales y tecnológicos, haciéndolos más eficientes y nada desdeñable, proporcionando nuevas oportunidades y servicios para los jóvenes empresarios."
SFE.go.cr,1560302610,"Insumos agropecuarios no pagarán IVA durante el primer añoLos insumos agropecuarios comprados en el comercio nacional, NO pagarán IVA durante el primer año. A..."
SFE.go.cr,1560188822, Efectúan curso para certificación de técnicos en fumigaciones con Bromuro de Metilo. Actividad se desarrolló en y participaron 30 funcionarios del Servicio Fitosanitario del Estado 
SFE.go.cr,1560185721,"Un estudio de la Universidad del Estado de Washington, publicado en la Revista de Ecología Aplicada, comprobó que en 70 granjas orgánicas aquellas que no utilizan fertilizantes sintéticos ni pesticidas el escarabajo, junto con las bacterias del suelo, lograba eliminar naturalmente la E. coli y otros agentes patógenos. Eso no sólo protege la vida silvestre sino que a la vez evita la aplicación de pesticidas, ya que reduce la cantidad de aves y mamíferos insectívoros."
SFE.go.cr,1560185509,"La Universidad Politécnica de Cartagena UPCT recupera el uso de la verdolaga en el marco del proyecto europeo Diverfarming, que permite reintroducir esta planta silvestre comestible y aprovechar espacios para hacer más rentables los cultivos. Ya desde la antigüedad se empleaba en la cocina y era apreciada por sus propiedades. La verdolaga, considerada a menudo parte de la maleza, la está plantando la UPCT en huertos de mandarinos."
SFE.go.cr,1560181440,Costa Rica participa en la elaboración de este plan con un miembro del Servicio Fitosanitario del EstadoThe IPPC and Convention on Biological Diversity secretaries officially signed a joint workplan for 20192020Looking forward to scaling up
SFE.go.cr,1560181250,"El hongo Fusarium oxysporum f. sp. cubense no está presente en el continente, trabajamos fuertemente para evitar su ingreso. Corbana OIRSA FAO Más información en httpsbit.ly2WaENV9"
SFE.go.cr,1559928826,"El Servicio Fitosanitario del Estado acaba de actualizar en su sitio web la lista de plaguicidas validados para el análisis de residuos en vegetales, aguas y suelos de uso agrícola. httpsbit.ly28PecVy"
SFE.go.cr,1559921506,"Debemos lograr que sea la ciencia la que dé fundamento a todos los esfuerzos realizados para mejorar la inocuidad de los alimentos y lograr un equilibrio que no afecte el comercio. El marco requerido es el de un sector privado responsable, en el que los productores y los procesadores de alimentos protejan adecuadamente a los consumidores, afirmó Otero."
SFE.go.cr,1559920361,"Las inscripciones para este evento, promovido por la Cooperación alemana para el desarrollo GIZ, la Universidad Cenfotec y las empresas SAP y Bosch, es completamente gratuita y la fecha límite de inscripción es 14 de junio."
SFE.go.cr,1559920032,"El Servicio Fitosanitario del Estado realiza el monitoreo de residuos de plaguicidas en vegetales tanto de la producción nacional, como de los productos que se importan.Quiere saber más sobre inocuidad alimentaria Visite el sitio web del Codex Alimentarius de la FAO httpsbit.ly2fYquhU"
SFE.go.cr,1559673922,"  Efectúan simulacro de erradicación, contención y manejo de brote de fusariosis del banano Foc R4T en  Se practican medidas de bioseguridad, colecta y envío de muestras para diagnóstico y eliminación de brotes "
SFE.go.cr,1559589274,"El SFE recuerda a la ciudadanía que está prohibido ingresar al país con artesanías fabricadas con materiales de bananoEl Servicio Fitosanitario del Estado SFE, del Ministerio de Agricultura y Ganadería MAG, recuerda a las personas que ingresan al país que está prohibido traer artesanías hechas de hojas, tallos, frutas o cualquier parte de la planta de musáceas familia de los bananos y platanillas originarias de los países en los cuales está reportada la plaga Fusarium..."
SFE.go.cr,1559572095,"El hongo Fusarium oxysporum f. sp. cubense Raza 4 Tropical no está presente en el continente, afecta gravemente a las musáceas en otras latitudes y trabajamos fuertemente para evitar su ingreso.Corbana OIRSA FAO Costa Rica"
SFE.go.cr,1559322526,"Antes de ser distribuido y exportado, el maní almacenado puede sufrir el ataque de hongos y otros patógenos, perdiendo de este modo su calidad y pudiendo ser vehículo de toxinas riesgosas para la salud humana."
SFE.go.cr,1559322303,"El Fusarium raza 4 ha sido el protagonista del VIII Congreso Internacional sobre el Banano, que se está celebrando esta semana en Miami, ante el peligro que representa su posible llegada al continente. El gerente general de la Corporación Bananera Nacional de Costa Rica Corbana, Jorge Sauma, ha lanzado un discurso claro a todos los representantes del sector que se encuentran en el congreso la integración es la mejor arma contra el enemigo número 1 del banano."
SFE.go.cr,1559315055,"El 7 de junio se celebrará el día internacional de la inocuidad, qué es eso y por qué nos debe interesar a todosOIRSA CodexAlimentarius"
SFE.go.cr,1559237786,Publican reglamento para el combate particular y obligatorio de la plaga de los cítricos Huanglongbing HLB y su vector Reglamento establece obligaciones de propietarios u ocupantes de áreas donde se detecte la plaga.  El SFE fomentará y promoverá el manejo integrado de la plaga bajo el concepto técnico fitosanitario del desarrollo sostenible.
SFE.go.cr,1559161822,"Las exportaciones de mango peruano deberán enfrentar mayores requisitos para ingresar a la Unión Europea. Esto luego de que la autoridad fitosanitaria de la UE impusiera restricciones por la mosca de la fruta, las que estará vigentes desde el 1 de septiembre."
SFE.go.cr,1559161234,Video en español sobre la importancia del uso correcto del Equipo Personal de Protección EPP realizado por la Asociación Nacional de Defensa Vegetal de Brasil.
SFE.go.cr,1559150334,"Qué plagas nos ocupanPlagas reglamentadas, plagas cuarentenarias bajo vigilancia, plagas bajo vigilancia de Estaciones Fitosanitarias presentes en el país, plagas cuarentenarias y presentes en el país que se supervisan con el método de trampeo."
SFE.go.cr,1559148357,"Renato Alvarado, ministro de Agricultura y Ganadería de Costa Rica, país impulsor de esta iniciativa, ha enumerado políticas dirigidas a proporcionar valor añadido a los productos, abrirse al mercado internacional, adaptar el conocimiento tradicional a las tecnologías o acortar las cadenas de intermediación para que las ganancias queden más cerca del productor."
SFE.go.cr,1559147052,"La implementación de aplicaciones tecnológicas digitales como el big data, robots, drones, IoT, Cloud e inteligencia artificial AI llegaron para innovar en esta industria. De de estas herramientas se pueden obtener datos analíticos que necesitan los productores para utilizar los recursos que tienen de manera más precisa y hacer sus campos más sustentables a través de la digitalización."
SFE.go.cr,1558719009,"Saldrán los primeros envíos de repollo hacia Trinidad y Tobago luego de nuevas medidas Este sábado dos empresas reanudarán la exportación de repollo hacia el país caribeño, con un envío total de 21. 400 kilos."
SFE.go.cr,1558628717,"El Apex Agrícola se realizará el jueves 30 de mayo, de 830 am a 430 pm en el Hotel Crown Corobicí. Los panelistas contarán en una forma muy concreta, directa y vivencial cómo han hecho para que sus productos gocen hoy de la predilección de consumidores en Estados Unidos, Europa y otros destinos pero también cómo vencieron obstáculos iniciales que quizás otros experimentan actualmente."
SFE.go.cr,1558469064,"Fortalecen inspección de productos agropecuarios en puesto de Peñas Blancas. El SFE invirtió aproximadamente 70 millones de colones para la modernización del Andén de Inspección en el puesto de Peñas Blancas, en la frontera con Nicaragua."
SFE.go.cr,1558454679,"En el Congreso Internacional sobre Banano, que se llevara a cabo en Miami del 28 al 31 de mayo y que está organizado por la Corporación Bananera Nacional de Costa Rica CORBANA, se expondrán los avances científicos sobre el Fusarium y se analizará el problema para intentar encontrar una solución."
SFE.go.cr,1558380832,El Servicio Fitosanitario del Estado acaba de actualizar en su sitio web la lista de operadores orgánicos inscritoshttpsbit.ly2jeg7Mz
SFE.go.cr,1558022975,"Costa Rica realizó simulacro oficial para prevenir ingreso de peligrosa plaga que afecta el bananoDeclaraciones de Jorge Sauma, RGerente General de CORBANA sobre el Simulacro Nacional para la prevención del Foc R4T"
SFE.go.cr,1558022890,"Costa Rica realizó simulacro oficial para prevenir ingreso de peligrosa plaga que afecta el bananoDeclaraciones de Gabriela Zúñiga, Representante del OIRSA en Costa Rica sobre el Simulacro Nacional para la prevención del Foc R4T"
SFE.go.cr,1558022778,"Costa Rica realizó simulacro oficial para prevenir ingreso de peligrosa plaga que afecta el bananoDeclaraciones del Dr. Carlos Urías, Director Regional de Sanidad Vegetal del OIRSA sobre el Simulacro Nacional para la prevención del Foc R4T"
SFE.go.cr,1558022626,"Costa Rica realizó simulacro oficial para prevenir ingreso de peligrosa plaga que afecta el bananoDeclaraciones de Raixa Llauger, oficial de agricultura de la subregión FAO Mesoamérioca sobre el Simulacro Nacional para la prevención del Foc R4T"
SFE.go.cr,1558022211,"Costa Rica realizó simulacro oficial para prevenir ingreso de peligrosa plaga que afecta el bananoDeclaraciones de Fernando Araya, Director del SFEMAG sobre el Simulacro Nacional para la prevención del Foc R4T"
SFE.go.cr,1558021397,"Costa Rica realizó simulacro oficial para prevenir ingreso de peligrosa plaga que afecta el bananoLa plaga FOC R4T aún no está en el continente americano. Prevención, capacitación y simulacros procuran evitar su ingreso."
SFE.go.cr,1557846076,"En el marco de la Semana Nacional de la Nutrición, les recomendamos diversificar su alimentación y consumir productos locales como ñampí, malanga, quelites, tacacos, chicasquil, distintas variedades de frijoles."
